{
    "m_SGVersion": 2,
    "m_Type": "UnityEditor.ShaderGraph.GraphData",
    "m_ObjectId": "5c1224a94dc24942b41c8f11e3a4db13",
    "m_Properties": [
        {
            "m_Id": "c357718a564766878515a5583a2f5006"
        },
        {
            "m_Id": "1e5df1c0676d368497e9f5bfa7fde166"
        }
    ],
    "m_Keywords": [],
    "m_Nodes": [
        {
            "m_Id": "39ddba5f30656d8fb9410a197c4ed897"
        },
        {
            "m_Id": "4d0a39fab23c6c87a74a94323f397ab3"
        },
        {
            "m_Id": "fd2f26a398c9358789a488a565cdca73"
        },
        {
            "m_Id": "ebcef7f66c36298694f0f5f546048f29"
        },
        {
            "m_Id": "47d6240959c3b58cbb09d3e1892acc53"
        },
        {
            "m_Id": "02029dc0e793ff848b479c06e168dfed"
        },
        {
            "m_Id": "edc60c6143c86d88985017a47bff1bb4"
        },
        {
            "m_Id": "77495d04111ce98e9b8bf779929f5a43"
        },
        {
            "m_Id": "2a0d463e058dfe848ad72f7503f611cc"
        },
        {
            "m_Id": "a422cb3423053d8bbcf4087d0092d03d"
        },
        {
            "m_Id": "158baa7389d9fc828f0640bb27d4d060"
        },
        {
            "m_Id": "2b3bcfd8da61f686919c05f6a670c673"
        },
        {
            "m_Id": "4407c8754b1a828e9fe28cd5a516d4ec"
        },
        {
            "m_Id": "b7b8ef3534620c8a91a3b9518bf84b0b"
        },
        {
            "m_Id": "d9a0a022f63326809f9def56a0c447be"
        },
        {
            "m_Id": "14640bf84981c582a500a99eeaf2514e"
        },
        {
            "m_Id": "b03ab36226ca4a86b5bb84c00789306e"
        },
        {
            "m_Id": "37630366cfa8d483bb0e0227a6956c87"
        },
        {
            "m_Id": "343b96bebc9eb786990f77c1d86d6273"
        },
        {
            "m_Id": "53f9e3820e57c9858dfdcb90b64ae955"
        },
        {
            "m_Id": "0978e6e0c7e76a81b3ec4a28d239b0b0"
        },
        {
            "m_Id": "69517406b1aab0819e8b3c2a910c5a67"
        },
        {
            "m_Id": "2aa70475fc87b18fb2dc7942b94dc538"
        },
        {
            "m_Id": "6b50edce400ec68898c26ca84e92cb52"
        },
        {
            "m_Id": "c22d502bc425a08ba90a1f8f444285f8"
        },
        {
            "m_Id": "0666b3538a2cb486bc1d7581742b04ee"
        },
        {
            "m_Id": "8e42776ad75a2180af34b9f2840f1ae6"
        },
        {
            "m_Id": "a731c11df01ca48884876a7fdc5ec61d"
        },
        {
            "m_Id": "94910cd83250a28b8220907a5021ae2b"
        },
        {
            "m_Id": "f3f0f5e8c7259e819e1d9ec3b07c1b39"
        },
        {
            "m_Id": "4c6bc42c00a6c38080f929f8228841d6"
        },
        {
            "m_Id": "bab88df6428af9858bb213fc08487702"
        },
        {
            "m_Id": "395b637857c11c8cb89840bf80e4f977"
        }
    ],
    "m_GroupDatas": [
        {
            "m_Id": "ce8dd4e0bce149dc9d95bf62958879ee"
        }
    ],
    "m_StickyNoteDatas": [],
    "m_Edges": [
        {
            "m_OutputSlot": {
                "m_Node": {
                    "m_Id": "02029dc0e793ff848b479c06e168dfed"
                },
                "m_SlotId": 3
            },
            "m_InputSlot": {
                "m_Node": {
                    "m_Id": "39ddba5f30656d8fb9410a197c4ed897"
                },
                "m_SlotId": 1
            }
        },
        {
            "m_OutputSlot": {
                "m_Node": {
                    "m_Id": "0666b3538a2cb486bc1d7581742b04ee"
                },
                "m_SlotId": 2
            },
            "m_InputSlot": {
                "m_Node": {
                    "m_Id": "02029dc0e793ff848b479c06e168dfed"
                },
                "m_SlotId": 0
            }
        },
        {
            "m_OutputSlot": {
                "m_Node": {
                    "m_Id": "0978e6e0c7e76a81b3ec4a28d239b0b0"
                },
                "m_SlotId": 1
            },
            "m_InputSlot": {
                "m_Node": {
                    "m_Id": "6b50edce400ec68898c26ca84e92cb52"
                },
                "m_SlotId": 0
            }
        },
        {
            "m_OutputSlot": {
                "m_Node": {
                    "m_Id": "14640bf84981c582a500a99eeaf2514e"
                },
                "m_SlotId": 1
            },
            "m_InputSlot": {
                "m_Node": {
                    "m_Id": "69517406b1aab0819e8b3c2a910c5a67"
                },
                "m_SlotId": 0
            }
        },
        {
            "m_OutputSlot": {
                "m_Node": {
                    "m_Id": "158baa7389d9fc828f0640bb27d4d060"
                },
                "m_SlotId": 2
            },
            "m_InputSlot": {
                "m_Node": {
                    "m_Id": "0666b3538a2cb486bc1d7581742b04ee"
                },
                "m_SlotId": 0
            }
        },
        {
            "m_OutputSlot": {
                "m_Node": {
                    "m_Id": "2a0d463e058dfe848ad72f7503f611cc"
                },
                "m_SlotId": 1
            },
            "m_InputSlot": {
                "m_Node": {
                    "m_Id": "edc60c6143c86d88985017a47bff1bb4"
                },
                "m_SlotId": 1
            }
        },
        {
            "m_OutputSlot": {
                "m_Node": {
                    "m_Id": "2aa70475fc87b18fb2dc7942b94dc538"
                },
                "m_SlotId": 1
            },
            "m_InputSlot": {
                "m_Node": {
                    "m_Id": "6b50edce400ec68898c26ca84e92cb52"
                },
                "m_SlotId": 1
            }
        },
        {
            "m_OutputSlot": {
                "m_Node": {
                    "m_Id": "2b3bcfd8da61f686919c05f6a670c673"
                },
                "m_SlotId": 2
            },
            "m_InputSlot": {
                "m_Node": {
                    "m_Id": "158baa7389d9fc828f0640bb27d4d060"
                },
                "m_SlotId": 1
            }
        },
        {
            "m_OutputSlot": {
                "m_Node": {
                    "m_Id": "343b96bebc9eb786990f77c1d86d6273"
                },
                "m_SlotId": 1
            },
            "m_InputSlot": {
                "m_Node": {
                    "m_Id": "37630366cfa8d483bb0e0227a6956c87"
                },
                "m_SlotId": 2
            }
        },
        {
            "m_OutputSlot": {
                "m_Node": {
                    "m_Id": "37630366cfa8d483bb0e0227a6956c87"
                },
                "m_SlotId": 0
            },
            "m_InputSlot": {
                "m_Node": {
                    "m_Id": "0978e6e0c7e76a81b3ec4a28d239b0b0"
                },
                "m_SlotId": 832014706
            }
        },
        {
            "m_OutputSlot": {
                "m_Node": {
                    "m_Id": "37630366cfa8d483bb0e0227a6956c87"
                },
                "m_SlotId": 0
            },
            "m_InputSlot": {
                "m_Node": {
                    "m_Id": "53f9e3820e57c9858dfdcb90b64ae955"
                },
                "m_SlotId": 0
            }
        },
        {
            "m_OutputSlot": {
                "m_Node": {
                    "m_Id": "395b637857c11c8cb89840bf80e4f977"
                },
                "m_SlotId": 2
            },
            "m_InputSlot": {
                "m_Node": {
                    "m_Id": "343b96bebc9eb786990f77c1d86d6273"
                },
                "m_SlotId": 0
            }
        },
        {
            "m_OutputSlot": {
                "m_Node": {
                    "m_Id": "395b637857c11c8cb89840bf80e4f977"
                },
                "m_SlotId": 2
            },
            "m_InputSlot": {
                "m_Node": {
                    "m_Id": "77495d04111ce98e9b8bf779929f5a43"
                },
                "m_SlotId": 2
            }
        },
        {
            "m_OutputSlot": {
                "m_Node": {
                    "m_Id": "395b637857c11c8cb89840bf80e4f977"
                },
                "m_SlotId": 2
            },
            "m_InputSlot": {
                "m_Node": {
                    "m_Id": "bab88df6428af9858bb213fc08487702"
                },
                "m_SlotId": 0
            }
        },
        {
            "m_OutputSlot": {
                "m_Node": {
                    "m_Id": "395b637857c11c8cb89840bf80e4f977"
                },
                "m_SlotId": 2
            },
            "m_InputSlot": {
                "m_Node": {
                    "m_Id": "d9a0a022f63326809f9def56a0c447be"
                },
                "m_SlotId": 2
            }
        },
        {
            "m_OutputSlot": {
                "m_Node": {
                    "m_Id": "4407c8754b1a828e9fe28cd5a516d4ec"
                },
                "m_SlotId": 0
            },
            "m_InputSlot": {
                "m_Node": {
                    "m_Id": "a422cb3423053d8bbcf4087d0092d03d"
                },
                "m_SlotId": 832014706
            }
        },
        {
            "m_OutputSlot": {
                "m_Node": {
                    "m_Id": "4407c8754b1a828e9fe28cd5a516d4ec"
                },
                "m_SlotId": 0
            },
            "m_InputSlot": {
                "m_Node": {
                    "m_Id": "ebcef7f66c36298694f0f5f546048f29"
                },
                "m_SlotId": 0
            }
        },
        {
            "m_OutputSlot": {
                "m_Node": {
                    "m_Id": "47d6240959c3b58cbb09d3e1892acc53"
                },
                "m_SlotId": 1
            },
            "m_InputSlot": {
                "m_Node": {
                    "m_Id": "2b3bcfd8da61f686919c05f6a670c673"
                },
                "m_SlotId": 1
            }
        },
        {
            "m_OutputSlot": {
                "m_Node": {
                    "m_Id": "4c6bc42c00a6c38080f929f8228841d6"
                },
                "m_SlotId": 2
            },
            "m_InputSlot": {
                "m_Node": {
                    "m_Id": "bab88df6428af9858bb213fc08487702"
                },
                "m_SlotId": 1
            }
        },
        {
            "m_OutputSlot": {
                "m_Node": {
                    "m_Id": "4d0a39fab23c6c87a74a94323f397ab3"
                },
                "m_SlotId": 1
            },
            "m_InputSlot": {
                "m_Node": {
                    "m_Id": "2b3bcfd8da61f686919c05f6a670c673"
                },
                "m_SlotId": 0
            }
        },
        {
            "m_OutputSlot": {
                "m_Node": {
                    "m_Id": "53f9e3820e57c9858dfdcb90b64ae955"
                },
                "m_SlotId": 1
            },
            "m_InputSlot": {
                "m_Node": {
                    "m_Id": "2aa70475fc87b18fb2dc7942b94dc538"
                },
                "m_SlotId": 832014706
            }
        },
        {
            "m_OutputSlot": {
                "m_Node": {
                    "m_Id": "69517406b1aab0819e8b3c2a910c5a67"
                },
                "m_SlotId": 2
            },
            "m_InputSlot": {
                "m_Node": {
                    "m_Id": "c22d502bc425a08ba90a1f8f444285f8"
                },
                "m_SlotId": 0
            }
        },
        {
            "m_OutputSlot": {
                "m_Node": {
                    "m_Id": "6b50edce400ec68898c26ca84e92cb52"
                },
                "m_SlotId": 2
            },
            "m_InputSlot": {
                "m_Node": {
                    "m_Id": "c22d502bc425a08ba90a1f8f444285f8"
                },
                "m_SlotId": 1
            }
        },
        {
            "m_OutputSlot": {
                "m_Node": {
                    "m_Id": "77495d04111ce98e9b8bf779929f5a43"
                },
                "m_SlotId": 0
            },
            "m_InputSlot": {
                "m_Node": {
                    "m_Id": "4d0a39fab23c6c87a74a94323f397ab3"
                },
                "m_SlotId": 832014706
            }
        },
        {
            "m_OutputSlot": {
                "m_Node": {
                    "m_Id": "77495d04111ce98e9b8bf779929f5a43"
                },
                "m_SlotId": 0
            },
            "m_InputSlot": {
                "m_Node": {
                    "m_Id": "fd2f26a398c9358789a488a565cdca73"
                },
                "m_SlotId": 0
            }
        },
        {
            "m_OutputSlot": {
                "m_Node": {
                    "m_Id": "8e42776ad75a2180af34b9f2840f1ae6"
                },
                "m_SlotId": 0
            },
            "m_InputSlot": {
                "m_Node": {
                    "m_Id": "0978e6e0c7e76a81b3ec4a28d239b0b0"
                },
                "m_SlotId": 1154981915
            }
        },
        {
            "m_OutputSlot": {
                "m_Node": {
                    "m_Id": "8e42776ad75a2180af34b9f2840f1ae6"
                },
                "m_SlotId": 0
            },
            "m_InputSlot": {
                "m_Node": {
                    "m_Id": "14640bf84981c582a500a99eeaf2514e"
                },
                "m_SlotId": 1154981915
            }
        },
        {
            "m_OutputSlot": {
                "m_Node": {
                    "m_Id": "8e42776ad75a2180af34b9f2840f1ae6"
                },
                "m_SlotId": 0
            },
            "m_InputSlot": {
                "m_Node": {
                    "m_Id": "2a0d463e058dfe848ad72f7503f611cc"
                },
                "m_SlotId": 1154981915
            }
        },
        {
            "m_OutputSlot": {
                "m_Node": {
                    "m_Id": "8e42776ad75a2180af34b9f2840f1ae6"
                },
                "m_SlotId": 0
            },
            "m_InputSlot": {
                "m_Node": {
                    "m_Id": "2aa70475fc87b18fb2dc7942b94dc538"
                },
                "m_SlotId": 1154981915
            }
        },
        {
            "m_OutputSlot": {
                "m_Node": {
                    "m_Id": "8e42776ad75a2180af34b9f2840f1ae6"
                },
                "m_SlotId": 0
            },
            "m_InputSlot": {
                "m_Node": {
                    "m_Id": "47d6240959c3b58cbb09d3e1892acc53"
                },
                "m_SlotId": 1154981915
            }
        },
        {
            "m_OutputSlot": {
                "m_Node": {
                    "m_Id": "8e42776ad75a2180af34b9f2840f1ae6"
                },
                "m_SlotId": 0
            },
            "m_InputSlot": {
                "m_Node": {
                    "m_Id": "4d0a39fab23c6c87a74a94323f397ab3"
                },
                "m_SlotId": 1154981915
            }
        },
        {
            "m_OutputSlot": {
                "m_Node": {
                    "m_Id": "8e42776ad75a2180af34b9f2840f1ae6"
                },
                "m_SlotId": 0
            },
            "m_InputSlot": {
                "m_Node": {
                    "m_Id": "a422cb3423053d8bbcf4087d0092d03d"
                },
                "m_SlotId": 1154981915
            }
        },
        {
            "m_OutputSlot": {
                "m_Node": {
                    "m_Id": "8e42776ad75a2180af34b9f2840f1ae6"
                },
                "m_SlotId": 0
            },
            "m_InputSlot": {
                "m_Node": {
                    "m_Id": "b7b8ef3534620c8a91a3b9518bf84b0b"
                },
                "m_SlotId": 1154981915
            }
        },
        {
            "m_OutputSlot": {
                "m_Node": {
                    "m_Id": "94910cd83250a28b8220907a5021ae2b"
                },
                "m_SlotId": 0
            },
            "m_InputSlot": {
                "m_Node": {
                    "m_Id": "f3f0f5e8c7259e819e1d9ec3b07c1b39"
                },
                "m_SlotId": 1
            }
        },
        {
            "m_OutputSlot": {
                "m_Node": {
                    "m_Id": "a422cb3423053d8bbcf4087d0092d03d"
                },
                "m_SlotId": 1
            },
            "m_InputSlot": {
                "m_Node": {
                    "m_Id": "edc60c6143c86d88985017a47bff1bb4"
                },
                "m_SlotId": 0
            }
        },
        {
            "m_OutputSlot": {
                "m_Node": {
                    "m_Id": "a731c11df01ca48884876a7fdc5ec61d"
                },
                "m_SlotId": 0
            },
            "m_InputSlot": {
                "m_Node": {
                    "m_Id": "395b637857c11c8cb89840bf80e4f977"
                },
                "m_SlotId": 0
            }
        },
        {
            "m_OutputSlot": {
                "m_Node": {
                    "m_Id": "b03ab36226ca4a86b5bb84c00789306e"
                },
                "m_SlotId": 1
            },
            "m_InputSlot": {
                "m_Node": {
                    "m_Id": "b7b8ef3534620c8a91a3b9518bf84b0b"
                },
                "m_SlotId": 832014706
            }
        },
        {
            "m_OutputSlot": {
                "m_Node": {
                    "m_Id": "b7b8ef3534620c8a91a3b9518bf84b0b"
                },
                "m_SlotId": 1
            },
            "m_InputSlot": {
                "m_Node": {
                    "m_Id": "69517406b1aab0819e8b3c2a910c5a67"
                },
                "m_SlotId": 1
            }
        },
        {
            "m_OutputSlot": {
                "m_Node": {
                    "m_Id": "bab88df6428af9858bb213fc08487702"
                },
                "m_SlotId": 2
            },
            "m_InputSlot": {
                "m_Node": {
                    "m_Id": "37630366cfa8d483bb0e0227a6956c87"
                },
                "m_SlotId": 1
            }
        },
        {
            "m_OutputSlot": {
                "m_Node": {
                    "m_Id": "bab88df6428af9858bb213fc08487702"
                },
                "m_SlotId": 2
            },
            "m_InputSlot": {
                "m_Node": {
                    "m_Id": "4407c8754b1a828e9fe28cd5a516d4ec"
                },
                "m_SlotId": 1
            }
        },
        {
            "m_OutputSlot": {
                "m_Node": {
                    "m_Id": "bab88df6428af9858bb213fc08487702"
                },
                "m_SlotId": 2
            },
            "m_InputSlot": {
                "m_Node": {
                    "m_Id": "d9a0a022f63326809f9def56a0c447be"
                },
                "m_SlotId": 1
            }
        },
        {
            "m_OutputSlot": {
                "m_Node": {
                    "m_Id": "c22d502bc425a08ba90a1f8f444285f8"
                },
                "m_SlotId": 2
            },
            "m_InputSlot": {
                "m_Node": {
                    "m_Id": "0666b3538a2cb486bc1d7581742b04ee"
                },
                "m_SlotId": 1
            }
        },
        {
            "m_OutputSlot": {
                "m_Node": {
                    "m_Id": "d9a0a022f63326809f9def56a0c447be"
                },
                "m_SlotId": 0
            },
            "m_InputSlot": {
                "m_Node": {
                    "m_Id": "14640bf84981c582a500a99eeaf2514e"
                },
                "m_SlotId": 832014706
            }
        },
        {
            "m_OutputSlot": {
                "m_Node": {
                    "m_Id": "d9a0a022f63326809f9def56a0c447be"
                },
                "m_SlotId": 0
            },
            "m_InputSlot": {
                "m_Node": {
                    "m_Id": "b03ab36226ca4a86b5bb84c00789306e"
                },
                "m_SlotId": 0
            }
        },
        {
            "m_OutputSlot": {
                "m_Node": {
                    "m_Id": "ebcef7f66c36298694f0f5f546048f29"
                },
                "m_SlotId": 1
            },
            "m_InputSlot": {
                "m_Node": {
                    "m_Id": "2a0d463e058dfe848ad72f7503f611cc"
                },
                "m_SlotId": 832014706
            }
        },
        {
            "m_OutputSlot": {
                "m_Node": {
                    "m_Id": "edc60c6143c86d88985017a47bff1bb4"
                },
                "m_SlotId": 2
            },
            "m_InputSlot": {
                "m_Node": {
                    "m_Id": "158baa7389d9fc828f0640bb27d4d060"
                },
                "m_SlotId": 0
            }
        },
        {
            "m_OutputSlot": {
                "m_Node": {
                    "m_Id": "f3f0f5e8c7259e819e1d9ec3b07c1b39"
                },
                "m_SlotId": 0
            },
            "m_InputSlot": {
                "m_Node": {
                    "m_Id": "4c6bc42c00a6c38080f929f8228841d6"
                },
                "m_SlotId": 1
            }
        },
        {
            "m_OutputSlot": {
                "m_Node": {
                    "m_Id": "f3f0f5e8c7259e819e1d9ec3b07c1b39"
                },
                "m_SlotId": 2
            },
            "m_InputSlot": {
                "m_Node": {
                    "m_Id": "395b637857c11c8cb89840bf80e4f977"
                },
                "m_SlotId": 1
            }
        },
        {
            "m_OutputSlot": {
                "m_Node": {
                    "m_Id": "f3f0f5e8c7259e819e1d9ec3b07c1b39"
                },
                "m_SlotId": 2
            },
            "m_InputSlot": {
                "m_Node": {
                    "m_Id": "4c6bc42c00a6c38080f929f8228841d6"
                },
                "m_SlotId": 0
            }
        },
        {
            "m_OutputSlot": {
                "m_Node": {
                    "m_Id": "fd2f26a398c9358789a488a565cdca73"
                },
                "m_SlotId": 1
            },
            "m_InputSlot": {
                "m_Node": {
                    "m_Id": "47d6240959c3b58cbb09d3e1892acc53"
                },
                "m_SlotId": 832014706
            }
        }
    ],
    "m_VertexContext": {
        "m_Position": {
            "x": 1023.0001220703125,
            "y": -351.0
        },
        "m_Blocks": []
    },
    "m_FragmentContext": {
        "m_Position": {
            "x": 1023.0001220703125,
            "y": -151.0
        },
        "m_Blocks": []
    },
    "m_PreviewData": {
        "serializedMesh": {
            "m_SerializedMesh": "{\"mesh\":{\"instanceID\":0}}",
            "m_Guid": ""
        }
    },
    "m_Path": "HappyHames/SubGraphs",
    "m_ConcretePrecision": 0,
    "m_PreviewMode": 2,
    "m_OutputNode": {
        "m_Id": "39ddba5f30656d8fb9410a197c4ed897"
    },
    "m_ActiveTargets": []
}

{
    "m_SGVersion": 0,
    "m_Type": "UnityEditor.ShaderGraph.ClampNode",
    "m_ObjectId": "02029dc0e793ff848b479c06e168dfed",
    "m_Group": {
        "m_Id": "ce8dd4e0bce149dc9d95bf62958879ee"
    },
    "m_Name": "Clamp",
    "m_DrawState": {
        "m_Expanded": true,
        "m_Position": {
            "serializedVersion": "2",
            "x": 313.85064697265627,
            "y": -308.1119384765625,
            "width": 208.0,
            "height": 326.0
        }
    },
    "m_Slots": [
        {
            "m_Id": "1a301c950e098c8aa83bfe1b3fe33eba"
        },
        {
            "m_Id": "55e239718ec07f88892144fef2f87a9a"
        },
        {
            "m_Id": "dc9c688cb97bd98fa2f659e49e128f98"
        },
        {
            "m_Id": "5a674f02dabe5882b538b7a81974ceb2"
        }
    ],
    "synonyms": [],
    "m_Precision": 0,
    "m_PreviewExpanded": true,
    "m_PreviewMode": 0,
    "m_CustomColors": {
        "m_SerializableColors": []
    }
}

{
    "m_SGVersion": 0,
    "m_Type": "UnityEditor.ShaderGraph.Vector1MaterialSlot",
    "m_ObjectId": "0353b523830f418eb23145790832a81c",
    "m_Id": 1,
    "m_DisplayName": "X",
    "m_SlotType": 0,
    "m_Hidden": false,
    "m_ShaderOutputName": "X",
    "m_StageCapability": 3,
    "m_Value": 0.0,
    "m_DefaultValue": 0.0,
    "m_Labels": [
        "X"
    ]
}

{
    "m_SGVersion": 0,
    "m_Type": "UnityEditor.ShaderGraph.AddNode",
    "m_ObjectId": "0666b3538a2cb486bc1d7581742b04ee",
    "m_Group": {
        "m_Id": "ce8dd4e0bce149dc9d95bf62958879ee"
    },
    "m_Name": "Add",
    "m_DrawState": {
        "m_Expanded": true,
        "m_Position": {
            "serializedVersion": "2",
            "x": 131.74993896484376,
            "y": -93.25,
            "width": 137.0,
            "height": 118.0
        }
    },
    "m_Slots": [
        {
            "m_Id": "fd304884b526a28a80d70f6e4f96af48"
        },
        {
            "m_Id": "1c66af37b5f19382a2b95e304c360b73"
        },
        {
            "m_Id": "49c0d8be48d3cb8a885f385ba1e3a26e"
        }
    ],
    "synonyms": [],
    "m_Precision": 0,
    "m_PreviewExpanded": false,
    "m_PreviewMode": 0,
    "m_CustomColors": {
        "m_SerializableColors": []
    }
}

{
    "m_SGVersion": 0,
    "m_Type": "UnityEditor.ShaderGraph.Vector1MaterialSlot",
    "m_ObjectId": "085307078229e78ca11e501c73e8e25d",
    "m_Id": 0,
    "m_DisplayName": "Size",
    "m_SlotType": 1,
    "m_Hidden": false,
    "m_ShaderOutputName": "Out",
    "m_StageCapability": 3,
    "m_Value": 0.0,
    "m_DefaultValue": 0.0,
    "m_Labels": [
        "X"
    ]
}

{
    "m_SGVersion": 0,
    "m_Type": "UnityEditor.ShaderGraph.Texture2DInputMaterialSlot",
    "m_ObjectId": "08ce912bbd38db899ba89ba8e8209d4d",
    "m_Id": 1,
    "m_DisplayName": "Texture",
    "m_SlotType": 0,
    "m_Hidden": false,
    "m_ShaderOutputName": "Texture",
    "m_StageCapability": 3,
    "m_BareResource": false,
    "m_Texture": {
        "m_SerializedTexture": "{\"texture\":{\"instanceID\":0}}",
        "m_Guid": ""
    },
    "m_DefaultType": 0
}

{
    "m_SGVersion": 0,
    "m_Type": "UnityEditor.ShaderGraph.SubGraphNode",
    "m_ObjectId": "0978e6e0c7e76a81b3ec4a28d239b0b0",
    "m_Group": {
        "m_Id": "ce8dd4e0bce149dc9d95bf62958879ee"
    },
    "m_Name": "Texture Mask Shift",
    "m_DrawState": {
        "m_Expanded": true,
        "m_Position": {
            "serializedVersion": "2",
            "x": -443.24993896484377,
            "y": 274.74993896484377,
            "width": 231.99998474121095,
            "height": 117.99999237060547
        }
    },
    "m_Slots": [
        {
            "m_Id": "cce6c47437c760819a0a1f6a569843ec"
        },
        {
            "m_Id": "893ca9d562afc68180195ae6d9699e79"
        },
        {
            "m_Id": "2e51537d88b5b2808f0dfcb8ba109e1b"
        }
    ],
    "synonyms": [],
    "m_Precision": 0,
    "m_PreviewExpanded": false,
    "m_PreviewMode": 0,
    "m_CustomColors": {
        "m_SerializableColors": []
    },
    "m_SerializedSubGraph": "{\n    \"subGraph\": {\n        \"fileID\": -5475051401550479605,\n        \"guid\": \"914fbbb6248a76a46a06d5160fae93ab\",\n        \"type\": 3\n    }\n}",
    "m_PropertyGuids": [
        "090fcbc8-5198-42bc-9513-69df679f9206",
        "d741e72a-dc96-4708-8050-4f102868b739"
    ],
    "m_PropertyIds": [
        832014706,
        1154981915
    ]
}

{
    "m_SGVersion": 0,
    "m_Type": "UnityEditor.ShaderGraph.DynamicVectorMaterialSlot",
    "m_ObjectId": "0b2127bffee6478292ca5d51b7e8ab99",
    "m_Id": 1,
    "m_DisplayName": "B",
    "m_SlotType": 0,
    "m_Hidden": false,
    "m_ShaderOutputName": "B",
    "m_StageCapability": 3,
    "m_Value": {
        "x": 2.0,
        "y": 2.0,
        "z": 2.0,
        "w": 2.0
    },
    "m_DefaultValue": {
        "x": 0.0,
        "y": 0.0,
        "z": 0.0,
        "w": 0.0
    }
}

{
    "m_SGVersion": 0,
    "m_Type": "UnityEditor.ShaderGraph.Vector2MaterialSlot",
    "m_ObjectId": "0e2e3d1d9c41d18692adaa7bd407fb8a",
    "m_Id": 832014706,
    "m_DisplayName": "Offset",
    "m_SlotType": 0,
    "m_Hidden": false,
    "m_ShaderOutputName": "Vector2_71A49153",
    "m_StageCapability": 2,
    "m_Value": {
        "x": 0.0,
        "y": 0.0
    },
    "m_DefaultValue": {
        "x": 0.0,
        "y": 0.0
    },
    "m_Labels": [
        "X",
        "Y"
    ]
}

{
    "m_SGVersion": 0,
    "m_Type": "UnityEditor.ShaderGraph.SubGraphNode",
    "m_ObjectId": "14640bf84981c582a500a99eeaf2514e",
    "m_Group": {
        "m_Id": "ce8dd4e0bce149dc9d95bf62958879ee"
    },
    "m_Name": "Texture Mask Shift",
    "m_DrawState": {
        "m_Expanded": true,
        "m_Position": {
            "serializedVersion": "2",
            "x": -447.2498779296875,
            "y": -8.250030517578125,
            "width": 231.99998474121095,
            "height": 117.99999237060547
        }
    },
    "m_Slots": [
        {
            "m_Id": "ba14d30c54edf08e972bc86a790985d6"
        },
        {
            "m_Id": "c8db3237f8cbbc8e88e556e8d657a987"
        },
        {
            "m_Id": "c51caa763ca2c2889822e47c698dab61"
        }
    ],
    "synonyms": [],
    "m_Precision": 0,
    "m_PreviewExpanded": false,
    "m_PreviewMode": 0,
    "m_CustomColors": {
        "m_SerializableColors": []
    },
    "m_SerializedSubGraph": "{\n    \"subGraph\": {\n        \"fileID\": -5475051401550479605,\n        \"guid\": \"914fbbb6248a76a46a06d5160fae93ab\",\n        \"type\": 3\n    }\n}",
    "m_PropertyGuids": [
        "090fcbc8-5198-42bc-9513-69df679f9206",
        "d741e72a-dc96-4708-8050-4f102868b739"
    ],
    "m_PropertyIds": [
        832014706,
        1154981915
    ]
}

{
    "m_SGVersion": 0,
    "m_Type": "UnityEditor.ShaderGraph.AddNode",
    "m_ObjectId": "158baa7389d9fc828f0640bb27d4d060",
    "m_Group": {
        "m_Id": "ce8dd4e0bce149dc9d95bf62958879ee"
    },
    "m_Name": "Add",
    "m_DrawState": {
        "m_Expanded": true,
        "m_Position": {
            "serializedVersion": "2",
            "x": -28.24993896484375,
            "y": -366.25,
            "width": 134.99998474121095,
            "height": 117.99999237060547
        }
    },
    "m_Slots": [
        {
            "m_Id": "325ad7af17e3e484a9a628e3084bedd7"
        },
        {
            "m_Id": "54a81faa27c95d8db3c6306abab558df"
        },
        {
            "m_Id": "46ab4cd66f4bd480b636b14fc75670d8"
        }
    ],
    "synonyms": [],
    "m_Precision": 0,
    "m_PreviewExpanded": false,
    "m_PreviewMode": 0,
    "m_CustomColors": {
        "m_SerializableColors": []
    }
}

{
    "m_SGVersion": 0,
    "m_Type": "UnityEditor.ShaderGraph.Texture2DInputMaterialSlot",
    "m_ObjectId": "16c707d4001f52858c286a3af87059d4",
    "m_Id": 1154981915,
    "m_DisplayName": "Texture",
    "m_SlotType": 0,
    "m_Hidden": false,
    "m_ShaderOutputName": "Texture2D_EAAEF77E",
    "m_StageCapability": 2,
    "m_BareResource": false,
    "m_Texture": {
        "m_SerializedTexture": "{\"texture\":{\"instanceID\":0}}",
        "m_Guid": ""
    },
    "m_DefaultType": 0
}

{
    "m_SGVersion": 0,
    "m_Type": "UnityEditor.ShaderGraph.DynamicVectorMaterialSlot",
    "m_ObjectId": "183e1b20e7cb088485094fe8b74933de",
    "m_Id": 2,
    "m_DisplayName": "Out",
    "m_SlotType": 1,
    "m_Hidden": false,
    "m_ShaderOutputName": "Out",
    "m_StageCapability": 3,
    "m_Value": {
        "x": 0.0,
        "y": 0.0,
        "z": 0.0,
        "w": 0.0
    },
    "m_DefaultValue": {
        "x": 0.0,
        "y": 0.0,
        "z": 0.0,
        "w": 0.0
    }
}

{
    "m_SGVersion": 0,
    "m_Type": "UnityEditor.ShaderGraph.DynamicVectorMaterialSlot",
    "m_ObjectId": "195301ac81cc5480b443f06517504eed",
    "m_Id": 2,
    "m_DisplayName": "Out",
    "m_SlotType": 1,
    "m_Hidden": false,
    "m_ShaderOutputName": "Out",
    "m_StageCapability": 3,
    "m_Value": {
        "x": 0.0,
        "y": 0.0,
        "z": 0.0,
        "w": 0.0
    },
    "m_DefaultValue": {
        "x": 0.0,
        "y": 0.0,
        "z": 0.0,
        "w": 0.0
    }
}

{
    "m_SGVersion": 0,
    "m_Type": "UnityEditor.ShaderGraph.DynamicVectorMaterialSlot",
    "m_ObjectId": "1a301c950e098c8aa83bfe1b3fe33eba",
    "m_Id": 0,
    "m_DisplayName": "In",
    "m_SlotType": 0,
    "m_Hidden": false,
    "m_ShaderOutputName": "In",
    "m_StageCapability": 3,
    "m_Value": {
        "x": 0.0,
        "y": 0.0,
        "z": 0.0,
        "w": 0.0
    },
    "m_DefaultValue": {
        "x": 0.0,
        "y": 0.0,
        "z": 0.0,
        "w": 0.0
    }
}

{
    "m_SGVersion": 0,
    "m_Type": "UnityEditor.ShaderGraph.DynamicVectorMaterialSlot",
    "m_ObjectId": "1c66af37b5f19382a2b95e304c360b73",
    "m_Id": 1,
    "m_DisplayName": "B",
    "m_SlotType": 0,
    "m_Hidden": false,
    "m_ShaderOutputName": "B",
    "m_StageCapability": 3,
    "m_Value": {
        "x": 0.0,
        "y": 0.0,
        "z": 0.0,
        "w": 0.0
    },
    "m_DefaultValue": {
        "x": 0.0,
        "y": 0.0,
        "z": 0.0,
        "w": 0.0
    }
}

{
    "m_SGVersion": 0,
    "m_Type": "UnityEditor.ShaderGraph.Vector2MaterialSlot",
    "m_ObjectId": "1e226161912bb8879d1413b974323b5d",
    "m_Id": 832014706,
    "m_DisplayName": "Offset",
    "m_SlotType": 0,
    "m_Hidden": false,
    "m_ShaderOutputName": "Vector2_71A49153",
    "m_StageCapability": 2,
    "m_Value": {
        "x": 0.0,
        "y": 0.0
    },
    "m_DefaultValue": {
        "x": 0.0,
        "y": 0.0
    },
    "m_Labels": [
        "X",
        "Y"
    ]
}

{
    "m_SGVersion": 1,
    "m_Type": "UnityEditor.ShaderGraph.Internal.Vector1ShaderProperty",
    "m_ObjectId": "1e5df1c0676d368497e9f5bfa7fde166",
    "m_Guid": {
        "m_GuidSerialized": "8d62aef0-e554-49ba-887e-8b1599063b13"
    },
    "m_Name": "Size",
    "m_DefaultReferenceName": "Vector1_9A42F109",
    "m_OverrideReferenceName": "",
    "m_GeneratePropertyBlock": true,
    "m_Precision": 0,
    "overrideHLSLDeclaration": false,
    "hlslDeclarationOverride": 0,
    "m_Hidden": false,
    "m_Value": 0.0,
    "m_FloatType": 0,
    "m_RangeValues": {
        "x": 0.0,
        "y": 1.0
    }
}

{
    "m_SGVersion": 0,
    "m_Type": "UnityEditor.ShaderGraph.DynamicVectorMaterialSlot",
    "m_ObjectId": "21e886e79e6dfa8b813e1b569ece697d",
    "m_Id": 0,
    "m_DisplayName": "In",
    "m_SlotType": 0,
    "m_Hidden": false,
    "m_ShaderOutputName": "In",
    "m_StageCapability": 3,
    "m_Value": {
        "x": 0.0,
        "y": 0.0,
        "z": 0.0,
        "w": 0.0
    },
    "m_DefaultValue": {
        "x": 0.0,
        "y": 0.0,
        "z": 0.0,
        "w": 0.0
    }
}

{
    "m_SGVersion": 0,
    "m_Type": "UnityEditor.ShaderGraph.Vector1MaterialSlot",
    "m_ObjectId": "233f2e912b534e53a6bff60e55bd5c22",
    "m_Id": 1,
    "m_DisplayName": "Mask",
    "m_SlotType": 0,
    "m_Hidden": false,
    "m_ShaderOutputName": "Mask",
    "m_StageCapability": 2,
    "m_Value": 0.0,
    "m_DefaultValue": 0.0,
    "m_Labels": []
}

{
    "m_SGVersion": 0,
    "m_Type": "UnityEditor.ShaderGraph.Texture2DMaterialSlot",
    "m_ObjectId": "26dce4e586c3c18c9e3d84efe33a4593",
    "m_Id": 0,
    "m_DisplayName": "Texture",
    "m_SlotType": 1,
    "m_Hidden": false,
    "m_ShaderOutputName": "Out",
    "m_StageCapability": 3,
    "m_BareResource": false
}

{
    "m_SGVersion": 0,
    "m_Type": "UnityEditor.ShaderGraph.Vector1MaterialSlot",
    "m_ObjectId": "272c4a11e0bcd58fb985611fde522168",
    "m_Id": 2,
    "m_DisplayName": "Height",
    "m_SlotType": 1,
    "m_Hidden": false,
    "m_ShaderOutputName": "Height",
    "m_StageCapability": 2,
    "m_Value": 0.0,
    "m_DefaultValue": 0.0,
    "m_Labels": [
        "X"
    ]
}

{
    "m_SGVersion": 0,
    "m_Type": "UnityEditor.ShaderGraph.SubGraphNode",
    "m_ObjectId": "2a0d463e058dfe848ad72f7503f611cc",
    "m_Group": {
        "m_Id": "ce8dd4e0bce149dc9d95bf62958879ee"
    },
    "m_Name": "Texture Mask Shift",
    "m_DrawState": {
        "m_Expanded": true,
        "m_Position": {
            "serializedVersion": "2",
            "x": -450.24993896484377,
            "y": -406.25,
            "width": 224.0,
            "height": 117.99999237060547
        }
    },
    "m_Slots": [
        {
            "m_Id": "8933f3704f1ab28f863b724bba55348a"
        },
        {
            "m_Id": "3b9b44ccea0f358395401cbba2a254cb"
        },
        {
            "m_Id": "af00af4231bb7e8b8e432c1305c453ba"
        }
    ],
    "synonyms": [],
    "m_Precision": 0,
    "m_PreviewExpanded": false,
    "m_PreviewMode": 0,
    "m_CustomColors": {
        "m_SerializableColors": []
    },
    "m_SerializedSubGraph": "{\n    \"subGraph\": {\n        \"fileID\": -5475051401550479605,\n        \"guid\": \"914fbbb6248a76a46a06d5160fae93ab\",\n        \"type\": 3\n    }\n}",
    "m_PropertyGuids": [
        "090fcbc8-5198-42bc-9513-69df679f9206",
        "d741e72a-dc96-4708-8050-4f102868b739"
    ],
    "m_PropertyIds": [
        832014706,
        1154981915
    ]
}

{
    "m_SGVersion": 0,
    "m_Type": "UnityEditor.ShaderGraph.SubGraphNode",
    "m_ObjectId": "2aa70475fc87b18fb2dc7942b94dc538",
    "m_Group": {
        "m_Id": "ce8dd4e0bce149dc9d95bf62958879ee"
    },
    "m_Name": "Texture Mask Shift",
    "m_DrawState": {
        "m_Expanded": true,
        "m_Position": {
            "serializedVersion": "2",
            "x": -442.24993896484377,
            "y": 420.75,
            "width": 231.99998474121095,
            "height": 117.99999237060547
        }
    },
    "m_Slots": [
        {
            "m_Id": "ca5b4fb32dbdec838af43e379af72351"
        },
        {
            "m_Id": "0e2e3d1d9c41d18692adaa7bd407fb8a"
        },
        {
            "m_Id": "7822851ecdd7998da3a8844b0686abf8"
        }
    ],
    "synonyms": [],
    "m_Precision": 0,
    "m_PreviewExpanded": false,
    "m_PreviewMode": 0,
    "m_CustomColors": {
        "m_SerializableColors": []
    },
    "m_SerializedSubGraph": "{\n    \"subGraph\": {\n        \"fileID\": -5475051401550479605,\n        \"guid\": \"914fbbb6248a76a46a06d5160fae93ab\",\n        \"type\": 3\n    }\n}",
    "m_PropertyGuids": [
        "090fcbc8-5198-42bc-9513-69df679f9206",
        "d741e72a-dc96-4708-8050-4f102868b739"
    ],
    "m_PropertyIds": [
        832014706,
        1154981915
    ]
}

{
    "m_SGVersion": 0,
    "m_Type": "UnityEditor.ShaderGraph.AddNode",
    "m_ObjectId": "2b3bcfd8da61f686919c05f6a670c673",
    "m_Group": {
        "m_Id": "ce8dd4e0bce149dc9d95bf62958879ee"
    },
    "m_Name": "Add",
    "m_DrawState": {
        "m_Expanded": true,
        "m_Position": {
            "serializedVersion": "2",
            "x": -191.24990844726563,
            "y": -227.2500457763672,
            "width": 134.99998474121095,
            "height": 117.99999237060547
        }
    },
    "m_Slots": [
        {
            "m_Id": "ed3f55655ebd7c8a835c9d177739f431"
        },
        {
            "m_Id": "6b68c491f21cd287a1146fad89b83ad4"
        },
        {
            "m_Id": "51dce75c97f42687a9cc81178a3d366a"
        }
    ],
    "synonyms": [],
    "m_Precision": 0,
    "m_PreviewExpanded": false,
    "m_PreviewMode": 0,
    "m_CustomColors": {
        "m_SerializableColors": []
    }
}

{
    "m_SGVersion": 0,
    "m_Type": "UnityEditor.ShaderGraph.DynamicVectorMaterialSlot",
    "m_ObjectId": "2d590c3ed915dd8fa3ad666e8f1132c5",
    "m_Id": 2,
    "m_DisplayName": "Out",
    "m_SlotType": 1,
    "m_Hidden": false,
    "m_ShaderOutputName": "Out",
    "m_StageCapability": 3,
    "m_Value": {
        "x": 0.0,
        "y": 0.0,
        "z": 0.0,
        "w": 0.0
    },
    "m_DefaultValue": {
        "x": 0.0,
        "y": 0.0,
        "z": 0.0,
        "w": 0.0
    }
}

{
    "m_SGVersion": 0,
    "m_Type": "UnityEditor.ShaderGraph.Vector1MaterialSlot",
    "m_ObjectId": "2e51537d88b5b2808f0dfcb8ba109e1b",
    "m_Id": 1,
    "m_DisplayName": "Out_Vector1",
    "m_SlotType": 1,
    "m_Hidden": false,
    "m_ShaderOutputName": "OutVector1",
    "m_StageCapability": 2,
    "m_Value": 0.0,
    "m_DefaultValue": 0.0,
    "m_Labels": [
        "X"
    ]
}

{
    "m_SGVersion": 0,
    "m_Type": "UnityEditor.ShaderGraph.DynamicVectorMaterialSlot",
    "m_ObjectId": "30839287f9de7a81afaf60ec7da20f12",
    "m_Id": 0,
    "m_DisplayName": "In",
    "m_SlotType": 0,
    "m_Hidden": false,
    "m_ShaderOutputName": "In",
    "m_StageCapability": 3,
    "m_Value": {
        "x": 0.0,
        "y": 0.0,
        "z": 0.0,
        "w": 0.0
    },
    "m_DefaultValue": {
        "x": 0.0,
        "y": 0.0,
        "z": 0.0,
        "w": 0.0
    }
}

{
    "m_SGVersion": 0,
    "m_Type": "UnityEditor.ShaderGraph.DynamicVectorMaterialSlot",
    "m_ObjectId": "325ad7af17e3e484a9a628e3084bedd7",
    "m_Id": 0,
    "m_DisplayName": "A",
    "m_SlotType": 0,
    "m_Hidden": false,
    "m_ShaderOutputName": "A",
    "m_StageCapability": 3,
    "m_Value": {
        "x": 0.0,
        "y": 0.0,
        "z": 0.0,
        "w": 0.0
    },
    "m_DefaultValue": {
        "x": 0.0,
        "y": 0.0,
        "z": 0.0,
        "w": 0.0
    }
}

{
    "m_SGVersion": 0,
    "m_Type": "UnityEditor.ShaderGraph.NegateNode",
    "m_ObjectId": "343b96bebc9eb786990f77c1d86d6273",
    "m_Group": {
        "m_Id": "ce8dd4e0bce149dc9d95bf62958879ee"
    },
    "m_Name": "Negate",
    "m_DrawState": {
        "m_Expanded": true,
        "m_Position": {
            "serializedVersion": "2",
            "x": -797.2498168945313,
            "y": 168.74993896484376,
            "width": 141.0,
            "height": 93.99999237060547
        }
    },
    "m_Slots": [
        {
            "m_Id": "30839287f9de7a81afaf60ec7da20f12"
        },
        {
            "m_Id": "af6bc8260097eb8ba14f98a8e292db00"
        }
    ],
    "synonyms": [],
    "m_Precision": 0,
    "m_PreviewExpanded": false,
    "m_PreviewMode": 0,
    "m_CustomColors": {
        "m_SerializableColors": []
    }
}

{
    "m_SGVersion": 0,
    "m_Type": "UnityEditor.ShaderGraph.Vector2Node",
    "m_ObjectId": "37630366cfa8d483bb0e0227a6956c87",
    "m_Group": {
        "m_Id": "ce8dd4e0bce149dc9d95bf62958879ee"
    },
    "m_Name": "Vector 2",
    "m_DrawState": {
        "m_Expanded": true,
        "m_Position": {
            "serializedVersion": "2",
            "x": -796.25,
            "y": 276.75,
            "width": 135.0,
            "height": 101.0
        }
    },
    "m_Slots": [
        {
            "m_Id": "0353b523830f418eb23145790832a81c"
        },
        {
            "m_Id": "b733470de32455879d15f63120ed6d63"
        },
        {
            "m_Id": "6345ba6e6545178fb9c09a356af4cbc9"
        }
    ],
    "synonyms": [],
    "m_Precision": 0,
    "m_PreviewExpanded": true,
    "m_PreviewMode": 0,
    "m_CustomColors": {
        "m_SerializableColors": []
    },
    "m_Value": {
        "x": 0.0,
        "y": 0.0
    }
}

{
    "m_SGVersion": 0,
    "m_Type": "UnityEditor.ShaderGraph.DivideNode",
    "m_ObjectId": "395b637857c11c8cb89840bf80e4f977",
    "m_Group": {
        "m_Id": "ce8dd4e0bce149dc9d95bf62958879ee"
    },
    "m_Name": "Divide",
    "m_DrawState": {
        "m_Expanded": true,
        "m_Position": {
            "serializedVersion": "2",
            "x": -1118.0,
            "y": -124.0,
            "width": 135.0,
            "height": 118.0
        }
    },
    "m_Slots": [
        {
            "m_Id": "b54d3ad3199a3c88aef284d00f5432d6"
        },
        {
            "m_Id": "9a8d7e351f2a8a8d99b4dda1cb271a77"
        },
        {
            "m_Id": "eaa4c18b4e15ac87966288ec9f9a4ea8"
        }
    ],
    "synonyms": [],
    "m_Precision": 0,
    "m_PreviewExpanded": false,
    "m_PreviewMode": 0,
    "m_CustomColors": {
        "m_SerializableColors": []
    }
}

{
    "m_SGVersion": 0,
    "m_Type": "UnityEditor.ShaderGraph.SubGraphOutputNode",
    "m_ObjectId": "39ddba5f30656d8fb9410a197c4ed897",
    "m_Group": {
        "m_Id": ""
    },
    "m_Name": "Output",
    "m_DrawState": {
        "m_Expanded": true,
        "m_Position": {
            "serializedVersion": "2",
            "x": 617.0,
            "y": -307.0000305175781,
            "width": 120.00000762939453,
            "height": 77.0
        }
    },
    "m_Slots": [
        {
            "m_Id": "233f2e912b534e53a6bff60e55bd5c22"
        }
    ],
    "synonyms": [],
    "m_Precision": 0,
    "m_PreviewExpanded": true,
    "m_PreviewMode": 0,
    "m_CustomColors": {
        "m_SerializableColors": []
    },
    "IsFirstSlotValid": true
}

{
    "m_SGVersion": 0,
    "m_Type": "UnityEditor.ShaderGraph.Vector2MaterialSlot",
    "m_ObjectId": "3b9b44ccea0f358395401cbba2a254cb",
    "m_Id": 832014706,
    "m_DisplayName": "Offset",
    "m_SlotType": 0,
    "m_Hidden": false,
    "m_ShaderOutputName": "Vector2_71A49153",
    "m_StageCapability": 2,
    "m_Value": {
        "x": 0.0,
        "y": 0.0
    },
    "m_DefaultValue": {
        "x": 0.0,
        "y": 0.0
    },
    "m_Labels": [
        "X",
        "Y"
    ]
}

{
    "m_SGVersion": 0,
    "m_Type": "UnityEditor.ShaderGraph.Vector2Node",
    "m_ObjectId": "4407c8754b1a828e9fe28cd5a516d4ec",
    "m_Group": {
        "m_Id": "ce8dd4e0bce149dc9d95bf62958879ee"
    },
    "m_Name": "Vector 2",
    "m_DrawState": {
        "m_Expanded": true,
        "m_Position": {
            "serializedVersion": "2",
            "x": -795.249755859375,
            "y": -530.25,
            "width": 134.99998474121095,
            "height": 101.0
        }
    },
    "m_Slots": [
        {
            "m_Id": "8f152805424adf8a8a43cffaf259cf67"
        },
        {
            "m_Id": "4d37f8f0b6caa882b91d7245cd037935"
        },
        {
            "m_Id": "46793dad2f513a818edb7882bf773020"
        }
    ],
    "synonyms": [],
    "m_Precision": 0,
    "m_PreviewExpanded": true,
    "m_PreviewMode": 0,
    "m_CustomColors": {
        "m_SerializableColors": []
    },
    "m_Value": {
        "x": 0.0,
        "y": 0.0
    }
}

{
    "m_SGVersion": 0,
    "m_Type": "UnityEditor.ShaderGraph.Vector2MaterialSlot",
    "m_ObjectId": "46793dad2f513a818edb7882bf773020",
    "m_Id": 0,
    "m_DisplayName": "Out",
    "m_SlotType": 1,
    "m_Hidden": false,
    "m_ShaderOutputName": "Out",
    "m_StageCapability": 3,
    "m_Value": {
        "x": 0.0,
        "y": 0.0
    },
    "m_DefaultValue": {
        "x": 0.0,
        "y": 0.0
    },
    "m_Labels": [
        "X",
        "Y"
    ]
}

{
    "m_SGVersion": 0,
    "m_Type": "UnityEditor.ShaderGraph.DynamicVectorMaterialSlot",
    "m_ObjectId": "46ab4cd66f4bd480b636b14fc75670d8",
    "m_Id": 2,
    "m_DisplayName": "Out",
    "m_SlotType": 1,
    "m_Hidden": false,
    "m_ShaderOutputName": "Out",
    "m_StageCapability": 3,
    "m_Value": {
        "x": 0.0,
        "y": 0.0,
        "z": 0.0,
        "w": 0.0
    },
    "m_DefaultValue": {
        "x": 0.0,
        "y": 0.0,
        "z": 0.0,
        "w": 0.0
    }
}

{
    "m_SGVersion": 0,
    "m_Type": "UnityEditor.ShaderGraph.DynamicVectorMaterialSlot",
    "m_ObjectId": "46b15af4c7bdbe83adc8034a2ad34f93",
    "m_Id": 1,
    "m_DisplayName": "Out",
    "m_SlotType": 1,
    "m_Hidden": false,
    "m_ShaderOutputName": "Out",
    "m_StageCapability": 3,
    "m_Value": {
        "x": 0.0,
        "y": 0.0,
        "z": 0.0,
        "w": 0.0
    },
    "m_DefaultValue": {
        "x": 0.0,
        "y": 0.0,
        "z": 0.0,
        "w": 0.0
    }
}

{
    "m_SGVersion": 0,
    "m_Type": "UnityEditor.ShaderGraph.SubGraphNode",
    "m_ObjectId": "47d6240959c3b58cbb09d3e1892acc53",
    "m_Group": {
        "m_Id": "ce8dd4e0bce149dc9d95bf62958879ee"
    },
    "m_Name": "Texture Mask Shift",
    "m_DrawState": {
        "m_Expanded": true,
        "m_Position": {
            "serializedVersion": "2",
            "x": -448.2498779296875,
            "y": -153.25,
            "width": 224.0,
            "height": 117.99999237060547
        }
    },
    "m_Slots": [
        {
            "m_Id": "66742d81ecacb28d8425dc4693633ae1"
        },
        {
            "m_Id": "e560b2eeba56178dbcbbe2d74d364cfe"
        },
        {
            "m_Id": "bf7b6172073db9888ab6585af6163252"
        }
    ],
    "synonyms": [],
    "m_Precision": 0,
    "m_PreviewExpanded": false,
    "m_PreviewMode": 0,
    "m_CustomColors": {
        "m_SerializableColors": []
    },
    "m_SerializedSubGraph": "{\n    \"subGraph\": {\n        \"fileID\": -5475051401550479605,\n        \"guid\": \"914fbbb6248a76a46a06d5160fae93ab\",\n        \"type\": 3\n    }\n}",
    "m_PropertyGuids": [
        "090fcbc8-5198-42bc-9513-69df679f9206",
        "d741e72a-dc96-4708-8050-4f102868b739"
    ],
    "m_PropertyIds": [
        832014706,
        1154981915
    ]
}

{
    "m_SGVersion": 0,
    "m_Type": "UnityEditor.ShaderGraph.DynamicVectorMaterialSlot",
    "m_ObjectId": "483398a2145c868e9c38fd2449331f0b",
    "m_Id": 0,
    "m_DisplayName": "A",
    "m_SlotType": 0,
    "m_Hidden": false,
    "m_ShaderOutputName": "A",
    "m_StageCapability": 3,
    "m_Value": {
        "x": 0.0,
        "y": 0.0,
        "z": 0.0,
        "w": 0.0
    },
    "m_DefaultValue": {
        "x": 0.0,
        "y": 0.0,
        "z": 0.0,
        "w": 0.0
    }
}

{
    "m_SGVersion": 0,
    "m_Type": "UnityEditor.ShaderGraph.DynamicVectorMaterialSlot",
    "m_ObjectId": "49c0d8be48d3cb8a885f385ba1e3a26e",
    "m_Id": 2,
    "m_DisplayName": "Out",
    "m_SlotType": 1,
    "m_Hidden": false,
    "m_ShaderOutputName": "Out",
    "m_StageCapability": 3,
    "m_Value": {
        "x": 0.0,
        "y": 0.0,
        "z": 0.0,
        "w": 0.0
    },
    "m_DefaultValue": {
        "x": 0.0,
        "y": 0.0,
        "z": 0.0,
        "w": 0.0
    }
}

{
    "m_SGVersion": 0,
    "m_Type": "UnityEditor.ShaderGraph.DivideNode",
    "m_ObjectId": "4c6bc42c00a6c38080f929f8228841d6",
    "m_Group": {
        "m_Id": "ce8dd4e0bce149dc9d95bf62958879ee"
    },
    "m_Name": "Divide",
    "m_DrawState": {
        "m_Expanded": true,
        "m_Position": {
            "serializedVersion": "2",
            "x": -1118.0,
            "y": 12.999970436096192,
            "width": 135.00001525878907,
            "height": 118.00000762939453
        }
    },
    "m_Slots": [
        {
            "m_Id": "86a32a4b12372787869d916755defaa9"
        },
        {
            "m_Id": "0b2127bffee6478292ca5d51b7e8ab99"
        },
        {
            "m_Id": "2d590c3ed915dd8fa3ad666e8f1132c5"
        }
    ],
    "synonyms": [],
    "m_Precision": 0,
    "m_PreviewExpanded": false,
    "m_PreviewMode": 0,
    "m_CustomColors": {
        "m_SerializableColors": []
    }
}

{
    "m_SGVersion": 0,
    "m_Type": "UnityEditor.ShaderGraph.SubGraphNode",
    "m_ObjectId": "4d0a39fab23c6c87a74a94323f397ab3",
    "m_Group": {
        "m_Id": "ce8dd4e0bce149dc9d95bf62958879ee"
    },
    "m_Name": "Texture Mask Shift",
    "m_DrawState": {
        "m_Expanded": true,
        "m_Position": {
            "serializedVersion": "2",
            "x": -447.2498779296875,
            "y": -281.2500305175781,
            "width": 224.0,
            "height": 117.99999237060547
        }
    },
    "m_Slots": [
        {
            "m_Id": "c6caa1b1b3f2b98e86014eeb6d4aba4e"
        },
        {
            "m_Id": "9e48acf49a88338da9626f08c31df16b"
        },
        {
            "m_Id": "71732ed61a65908793279d9e37d83db3"
        }
    ],
    "synonyms": [],
    "m_Precision": 0,
    "m_PreviewExpanded": false,
    "m_PreviewMode": 0,
    "m_CustomColors": {
        "m_SerializableColors": []
    },
    "m_SerializedSubGraph": "{\n    \"subGraph\": {\n        \"fileID\": -5475051401550479605,\n        \"guid\": \"914fbbb6248a76a46a06d5160fae93ab\",\n        \"type\": 3\n    }\n}",
    "m_PropertyGuids": [
        "090fcbc8-5198-42bc-9513-69df679f9206",
        "d741e72a-dc96-4708-8050-4f102868b739"
    ],
    "m_PropertyIds": [
        832014706,
        1154981915
    ]
}

{
    "m_SGVersion": 0,
    "m_Type": "UnityEditor.ShaderGraph.Vector1MaterialSlot",
    "m_ObjectId": "4d37f8f0b6caa882b91d7245cd037935",
    "m_Id": 2,
    "m_DisplayName": "Y",
    "m_SlotType": 0,
    "m_Hidden": false,
    "m_ShaderOutputName": "Y",
    "m_StageCapability": 3,
    "m_Value": 0.0,
    "m_DefaultValue": 0.0,
    "m_Labels": [
        "Y"
    ]
}

{
    "m_SGVersion": 0,
    "m_Type": "UnityEditor.ShaderGraph.DynamicVectorMaterialSlot",
    "m_ObjectId": "50be6c832bdeed848c00e9e885c738ae",
    "m_Id": 0,
    "m_DisplayName": "In",
    "m_SlotType": 0,
    "m_Hidden": false,
    "m_ShaderOutputName": "In",
    "m_StageCapability": 3,
    "m_Value": {
        "x": 0.0,
        "y": 0.0,
        "z": 0.0,
        "w": 0.0
    },
    "m_DefaultValue": {
        "x": 0.0,
        "y": 0.0,
        "z": 0.0,
        "w": 0.0
    }
}

{
    "m_SGVersion": 0,
    "m_Type": "UnityEditor.ShaderGraph.DynamicVectorMaterialSlot",
    "m_ObjectId": "51dce75c97f42687a9cc81178a3d366a",
    "m_Id": 2,
    "m_DisplayName": "Out",
    "m_SlotType": 1,
    "m_Hidden": false,
    "m_ShaderOutputName": "Out",
    "m_StageCapability": 3,
    "m_Value": {
        "x": 0.0,
        "y": 0.0,
        "z": 0.0,
        "w": 0.0
    },
    "m_DefaultValue": {
        "x": 0.0,
        "y": 0.0,
        "z": 0.0,
        "w": 0.0
    }
}

{
    "m_SGVersion": 0,
    "m_Type": "UnityEditor.ShaderGraph.DynamicValueMaterialSlot",
    "m_ObjectId": "51ff155ad2f59a89aae0db20f0d9de94",
    "m_Id": 0,
    "m_DisplayName": "A",
    "m_SlotType": 0,
    "m_Hidden": false,
    "m_ShaderOutputName": "A",
    "m_StageCapability": 3,
    "m_Value": {
        "e00": 0.0,
        "e01": 0.0,
        "e02": 0.0,
        "e03": 0.0,
        "e10": 0.0,
        "e11": 0.0,
        "e12": 0.0,
        "e13": 0.0,
        "e20": 0.0,
        "e21": 0.0,
        "e22": 0.0,
        "e23": 0.0,
        "e30": 0.0,
        "e31": 0.0,
        "e32": 0.0,
        "e33": 0.0
    },
    "m_DefaultValue": {
        "e00": 1.0,
        "e01": 0.0,
        "e02": 0.0,
        "e03": 0.0,
        "e10": 0.0,
        "e11": 1.0,
        "e12": 0.0,
        "e13": 0.0,
        "e20": 0.0,
        "e21": 0.0,
        "e22": 1.0,
        "e23": 0.0,
        "e30": 0.0,
        "e31": 0.0,
        "e32": 0.0,
        "e33": 1.0
    }
}

{
    "m_SGVersion": 0,
    "m_Type": "UnityEditor.ShaderGraph.NegateNode",
    "m_ObjectId": "53f9e3820e57c9858dfdcb90b64ae955",
    "m_Group": {
        "m_Id": "ce8dd4e0bce149dc9d95bf62958879ee"
    },
    "m_Name": "Negate",
    "m_DrawState": {
        "m_Expanded": true,
        "m_Position": {
            "serializedVersion": "2",
            "x": -637.2499389648438,
            "y": 421.7498779296875,
            "width": 137.99998474121095,
            "height": 93.99999237060547
        }
    },
    "m_Slots": [
        {
            "m_Id": "50be6c832bdeed848c00e9e885c738ae"
        },
        {
            "m_Id": "7ea20c54ed56e58f9fdd590c92977ee4"
        }
    ],
    "synonyms": [],
    "m_Precision": 0,
    "m_PreviewExpanded": false,
    "m_PreviewMode": 0,
    "m_CustomColors": {
        "m_SerializableColors": []
    }
}

{
    "m_SGVersion": 0,
    "m_Type": "UnityEditor.ShaderGraph.DynamicVectorMaterialSlot",
    "m_ObjectId": "54a81faa27c95d8db3c6306abab558df",
    "m_Id": 1,
    "m_DisplayName": "B",
    "m_SlotType": 0,
    "m_Hidden": false,
    "m_ShaderOutputName": "B",
    "m_StageCapability": 3,
    "m_Value": {
        "x": 0.0,
        "y": 0.0,
        "z": 0.0,
        "w": 0.0
    },
    "m_DefaultValue": {
        "x": 0.0,
        "y": 0.0,
        "z": 0.0,
        "w": 0.0
    }
}

{
    "m_SGVersion": 0,
    "m_Type": "UnityEditor.ShaderGraph.DynamicVectorMaterialSlot",
    "m_ObjectId": "55e239718ec07f88892144fef2f87a9a",
    "m_Id": 1,
    "m_DisplayName": "Min",
    "m_SlotType": 0,
    "m_Hidden": false,
    "m_ShaderOutputName": "Min",
    "m_StageCapability": 3,
    "m_Value": {
        "x": 0.0,
        "y": 0.0,
        "z": 0.0,
        "w": 0.0
    },
    "m_DefaultValue": {
        "x": 0.0,
        "y": 0.0,
        "z": 0.0,
        "w": 0.0
    }
}

{
    "m_SGVersion": 0,
    "m_Type": "UnityEditor.ShaderGraph.DynamicVectorMaterialSlot",
    "m_ObjectId": "5a674f02dabe5882b538b7a81974ceb2",
    "m_Id": 3,
    "m_DisplayName": "Out",
    "m_SlotType": 1,
    "m_Hidden": false,
    "m_ShaderOutputName": "Out",
    "m_StageCapability": 3,
    "m_Value": {
        "x": 0.0,
        "y": 0.0,
        "z": 0.0,
        "w": 0.0
    },
    "m_DefaultValue": {
        "x": 0.0,
        "y": 0.0,
        "z": 0.0,
        "w": 0.0
    }
}

{
    "m_SGVersion": 0,
    "m_Type": "UnityEditor.ShaderGraph.Vector1MaterialSlot",
    "m_ObjectId": "5b09bfd082199085b57a97f708e4d2e0",
    "m_Id": 2,
    "m_DisplayName": "Y",
    "m_SlotType": 0,
    "m_Hidden": false,
    "m_ShaderOutputName": "Y",
    "m_StageCapability": 3,
    "m_Value": 0.0,
    "m_DefaultValue": 0.0,
    "m_Labels": [
        "Y"
    ]
}

{
    "m_SGVersion": 0,
    "m_Type": "UnityEditor.ShaderGraph.Texture2DInputMaterialSlot",
    "m_ObjectId": "5db01875f6f2238db37354eccf1d4233",
    "m_Id": 1154981915,
    "m_DisplayName": "Texture",
    "m_SlotType": 0,
    "m_Hidden": false,
    "m_ShaderOutputName": "Texture2D_EAAEF77E",
    "m_StageCapability": 2,
    "m_BareResource": false,
    "m_Texture": {
        "m_SerializedTexture": "{\"texture\":{\"instanceID\":0}}",
        "m_Guid": ""
    },
    "m_DefaultType": 0
}

{
    "m_SGVersion": 0,
    "m_Type": "UnityEditor.ShaderGraph.Vector1MaterialSlot",
    "m_ObjectId": "5f72986cc6687e809fcd2a2455d3a57a",
    "m_Id": 1,
    "m_DisplayName": "X",
    "m_SlotType": 0,
    "m_Hidden": false,
    "m_ShaderOutputName": "X",
    "m_StageCapability": 3,
    "m_Value": 0.0,
    "m_DefaultValue": 0.0,
    "m_Labels": [
        "X"
    ]
}

{
    "m_SGVersion": 0,
    "m_Type": "UnityEditor.ShaderGraph.Vector2MaterialSlot",
    "m_ObjectId": "6345ba6e6545178fb9c09a356af4cbc9",
    "m_Id": 0,
    "m_DisplayName": "Out",
    "m_SlotType": 1,
    "m_Hidden": false,
    "m_ShaderOutputName": "Out",
    "m_StageCapability": 3,
    "m_Value": {
        "x": 0.0,
        "y": 0.0
    },
    "m_DefaultValue": {
        "x": 0.0,
        "y": 0.0
    },
    "m_Labels": [
        "X",
        "Y"
    ]
}

{
    "m_SGVersion": 0,
    "m_Type": "UnityEditor.ShaderGraph.Texture2DInputMaterialSlot",
    "m_ObjectId": "66742d81ecacb28d8425dc4693633ae1",
    "m_Id": 1154981915,
    "m_DisplayName": "Texture",
    "m_SlotType": 0,
    "m_Hidden": false,
    "m_ShaderOutputName": "Texture2D_EAAEF77E",
    "m_StageCapability": 2,
    "m_BareResource": false,
    "m_Texture": {
        "m_SerializedTexture": "{\"texture\":{\"instanceID\":0}}",
        "m_Guid": ""
    },
    "m_DefaultType": 0
}

{
    "m_SGVersion": 0,
    "m_Type": "UnityEditor.ShaderGraph.DynamicVectorMaterialSlot",
    "m_ObjectId": "671d3bc9aacfd78a8be772b60d5d494c",
    "m_Id": 0,
    "m_DisplayName": "A",
    "m_SlotType": 0,
    "m_Hidden": false,
    "m_ShaderOutputName": "A",
    "m_StageCapability": 3,
    "m_Value": {
        "x": 0.0,
        "y": 0.0,
        "z": 0.0,
        "w": 0.0
    },
    "m_DefaultValue": {
        "x": 0.0,
        "y": 0.0,
        "z": 0.0,
        "w": 0.0
    }
}

{
    "m_SGVersion": 0,
    "m_Type": "UnityEditor.ShaderGraph.Vector2MaterialSlot",
    "m_ObjectId": "690b4157151c158281d343be7a072c88",
    "m_Id": 832014706,
    "m_DisplayName": "Offset",
    "m_SlotType": 0,
    "m_Hidden": false,
    "m_ShaderOutputName": "Vector2_71A49153",
    "m_StageCapability": 2,
    "m_Value": {
        "x": 0.0,
        "y": 2.069999933242798
    },
    "m_DefaultValue": {
        "x": 0.0,
        "y": 0.0
    },
    "m_Labels": [
        "X",
        "Y"
    ]
}

{
    "m_SGVersion": 0,
    "m_Type": "UnityEditor.ShaderGraph.AddNode",
    "m_ObjectId": "69517406b1aab0819e8b3c2a910c5a67",
    "m_Group": {
        "m_Id": "ce8dd4e0bce149dc9d95bf62958879ee"
    },
    "m_Name": "Add",
    "m_DrawState": {
        "m_Expanded": true,
        "m_Position": {
            "serializedVersion": "2",
            "x": -190.2498779296875,
            "y": 57.74993896484375,
            "width": 134.99998474121095,
            "height": 117.99999237060547
        }
    },
    "m_Slots": [
        {
            "m_Id": "f4ef1ddf83f56c818a47b487f9743f02"
        },
        {
            "m_Id": "b8d4d3ce77058583bd7b6961bf076471"
        },
        {
            "m_Id": "a431d0247d419e8683a87f79a123f699"
        }
    ],
    "synonyms": [],
    "m_Precision": 0,
    "m_PreviewExpanded": false,
    "m_PreviewMode": 0,
    "m_CustomColors": {
        "m_SerializableColors": []
    }
}

{
    "m_SGVersion": 0,
    "m_Type": "UnityEditor.ShaderGraph.AddNode",
    "m_ObjectId": "6b50edce400ec68898c26ca84e92cb52",
    "m_Group": {
        "m_Id": "ce8dd4e0bce149dc9d95bf62958879ee"
    },
    "m_Name": "Add",
    "m_DrawState": {
        "m_Expanded": true,
        "m_Position": {
            "serializedVersion": "2",
            "x": -186.249755859375,
            "y": 339.7498779296875,
            "width": 134.99998474121095,
            "height": 117.99999237060547
        }
    },
    "m_Slots": [
        {
            "m_Id": "932bf202c5620b8f8f1a6d26d203b552"
        },
        {
            "m_Id": "bf7b9b4f8c254181acff8f19111a64f6"
        },
        {
            "m_Id": "183e1b20e7cb088485094fe8b74933de"
        }
    ],
    "synonyms": [],
    "m_Precision": 0,
    "m_PreviewExpanded": false,
    "m_PreviewMode": 0,
    "m_CustomColors": {
        "m_SerializableColors": []
    }
}

{
    "m_SGVersion": 0,
    "m_Type": "UnityEditor.ShaderGraph.DynamicVectorMaterialSlot",
    "m_ObjectId": "6b68c491f21cd287a1146fad89b83ad4",
    "m_Id": 1,
    "m_DisplayName": "B",
    "m_SlotType": 0,
    "m_Hidden": false,
    "m_ShaderOutputName": "B",
    "m_StageCapability": 3,
    "m_Value": {
        "x": 0.0,
        "y": 0.0,
        "z": 0.0,
        "w": 0.0
    },
    "m_DefaultValue": {
        "x": 0.0,
        "y": 0.0,
        "z": 0.0,
        "w": 0.0
    }
}

{
    "m_SGVersion": 0,
    "m_Type": "UnityEditor.ShaderGraph.Vector1MaterialSlot",
    "m_ObjectId": "71732ed61a65908793279d9e37d83db3",
    "m_Id": 1,
    "m_DisplayName": "Out_Vector1",
    "m_SlotType": 1,
    "m_Hidden": false,
    "m_ShaderOutputName": "OutVector1",
    "m_StageCapability": 2,
    "m_Value": 0.0,
    "m_DefaultValue": 0.0,
    "m_Labels": [
        "X"
    ]
}

{
    "m_SGVersion": 0,
    "m_Type": "UnityEditor.ShaderGraph.DynamicVectorMaterialSlot",
    "m_ObjectId": "75423e8e426de58a8c938129ef8272ea",
    "m_Id": 0,
    "m_DisplayName": "In",
    "m_SlotType": 0,
    "m_Hidden": false,
    "m_ShaderOutputName": "In",
    "m_StageCapability": 3,
    "m_Value": {
        "x": 0.0,
        "y": 0.0,
        "z": 0.0,
        "w": 0.0
    },
    "m_DefaultValue": {
        "x": 0.0,
        "y": 0.0,
        "z": 0.0,
        "w": 0.0
    }
}

{
    "m_SGVersion": 0,
    "m_Type": "UnityEditor.ShaderGraph.Vector2Node",
    "m_ObjectId": "77495d04111ce98e9b8bf779929f5a43",
    "m_Group": {
        "m_Id": "ce8dd4e0bce149dc9d95bf62958879ee"
    },
    "m_Name": "Vector 2",
    "m_DrawState": {
        "m_Expanded": true,
        "m_Position": {
            "serializedVersion": "2",
            "x": -799.2498779296875,
            "y": -279.2500305175781,
            "width": 134.99998474121095,
            "height": 101.0
        }
    },
    "m_Slots": [
        {
            "m_Id": "5f72986cc6687e809fcd2a2455d3a57a"
        },
        {
            "m_Id": "5b09bfd082199085b57a97f708e4d2e0"
        },
        {
            "m_Id": "b38b73fe5db6f5829e76b13cb6e3a63e"
        }
    ],
    "synonyms": [],
    "m_Precision": 0,
    "m_PreviewExpanded": true,
    "m_PreviewMode": 0,
    "m_CustomColors": {
        "m_SerializableColors": []
    },
    "m_Value": {
        "x": 0.0,
        "y": 0.0
    }
}

{
    "m_SGVersion": 0,
    "m_Type": "UnityEditor.ShaderGraph.Vector1MaterialSlot",
    "m_ObjectId": "7822851ecdd7998da3a8844b0686abf8",
    "m_Id": 1,
    "m_DisplayName": "Out_Vector1",
    "m_SlotType": 1,
    "m_Hidden": false,
    "m_ShaderOutputName": "OutVector1",
    "m_StageCapability": 2,
    "m_Value": 0.0,
    "m_DefaultValue": 0.0,
    "m_Labels": [
        "X"
    ]
}

{
    "m_SGVersion": 0,
    "m_Type": "UnityEditor.ShaderGraph.DynamicValueMaterialSlot",
    "m_ObjectId": "7e6d5ac39e140e86b9fbdb2758c2f8c6",
    "m_Id": 2,
    "m_DisplayName": "Out",
    "m_SlotType": 1,
    "m_Hidden": false,
    "m_ShaderOutputName": "Out",
    "m_StageCapability": 3,
    "m_Value": {
        "e00": 0.0,
        "e01": 0.0,
        "e02": 0.0,
        "e03": 0.0,
        "e10": 0.0,
        "e11": 0.0,
        "e12": 0.0,
        "e13": 0.0,
        "e20": 0.0,
        "e21": 0.0,
        "e22": 0.0,
        "e23": 0.0,
        "e30": 0.0,
        "e31": 0.0,
        "e32": 0.0,
        "e33": 0.0
    },
    "m_DefaultValue": {
        "e00": 1.0,
        "e01": 0.0,
        "e02": 0.0,
        "e03": 0.0,
        "e10": 0.0,
        "e11": 1.0,
        "e12": 0.0,
        "e13": 0.0,
        "e20": 0.0,
        "e21": 0.0,
        "e22": 1.0,
        "e23": 0.0,
        "e30": 0.0,
        "e31": 0.0,
        "e32": 0.0,
        "e33": 1.0
    }
}

{
    "m_SGVersion": 0,
    "m_Type": "UnityEditor.ShaderGraph.DynamicVectorMaterialSlot",
    "m_ObjectId": "7ea20c54ed56e58f9fdd590c92977ee4",
    "m_Id": 1,
    "m_DisplayName": "Out",
    "m_SlotType": 1,
    "m_Hidden": false,
    "m_ShaderOutputName": "Out",
    "m_StageCapability": 3,
    "m_Value": {
        "x": 0.0,
        "y": 0.0,
        "z": 0.0,
        "w": 0.0
    },
    "m_DefaultValue": {
        "x": 0.0,
        "y": 0.0,
        "z": 0.0,
        "w": 0.0
    }
}

{
    "m_SGVersion": 0,
    "m_Type": "UnityEditor.ShaderGraph.DynamicVectorMaterialSlot",
    "m_ObjectId": "86a32a4b12372787869d916755defaa9",
    "m_Id": 0,
    "m_DisplayName": "A",
    "m_SlotType": 0,
    "m_Hidden": false,
    "m_ShaderOutputName": "A",
    "m_StageCapability": 3,
    "m_Value": {
        "x": 0.0,
        "y": 0.0,
        "z": 0.0,
        "w": 0.0
    },
    "m_DefaultValue": {
        "x": 0.0,
        "y": 0.0,
        "z": 0.0,
        "w": 0.0
    }
}

{
    "m_SGVersion": 0,
    "m_Type": "UnityEditor.ShaderGraph.Texture2DInputMaterialSlot",
    "m_ObjectId": "8933f3704f1ab28f863b724bba55348a",
    "m_Id": 1154981915,
    "m_DisplayName": "Texture",
    "m_SlotType": 0,
    "m_Hidden": false,
    "m_ShaderOutputName": "Texture2D_EAAEF77E",
    "m_StageCapability": 2,
    "m_BareResource": false,
    "m_Texture": {
        "m_SerializedTexture": "{\"texture\":{\"instanceID\":0}}",
        "m_Guid": ""
    },
    "m_DefaultType": 0
}

{
    "m_SGVersion": 0,
    "m_Type": "UnityEditor.ShaderGraph.Vector2MaterialSlot",
    "m_ObjectId": "893ca9d562afc68180195ae6d9699e79",
    "m_Id": 832014706,
    "m_DisplayName": "Offset",
    "m_SlotType": 0,
    "m_Hidden": false,
    "m_ShaderOutputName": "Vector2_71A49153",
    "m_StageCapability": 2,
    "m_Value": {
        "x": 0.0,
        "y": 0.0
    },
    "m_DefaultValue": {
        "x": 0.0,
        "y": 0.0
    },
    "m_Labels": [
        "X",
        "Y"
    ]
}

{
    "m_SGVersion": 0,
    "m_Type": "UnityEditor.ShaderGraph.Vector1MaterialSlot",
    "m_ObjectId": "8c27670613b433878c834955c7facb39",
    "m_Id": 1,
    "m_DisplayName": "X",
    "m_SlotType": 0,
    "m_Hidden": false,
    "m_ShaderOutputName": "X",
    "m_StageCapability": 3,
    "m_Value": 0.0,
    "m_DefaultValue": 0.0,
    "m_Labels": [
        "X"
    ]
}

{
    "m_SGVersion": 0,
    "m_Type": "UnityEditor.ShaderGraph.PropertyNode",
    "m_ObjectId": "8e42776ad75a2180af34b9f2840f1ae6",
    "m_Group": {
        "m_Id": "ce8dd4e0bce149dc9d95bf62958879ee"
    },
    "m_Name": "Property",
    "m_DrawState": {
        "m_Expanded": true,
        "m_Position": {
            "serializedVersion": "2",
            "x": -596.0001220703125,
            "y": -558.0000610351563,
            "width": 133.0,
            "height": 34.0
        }
    },
    "m_Slots": [
        {
            "m_Id": "26dce4e586c3c18c9e3d84efe33a4593"
        }
    ],
    "synonyms": [],
    "m_Precision": 0,
    "m_PreviewExpanded": true,
    "m_PreviewMode": 0,
    "m_CustomColors": {
        "m_SerializableColors": []
    },
    "m_Property": {
        "m_Id": "c357718a564766878515a5583a2f5006"
    }
}

{
    "m_SGVersion": 0,
    "m_Type": "UnityEditor.ShaderGraph.Vector1MaterialSlot",
    "m_ObjectId": "8f152805424adf8a8a43cffaf259cf67",
    "m_Id": 1,
    "m_DisplayName": "X",
    "m_SlotType": 0,
    "m_Hidden": false,
    "m_ShaderOutputName": "X",
    "m_StageCapability": 3,
    "m_Value": 0.0,
    "m_DefaultValue": 0.0,
    "m_Labels": [
        "X"
    ]
}

{
    "m_SGVersion": 0,
    "m_Type": "UnityEditor.ShaderGraph.Vector1MaterialSlot",
    "m_ObjectId": "90bd5bf8a8104f8ebc0e5173be9252e4",
    "m_Id": 1,
    "m_DisplayName": "Out_Vector1",
    "m_SlotType": 1,
    "m_Hidden": false,
    "m_ShaderOutputName": "OutVector1",
    "m_StageCapability": 2,
    "m_Value": 0.0,
    "m_DefaultValue": 0.0,
    "m_Labels": [
        "X"
    ]
}

{
    "m_SGVersion": 0,
    "m_Type": "UnityEditor.ShaderGraph.DynamicVectorMaterialSlot",
    "m_ObjectId": "932bf202c5620b8f8f1a6d26d203b552",
    "m_Id": 0,
    "m_DisplayName": "A",
    "m_SlotType": 0,
    "m_Hidden": false,
    "m_ShaderOutputName": "A",
    "m_StageCapability": 3,
    "m_Value": {
        "x": 0.0,
        "y": 0.0,
        "z": 0.0,
        "w": 0.0
    },
    "m_DefaultValue": {
        "x": 0.0,
        "y": 0.0,
        "z": 0.0,
        "w": 0.0
    }
}

{
    "m_SGVersion": 0,
    "m_Type": "UnityEditor.ShaderGraph.DynamicVectorMaterialSlot",
    "m_ObjectId": "943f14db03ad6e82a305b3c9f26ab4ef",
    "m_Id": 1,
    "m_DisplayName": "B",
    "m_SlotType": 0,
    "m_Hidden": false,
    "m_ShaderOutputName": "B",
    "m_StageCapability": 3,
    "m_Value": {
        "x": 0.0,
        "y": 0.0,
        "z": 0.0,
        "w": 0.0
    },
    "m_DefaultValue": {
        "x": 0.0,
        "y": 0.0,
        "z": 0.0,
        "w": 0.0
    }
}

{
    "m_SGVersion": 0,
    "m_Type": "UnityEditor.ShaderGraph.PropertyNode",
    "m_ObjectId": "94910cd83250a28b8220907a5021ae2b",
    "m_Group": {
        "m_Id": "ce8dd4e0bce149dc9d95bf62958879ee"
    },
    "m_Name": "Property",
    "m_DrawState": {
        "m_Expanded": true,
        "m_Position": {
            "serializedVersion": "2",
            "x": -1503.0,
            "y": 15.999979972839356,
            "width": 131.0,
            "height": 34.0
        }
    },
    "m_Slots": [
        {
            "m_Id": "a17858378ffa02888ed45495c02001ab"
        }
    ],
    "synonyms": [],
    "m_Precision": 0,
    "m_PreviewExpanded": true,
    "m_PreviewMode": 0,
    "m_CustomColors": {
        "m_SerializableColors": []
    },
    "m_Property": {
        "m_Id": "c357718a564766878515a5583a2f5006"
    }
}

{
    "m_SGVersion": 0,
    "m_Type": "UnityEditor.ShaderGraph.Vector2MaterialSlot",
    "m_ObjectId": "9762c58b5bb0338ea4d5c3e8d3659f09",
    "m_Id": 0,
    "m_DisplayName": "Out",
    "m_SlotType": 1,
    "m_Hidden": false,
    "m_ShaderOutputName": "Out",
    "m_StageCapability": 3,
    "m_Value": {
        "x": 0.0,
        "y": 0.0
    },
    "m_DefaultValue": {
        "x": 0.0,
        "y": 0.0
    },
    "m_Labels": [
        "X",
        "Y"
    ]
}

{
    "m_SGVersion": 0,
    "m_Type": "UnityEditor.ShaderGraph.DynamicVectorMaterialSlot",
    "m_ObjectId": "9a8d7e351f2a8a8d99b4dda1cb271a77",
    "m_Id": 1,
    "m_DisplayName": "B",
    "m_SlotType": 0,
    "m_Hidden": false,
    "m_ShaderOutputName": "B",
    "m_StageCapability": 3,
    "m_Value": {
        "x": 2.0,
        "y": 2.0,
        "z": 2.0,
        "w": 2.0
    },
    "m_DefaultValue": {
        "x": 0.0,
        "y": 0.0,
        "z": 0.0,
        "w": 0.0
    }
}

{
    "m_SGVersion": 0,
    "m_Type": "UnityEditor.ShaderGraph.DynamicVectorMaterialSlot",
    "m_ObjectId": "9d1681dc805e8181a8a205948b37bd7e",
    "m_Id": 1,
    "m_DisplayName": "Out",
    "m_SlotType": 1,
    "m_Hidden": false,
    "m_ShaderOutputName": "Out",
    "m_StageCapability": 3,
    "m_Value": {
        "x": 0.0,
        "y": 0.0,
        "z": 0.0,
        "w": 0.0
    },
    "m_DefaultValue": {
        "x": 0.0,
        "y": 0.0,
        "z": 0.0,
        "w": 0.0
    }
}

{
    "m_SGVersion": 0,
    "m_Type": "UnityEditor.ShaderGraph.Vector2MaterialSlot",
    "m_ObjectId": "9e48acf49a88338da9626f08c31df16b",
    "m_Id": 832014706,
    "m_DisplayName": "Offset",
    "m_SlotType": 0,
    "m_Hidden": false,
    "m_ShaderOutputName": "Vector2_71A49153",
    "m_StageCapability": 2,
    "m_Value": {
        "x": 0.0,
        "y": 0.0
    },
    "m_DefaultValue": {
        "x": 0.0,
        "y": 0.0
    },
    "m_Labels": [
        "X",
        "Y"
    ]
}

{
    "m_SGVersion": 0,
    "m_Type": "UnityEditor.ShaderGraph.Texture2DMaterialSlot",
    "m_ObjectId": "a17858378ffa02888ed45495c02001ab",
    "m_Id": 0,
    "m_DisplayName": "Texture",
    "m_SlotType": 1,
    "m_Hidden": false,
    "m_ShaderOutputName": "Out",
    "m_StageCapability": 3,
    "m_BareResource": false
}

{
    "m_SGVersion": 0,
    "m_Type": "UnityEditor.ShaderGraph.SubGraphNode",
    "m_ObjectId": "a422cb3423053d8bbcf4087d0092d03d",
    "m_Group": {
        "m_Id": "ce8dd4e0bce149dc9d95bf62958879ee"
    },
    "m_Name": "Texture Mask Shift",
    "m_DrawState": {
        "m_Expanded": true,
        "m_Position": {
            "serializedVersion": "2",
            "x": -448.2498779296875,
            "y": -532.25,
            "width": 224.0,
            "height": 117.99999237060547
        }
    },
    "m_Slots": [
        {
            "m_Id": "16c707d4001f52858c286a3af87059d4"
        },
        {
            "m_Id": "1e226161912bb8879d1413b974323b5d"
        },
        {
            "m_Id": "bd27c4db0a6d1381b601027343504c43"
        }
    ],
    "synonyms": [],
    "m_Precision": 0,
    "m_PreviewExpanded": false,
    "m_PreviewMode": 0,
    "m_CustomColors": {
        "m_SerializableColors": []
    },
    "m_SerializedSubGraph": "{\n    \"subGraph\": {\n        \"fileID\": -5475051401550479605,\n        \"guid\": \"914fbbb6248a76a46a06d5160fae93ab\",\n        \"type\": 3\n    }\n}",
    "m_PropertyGuids": [
        "090fcbc8-5198-42bc-9513-69df679f9206",
        "d741e72a-dc96-4708-8050-4f102868b739"
    ],
    "m_PropertyIds": [
        832014706,
        1154981915
    ]
}

{
    "m_SGVersion": 0,
    "m_Type": "UnityEditor.ShaderGraph.DynamicVectorMaterialSlot",
    "m_ObjectId": "a431d0247d419e8683a87f79a123f699",
    "m_Id": 2,
    "m_DisplayName": "Out",
    "m_SlotType": 1,
    "m_Hidden": false,
    "m_ShaderOutputName": "Out",
    "m_StageCapability": 3,
    "m_Value": {
        "x": 0.0,
        "y": 0.0,
        "z": 0.0,
        "w": 0.0
    },
    "m_DefaultValue": {
        "x": 0.0,
        "y": 0.0,
        "z": 0.0,
        "w": 0.0
    }
}

{
    "m_SGVersion": 0,
    "m_Type": "UnityEditor.ShaderGraph.PropertyNode",
    "m_ObjectId": "a731c11df01ca48884876a7fdc5ec61d",
    "m_Group": {
        "m_Id": "ce8dd4e0bce149dc9d95bf62958879ee"
    },
    "m_Name": "Property",
    "m_DrawState": {
        "m_Expanded": true,
        "m_Position": {
            "serializedVersion": "2",
            "x": -1238.0,
            "y": -128.0,
            "width": 102.0,
            "height": 34.0
        }
    },
    "m_Slots": [
        {
            "m_Id": "085307078229e78ca11e501c73e8e25d"
        }
    ],
    "synonyms": [],
    "m_Precision": 0,
    "m_PreviewExpanded": true,
    "m_PreviewMode": 0,
    "m_CustomColors": {
        "m_SerializableColors": []
    },
    "m_Property": {
        "m_Id": "1e5df1c0676d368497e9f5bfa7fde166"
    }
}

{
    "m_SGVersion": 0,
    "m_Type": "UnityEditor.ShaderGraph.Vector1MaterialSlot",
    "m_ObjectId": "af00af4231bb7e8b8e432c1305c453ba",
    "m_Id": 1,
    "m_DisplayName": "Out_Vector1",
    "m_SlotType": 1,
    "m_Hidden": false,
    "m_ShaderOutputName": "OutVector1",
    "m_StageCapability": 2,
    "m_Value": 0.0,
    "m_DefaultValue": 0.0,
    "m_Labels": [
        "X"
    ]
}

{
    "m_SGVersion": 0,
    "m_Type": "UnityEditor.ShaderGraph.DynamicVectorMaterialSlot",
    "m_ObjectId": "af6bc8260097eb8ba14f98a8e292db00",
    "m_Id": 1,
    "m_DisplayName": "Out",
    "m_SlotType": 1,
    "m_Hidden": false,
    "m_ShaderOutputName": "Out",
    "m_StageCapability": 3,
    "m_Value": {
        "x": 0.0,
        "y": 0.0,
        "z": 0.0,
        "w": 0.0
    },
    "m_DefaultValue": {
        "x": 0.0,
        "y": 0.0,
        "z": 0.0,
        "w": 0.0
    }
}

{
    "m_SGVersion": 0,
    "m_Type": "UnityEditor.ShaderGraph.NegateNode",
    "m_ObjectId": "b03ab36226ca4a86b5bb84c00789306e",
    "m_Group": {
        "m_Id": "ce8dd4e0bce149dc9d95bf62958879ee"
    },
    "m_Name": "Negate",
    "m_DrawState": {
        "m_Expanded": true,
        "m_Position": {
            "serializedVersion": "2",
            "x": -638.2499389648438,
            "y": 141.74993896484376,
            "width": 139.0,
            "height": 93.99999237060547
        }
    },
    "m_Slots": [
        {
            "m_Id": "cdb63ba9048aa482a88fe341d5a11804"
        },
        {
            "m_Id": "46b15af4c7bdbe83adc8034a2ad34f93"
        }
    ],
    "synonyms": [],
    "m_Precision": 0,
    "m_PreviewExpanded": false,
    "m_PreviewMode": 0,
    "m_CustomColors": {
        "m_SerializableColors": []
    }
}

{
    "m_SGVersion": 0,
    "m_Type": "UnityEditor.ShaderGraph.Vector2MaterialSlot",
    "m_ObjectId": "b38b73fe5db6f5829e76b13cb6e3a63e",
    "m_Id": 0,
    "m_DisplayName": "Out",
    "m_SlotType": 1,
    "m_Hidden": false,
    "m_ShaderOutputName": "Out",
    "m_StageCapability": 3,
    "m_Value": {
        "x": 0.0,
        "y": 0.0
    },
    "m_DefaultValue": {
        "x": 0.0,
        "y": 0.0
    },
    "m_Labels": [
        "X",
        "Y"
    ]
}

{
    "m_SGVersion": 0,
    "m_Type": "UnityEditor.ShaderGraph.DynamicVectorMaterialSlot",
    "m_ObjectId": "b54d3ad3199a3c88aef284d00f5432d6",
    "m_Id": 0,
    "m_DisplayName": "A",
    "m_SlotType": 0,
    "m_Hidden": false,
    "m_ShaderOutputName": "A",
    "m_StageCapability": 3,
    "m_Value": {
        "x": 0.0,
        "y": 0.0,
        "z": 0.0,
        "w": 0.0
    },
    "m_DefaultValue": {
        "x": 0.0,
        "y": 0.0,
        "z": 0.0,
        "w": 0.0
    }
}

{
    "m_SGVersion": 0,
    "m_Type": "UnityEditor.ShaderGraph.Vector1MaterialSlot",
    "m_ObjectId": "b733470de32455879d15f63120ed6d63",
    "m_Id": 2,
    "m_DisplayName": "Y",
    "m_SlotType": 0,
    "m_Hidden": false,
    "m_ShaderOutputName": "Y",
    "m_StageCapability": 3,
    "m_Value": 0.0,
    "m_DefaultValue": 0.0,
    "m_Labels": [
        "Y"
    ]
}

{
    "m_SGVersion": 0,
    "m_Type": "UnityEditor.ShaderGraph.SubGraphNode",
    "m_ObjectId": "b7b8ef3534620c8a91a3b9518bf84b0b",
    "m_Group": {
        "m_Id": "ce8dd4e0bce149dc9d95bf62958879ee"
    },
    "m_Name": "Texture Mask Shift",
    "m_DrawState": {
        "m_Expanded": true,
        "m_Position": {
            "serializedVersion": "2",
            "x": -445.24981689453127,
            "y": 141.74993896484376,
            "width": 231.99998474121095,
            "height": 117.99999237060547
        }
    },
    "m_Slots": [
        {
            "m_Id": "5db01875f6f2238db37354eccf1d4233"
        },
        {
            "m_Id": "690b4157151c158281d343be7a072c88"
        },
        {
            "m_Id": "90bd5bf8a8104f8ebc0e5173be9252e4"
        }
    ],
    "synonyms": [],
    "m_Precision": 0,
    "m_PreviewExpanded": false,
    "m_PreviewMode": 0,
    "m_CustomColors": {
        "m_SerializableColors": []
    },
    "m_SerializedSubGraph": "{\n    \"subGraph\": {\n        \"fileID\": -5475051401550479605,\n        \"guid\": \"914fbbb6248a76a46a06d5160fae93ab\",\n        \"type\": 3\n    }\n}",
    "m_PropertyGuids": [
        "090fcbc8-5198-42bc-9513-69df679f9206",
        "d741e72a-dc96-4708-8050-4f102868b739"
    ],
    "m_PropertyIds": [
        832014706,
        1154981915
    ]
}

{
    "m_SGVersion": 0,
    "m_Type": "UnityEditor.ShaderGraph.Vector1MaterialSlot",
    "m_ObjectId": "b8268cfa2baf84818fb11be036920756",
    "m_Id": 2,
    "m_DisplayName": "Y",
    "m_SlotType": 0,
    "m_Hidden": false,
    "m_ShaderOutputName": "Y",
    "m_StageCapability": 3,
    "m_Value": 0.0,
    "m_DefaultValue": 0.0,
    "m_Labels": [
        "Y"
    ]
}

{
    "m_SGVersion": 0,
    "m_Type": "UnityEditor.ShaderGraph.DynamicVectorMaterialSlot",
    "m_ObjectId": "b8d4d3ce77058583bd7b6961bf076471",
    "m_Id": 1,
    "m_DisplayName": "B",
    "m_SlotType": 0,
    "m_Hidden": false,
    "m_ShaderOutputName": "B",
    "m_StageCapability": 3,
    "m_Value": {
        "x": 0.0,
        "y": 0.0,
        "z": 0.0,
        "w": 0.0
    },
    "m_DefaultValue": {
        "x": 0.0,
        "y": 0.0,
        "z": 0.0,
        "w": 0.0
    }
}

{
    "m_SGVersion": 0,
    "m_Type": "UnityEditor.ShaderGraph.Texture2DInputMaterialSlot",
    "m_ObjectId": "ba14d30c54edf08e972bc86a790985d6",
    "m_Id": 1154981915,
    "m_DisplayName": "Texture",
    "m_SlotType": 0,
    "m_Hidden": false,
    "m_ShaderOutputName": "Texture2D_EAAEF77E",
    "m_StageCapability": 2,
    "m_BareResource": false,
    "m_Texture": {
        "m_SerializedTexture": "{\"texture\":{\"instanceID\":0}}",
        "m_Guid": ""
    },
    "m_DefaultType": 0
}

{
    "m_SGVersion": 0,
    "m_Type": "UnityEditor.ShaderGraph.Vector1MaterialSlot",
    "m_ObjectId": "ba1dfa35959c82868e522eca3e1e7109",
    "m_Id": 0,
    "m_DisplayName": "Width",
    "m_SlotType": 1,
    "m_Hidden": false,
    "m_ShaderOutputName": "Width",
    "m_StageCapability": 2,
    "m_Value": 0.0,
    "m_DefaultValue": 0.0,
    "m_Labels": [
        "X"
    ]
}

{
    "m_SGVersion": 0,
    "m_Type": "UnityEditor.ShaderGraph.MultiplyNode",
    "m_ObjectId": "bab88df6428af9858bb213fc08487702",
    "m_Group": {
        "m_Id": "ce8dd4e0bce149dc9d95bf62958879ee"
    },
    "m_Name": "Multiply",
    "m_DrawState": {
        "m_Expanded": true,
        "m_Position": {
            "serializedVersion": "2",
            "x": -958.9998779296875,
            "y": -32.000030517578128,
            "width": 135.00001525878907,
            "height": 118.00000762939453
        }
    },
    "m_Slots": [
        {
            "m_Id": "51ff155ad2f59a89aae0db20f0d9de94"
        },
        {
            "m_Id": "e62a4a4fa38d8c81964fa109ae8f5b58"
        },
        {
            "m_Id": "7e6d5ac39e140e86b9fbdb2758c2f8c6"
        }
    ],
    "synonyms": [],
    "m_Precision": 0,
    "m_PreviewExpanded": false,
    "m_PreviewMode": 0,
    "m_CustomColors": {
        "m_SerializableColors": []
    }
}

{
    "m_SGVersion": 0,
    "m_Type": "UnityEditor.ShaderGraph.Vector1MaterialSlot",
    "m_ObjectId": "bd27c4db0a6d1381b601027343504c43",
    "m_Id": 1,
    "m_DisplayName": "Out_Vector1",
    "m_SlotType": 1,
    "m_Hidden": false,
    "m_ShaderOutputName": "OutVector1",
    "m_StageCapability": 2,
    "m_Value": 0.0,
    "m_DefaultValue": 0.0,
    "m_Labels": [
        "X"
    ]
}

{
    "m_SGVersion": 0,
    "m_Type": "UnityEditor.ShaderGraph.Vector1MaterialSlot",
    "m_ObjectId": "bf7b6172073db9888ab6585af6163252",
    "m_Id": 1,
    "m_DisplayName": "Out_Vector1",
    "m_SlotType": 1,
    "m_Hidden": false,
    "m_ShaderOutputName": "OutVector1",
    "m_StageCapability": 2,
    "m_Value": 0.0,
    "m_DefaultValue": 0.0,
    "m_Labels": [
        "X"
    ]
}

{
    "m_SGVersion": 0,
    "m_Type": "UnityEditor.ShaderGraph.DynamicVectorMaterialSlot",
    "m_ObjectId": "bf7b9b4f8c254181acff8f19111a64f6",
    "m_Id": 1,
    "m_DisplayName": "B",
    "m_SlotType": 0,
    "m_Hidden": false,
    "m_ShaderOutputName": "B",
    "m_StageCapability": 3,
    "m_Value": {
        "x": 0.0,
        "y": 0.0,
        "z": 0.0,
        "w": 0.0
    },
    "m_DefaultValue": {
        "x": 0.0,
        "y": 0.0,
        "z": 0.0,
        "w": 0.0
    }
}

{
    "m_SGVersion": 0,
    "m_Type": "UnityEditor.ShaderGraph.AddNode",
    "m_ObjectId": "c22d502bc425a08ba90a1f8f444285f8",
    "m_Group": {
        "m_Id": "ce8dd4e0bce149dc9d95bf62958879ee"
    },
    "m_Name": "Add",
    "m_DrawState": {
        "m_Expanded": true,
        "m_Position": {
            "serializedVersion": "2",
            "x": -29.249969482421876,
            "y": 187.74990844726563,
            "width": 134.99998474121095,
            "height": 117.99999237060547
        }
    },
    "m_Slots": [
        {
            "m_Id": "483398a2145c868e9c38fd2449331f0b"
        },
        {
            "m_Id": "d211ee831b8a5e8c8269d44af9679651"
        },
        {
            "m_Id": "d7814bff6adcf480bba109906569efa4"
        }
    ],
    "synonyms": [],
    "m_Precision": 0,
    "m_PreviewExpanded": false,
    "m_PreviewMode": 0,
    "m_CustomColors": {
        "m_SerializableColors": []
    }
}

{
    "m_SGVersion": 0,
    "m_Type": "UnityEditor.ShaderGraph.Internal.Texture2DShaderProperty",
    "m_ObjectId": "c357718a564766878515a5583a2f5006",
    "m_Guid": {
        "m_GuidSerialized": "a279d9b5-a406-436d-a7c8-a42d711f9516"
    },
    "m_Name": "Texture",
    "m_DefaultReferenceName": "Texture2D_7DA37D8F",
    "m_OverrideReferenceName": "",
    "m_GeneratePropertyBlock": true,
    "m_Precision": 0,
    "overrideHLSLDeclaration": false,
    "hlslDeclarationOverride": 0,
    "m_Hidden": false,
    "m_Value": {
        "m_SerializedTexture": "{\"texture\":{\"instanceID\":0}}",
        "m_Guid": ""
    },
    "m_Modifiable": true,
    "m_DefaultType": 0
}

{
    "m_SGVersion": 0,
    "m_Type": "UnityEditor.ShaderGraph.Vector1MaterialSlot",
    "m_ObjectId": "c51caa763ca2c2889822e47c698dab61",
    "m_Id": 1,
    "m_DisplayName": "Out_Vector1",
    "m_SlotType": 1,
    "m_Hidden": false,
    "m_ShaderOutputName": "OutVector1",
    "m_StageCapability": 2,
    "m_Value": 0.0,
    "m_DefaultValue": 0.0,
    "m_Labels": [
        "X"
    ]
}

{
    "m_SGVersion": 0,
    "m_Type": "UnityEditor.ShaderGraph.Texture2DInputMaterialSlot",
    "m_ObjectId": "c6caa1b1b3f2b98e86014eeb6d4aba4e",
    "m_Id": 1154981915,
    "m_DisplayName": "Texture",
    "m_SlotType": 0,
    "m_Hidden": false,
    "m_ShaderOutputName": "Texture2D_EAAEF77E",
    "m_StageCapability": 2,
    "m_BareResource": false,
    "m_Texture": {
        "m_SerializedTexture": "{\"texture\":{\"instanceID\":0}}",
        "m_Guid": ""
    },
    "m_DefaultType": 0
}

{
    "m_SGVersion": 0,
    "m_Type": "UnityEditor.ShaderGraph.Vector2MaterialSlot",
    "m_ObjectId": "c8db3237f8cbbc8e88e556e8d657a987",
    "m_Id": 832014706,
    "m_DisplayName": "Offset",
    "m_SlotType": 0,
    "m_Hidden": false,
    "m_ShaderOutputName": "Vector2_71A49153",
    "m_StageCapability": 2,
    "m_Value": {
        "x": 0.0,
        "y": 0.0
    },
    "m_DefaultValue": {
        "x": 0.0,
        "y": 0.0
    },
    "m_Labels": [
        "X",
        "Y"
    ]
}

{
    "m_SGVersion": 0,
    "m_Type": "UnityEditor.ShaderGraph.Texture2DInputMaterialSlot",
    "m_ObjectId": "ca5b4fb32dbdec838af43e379af72351",
    "m_Id": 1154981915,
    "m_DisplayName": "Texture",
    "m_SlotType": 0,
    "m_Hidden": false,
    "m_ShaderOutputName": "Texture2D_EAAEF77E",
    "m_StageCapability": 2,
    "m_BareResource": false,
    "m_Texture": {
        "m_SerializedTexture": "{\"texture\":{\"instanceID\":0}}",
        "m_Guid": ""
    },
    "m_DefaultType": 0
}

{
    "m_SGVersion": 0,
    "m_Type": "UnityEditor.ShaderGraph.Texture2DInputMaterialSlot",
    "m_ObjectId": "cce6c47437c760819a0a1f6a569843ec",
    "m_Id": 1154981915,
    "m_DisplayName": "Texture",
    "m_SlotType": 0,
    "m_Hidden": false,
    "m_ShaderOutputName": "Texture2D_EAAEF77E",
    "m_StageCapability": 2,
    "m_BareResource": false,
    "m_Texture": {
        "m_SerializedTexture": "{\"texture\":{\"instanceID\":0}}",
        "m_Guid": ""
    },
    "m_DefaultType": 0
}

{
    "m_SGVersion": 0,
    "m_Type": "UnityEditor.ShaderGraph.DynamicVectorMaterialSlot",
    "m_ObjectId": "cdb63ba9048aa482a88fe341d5a11804",
    "m_Id": 0,
    "m_DisplayName": "In",
    "m_SlotType": 0,
    "m_Hidden": false,
    "m_ShaderOutputName": "In",
    "m_StageCapability": 3,
    "m_Value": {
        "x": 0.0,
        "y": 0.0,
        "z": 0.0,
        "w": 0.0
    },
    "m_DefaultValue": {
        "x": 0.0,
        "y": 0.0,
        "z": 0.0,
        "w": 0.0
    }
}

{
    "m_SGVersion": 0,
    "m_Type": "UnityEditor.ShaderGraph.GroupData",
    "m_ObjectId": "ce8dd4e0bce149dc9d95bf62958879ee",
    "m_Title": "Mask",
    "m_Position": {
        "x": -1528.0,
        "y": -617.0
    }
}

{
    "m_SGVersion": 0,
    "m_Type": "UnityEditor.ShaderGraph.DynamicVectorMaterialSlot",
    "m_ObjectId": "d2042217132c0f8f9989509cb5b30c4b",
    "m_Id": 1,
    "m_DisplayName": "Out",
    "m_SlotType": 1,
    "m_Hidden": false,
    "m_ShaderOutputName": "Out",
    "m_StageCapability": 3,
    "m_Value": {
        "x": 0.0,
        "y": 0.0,
        "z": 0.0,
        "w": 0.0
    },
    "m_DefaultValue": {
        "x": 0.0,
        "y": 0.0,
        "z": 0.0,
        "w": 0.0
    }
}

{
    "m_SGVersion": 0,
    "m_Type": "UnityEditor.ShaderGraph.DynamicVectorMaterialSlot",
    "m_ObjectId": "d211ee831b8a5e8c8269d44af9679651",
    "m_Id": 1,
    "m_DisplayName": "B",
    "m_SlotType": 0,
    "m_Hidden": false,
    "m_ShaderOutputName": "B",
    "m_StageCapability": 3,
    "m_Value": {
        "x": 0.0,
        "y": 0.0,
        "z": 0.0,
        "w": 0.0
    },
    "m_DefaultValue": {
        "x": 0.0,
        "y": 0.0,
        "z": 0.0,
        "w": 0.0
    }
}

{
    "m_SGVersion": 0,
    "m_Type": "UnityEditor.ShaderGraph.DynamicVectorMaterialSlot",
    "m_ObjectId": "d7814bff6adcf480bba109906569efa4",
    "m_Id": 2,
    "m_DisplayName": "Out",
    "m_SlotType": 1,
    "m_Hidden": false,
    "m_ShaderOutputName": "Out",
    "m_StageCapability": 3,
    "m_Value": {
        "x": 0.0,
        "y": 0.0,
        "z": 0.0,
        "w": 0.0
    },
    "m_DefaultValue": {
        "x": 0.0,
        "y": 0.0,
        "z": 0.0,
        "w": 0.0
    }
}

{
    "m_SGVersion": 0,
    "m_Type": "UnityEditor.ShaderGraph.Vector2Node",
    "m_ObjectId": "d9a0a022f63326809f9def56a0c447be",
    "m_Group": {
        "m_Id": "ce8dd4e0bce149dc9d95bf62958879ee"
    },
    "m_Name": "Vector 2",
    "m_DrawState": {
        "m_Expanded": true,
        "m_Position": {
            "serializedVersion": "2",
            "x": -798.2498168945313,
            "y": -8.250030517578125,
            "width": 134.99998474121095,
            "height": 101.0
        }
    },
    "m_Slots": [
        {
            "m_Id": "8c27670613b433878c834955c7facb39"
        },
        {
            "m_Id": "b8268cfa2baf84818fb11be036920756"
        },
        {
            "m_Id": "9762c58b5bb0338ea4d5c3e8d3659f09"
        }
    ],
    "synonyms": [],
    "m_Precision": 0,
    "m_PreviewExpanded": true,
    "m_PreviewMode": 0,
    "m_CustomColors": {
        "m_SerializableColors": []
    },
    "m_Value": {
        "x": 0.0,
        "y": 0.0
    }
}

{
    "m_SGVersion": 0,
    "m_Type": "UnityEditor.ShaderGraph.DynamicVectorMaterialSlot",
    "m_ObjectId": "dc9c688cb97bd98fa2f659e49e128f98",
    "m_Id": 2,
    "m_DisplayName": "Max",
    "m_SlotType": 0,
    "m_Hidden": false,
    "m_ShaderOutputName": "Max",
    "m_StageCapability": 3,
    "m_Value": {
        "x": 1.0,
        "y": 1.0,
        "z": 1.0,
        "w": 1.0
    },
    "m_DefaultValue": {
        "x": 0.0,
        "y": 0.0,
        "z": 0.0,
        "w": 0.0
    }
}

{
    "m_SGVersion": 0,
    "m_Type": "UnityEditor.ShaderGraph.Vector2MaterialSlot",
    "m_ObjectId": "e560b2eeba56178dbcbbe2d74d364cfe",
    "m_Id": 832014706,
    "m_DisplayName": "Offset",
    "m_SlotType": 0,
    "m_Hidden": false,
    "m_ShaderOutputName": "Vector2_71A49153",
    "m_StageCapability": 2,
    "m_Value": {
        "x": 0.0,
        "y": 0.0
    },
    "m_DefaultValue": {
        "x": 0.0,
        "y": 0.0
    },
    "m_Labels": [
        "X",
        "Y"
    ]
}

{
    "m_SGVersion": 0,
    "m_Type": "UnityEditor.ShaderGraph.DynamicValueMaterialSlot",
    "m_ObjectId": "e62a4a4fa38d8c81964fa109ae8f5b58",
    "m_Id": 1,
    "m_DisplayName": "B",
    "m_SlotType": 0,
    "m_Hidden": false,
    "m_ShaderOutputName": "B",
    "m_StageCapability": 3,
    "m_Value": {
        "e00": 2.0,
        "e01": 2.0,
        "e02": 2.0,
        "e03": 2.0,
        "e10": 2.0,
        "e11": 2.0,
        "e12": 2.0,
        "e13": 2.0,
        "e20": 2.0,
        "e21": 2.0,
        "e22": 2.0,
        "e23": 2.0,
        "e30": 2.0,
        "e31": 2.0,
        "e32": 2.0,
        "e33": 2.0
    },
    "m_DefaultValue": {
        "e00": 1.0,
        "e01": 0.0,
        "e02": 0.0,
        "e03": 0.0,
        "e10": 0.0,
        "e11": 1.0,
        "e12": 0.0,
        "e13": 0.0,
        "e20": 0.0,
        "e21": 0.0,
        "e22": 1.0,
        "e23": 0.0,
        "e30": 0.0,
        "e31": 0.0,
        "e32": 0.0,
        "e33": 1.0
    }
}

{
    "m_SGVersion": 0,
    "m_Type": "UnityEditor.ShaderGraph.DynamicVectorMaterialSlot",
    "m_ObjectId": "eaa4c18b4e15ac87966288ec9f9a4ea8",
    "m_Id": 2,
    "m_DisplayName": "Out",
    "m_SlotType": 1,
    "m_Hidden": false,
    "m_ShaderOutputName": "Out",
    "m_StageCapability": 3,
    "m_Value": {
        "x": 0.0,
        "y": 0.0,
        "z": 0.0,
        "w": 0.0
    },
    "m_DefaultValue": {
        "x": 0.0,
        "y": 0.0,
        "z": 0.0,
        "w": 0.0
    }
}

{
    "m_SGVersion": 0,
    "m_Type": "UnityEditor.ShaderGraph.NegateNode",
    "m_ObjectId": "ebcef7f66c36298694f0f5f546048f29",
    "m_Group": {
        "m_Id": "ce8dd4e0bce149dc9d95bf62958879ee"
    },
    "m_Name": "Negate",
    "m_DrawState": {
        "m_Expanded": true,
        "m_Position": {
            "serializedVersion": "2",
            "x": -634.2498168945313,
            "y": -405.25,
            "width": 141.0,
            "height": 93.99999237060547
        }
    },
    "m_Slots": [
        {
            "m_Id": "21e886e79e6dfa8b813e1b569ece697d"
        },
        {
            "m_Id": "9d1681dc805e8181a8a205948b37bd7e"
        }
    ],
    "synonyms": [],
    "m_Precision": 0,
    "m_PreviewExpanded": false,
    "m_PreviewMode": 0,
    "m_CustomColors": {
        "m_SerializableColors": []
    }
}

{
    "m_SGVersion": 0,
    "m_Type": "UnityEditor.ShaderGraph.DynamicVectorMaterialSlot",
    "m_ObjectId": "ed3f55655ebd7c8a835c9d177739f431",
    "m_Id": 0,
    "m_DisplayName": "A",
    "m_SlotType": 0,
    "m_Hidden": false,
    "m_ShaderOutputName": "A",
    "m_StageCapability": 3,
    "m_Value": {
        "x": 0.0,
        "y": 0.0,
        "z": 0.0,
        "w": 0.0
    },
    "m_DefaultValue": {
        "x": 0.0,
        "y": 0.0,
        "z": 0.0,
        "w": 0.0
    }
}

{
    "m_SGVersion": 0,
    "m_Type": "UnityEditor.ShaderGraph.AddNode",
    "m_ObjectId": "edc60c6143c86d88985017a47bff1bb4",
    "m_Group": {
        "m_Id": "ce8dd4e0bce149dc9d95bf62958879ee"
    },
    "m_Name": "Add",
    "m_DrawState": {
        "m_Expanded": true,
        "m_Position": {
            "serializedVersion": "2",
            "x": -192.24993896484376,
            "y": -482.25,
            "width": 134.99998474121095,
            "height": 117.99999237060547
        }
    },
    "m_Slots": [
        {
            "m_Id": "671d3bc9aacfd78a8be772b60d5d494c"
        },
        {
            "m_Id": "943f14db03ad6e82a305b3c9f26ab4ef"
        },
        {
            "m_Id": "195301ac81cc5480b443f06517504eed"
        }
    ],
    "synonyms": [],
    "m_Precision": 0,
    "m_PreviewExpanded": false,
    "m_PreviewMode": 0,
    "m_CustomColors": {
        "m_SerializableColors": []
    }
}

{
    "m_SGVersion": 0,
    "m_Type": "UnityEditor.ShaderGraph.Texture2DPropertiesNode",
    "m_ObjectId": "f3f0f5e8c7259e819e1d9ec3b07c1b39",
    "m_Group": {
        "m_Id": "ce8dd4e0bce149dc9d95bf62958879ee"
    },
    "m_Name": "Texel Size",
    "m_DrawState": {
        "m_Expanded": true,
        "m_Position": {
            "serializedVersion": "2",
            "x": -1356.0,
            "y": 11.999967575073243,
            "width": 197.0,
            "height": 101.0
        }
    },
    "m_Slots": [
        {
            "m_Id": "ba1dfa35959c82868e522eca3e1e7109"
        },
        {
            "m_Id": "272c4a11e0bcd58fb985611fde522168"
        },
        {
            "m_Id": "08ce912bbd38db899ba89ba8e8209d4d"
        }
    ],
    "synonyms": [],
    "m_Precision": 0,
    "m_PreviewExpanded": true,
    "m_PreviewMode": 0,
    "m_CustomColors": {
        "m_SerializableColors": []
    }
}

{
    "m_SGVersion": 0,
    "m_Type": "UnityEditor.ShaderGraph.DynamicVectorMaterialSlot",
    "m_ObjectId": "f4ef1ddf83f56c818a47b487f9743f02",
    "m_Id": 0,
    "m_DisplayName": "A",
    "m_SlotType": 0,
    "m_Hidden": false,
    "m_ShaderOutputName": "A",
    "m_StageCapability": 3,
    "m_Value": {
        "x": 0.0,
        "y": 0.0,
        "z": 0.0,
        "w": 0.0
    },
    "m_DefaultValue": {
        "x": 0.0,
        "y": 0.0,
        "z": 0.0,
        "w": 0.0
    }
}

{
    "m_SGVersion": 0,
    "m_Type": "UnityEditor.ShaderGraph.NegateNode",
    "m_ObjectId": "fd2f26a398c9358789a488a565cdca73",
    "m_Group": {
        "m_Id": "ce8dd4e0bce149dc9d95bf62958879ee"
    },
    "m_Name": "Negate",
    "m_DrawState": {
        "m_Expanded": true,
        "m_Position": {
            "serializedVersion": "2",
            "x": -638.2499389648438,
            "y": -152.25001525878907,
            "width": 141.0,
            "height": 93.99999237060547
        }
    },
    "m_Slots": [
        {
            "m_Id": "75423e8e426de58a8c938129ef8272ea"
        },
        {
            "m_Id": "d2042217132c0f8f9989509cb5b30c4b"
        }
    ],
    "synonyms": [],
    "m_Precision": 0,
    "m_PreviewExpanded": false,
    "m_PreviewMode": 0,
    "m_CustomColors": {
        "m_SerializableColors": []
    }
}

{
    "m_SGVersion": 0,
    "m_Type": "UnityEditor.ShaderGraph.DynamicVectorMaterialSlot",
    "m_ObjectId": "fd304884b526a28a80d70f6e4f96af48",
    "m_Id": 0,
    "m_DisplayName": "A",
    "m_SlotType": 0,
    "m_Hidden": false,
    "m_ShaderOutputName": "A",
    "m_StageCapability": 3,
    "m_Value": {
        "x": 0.0,
        "y": 0.0,
        "z": 0.0,
        "w": 0.0
    },
    "m_DefaultValue": {
        "x": 0.0,
        "y": 0.0,
        "z": 0.0,
        "w": 0.0
    }
}

