%YAML 1.1
%TAG !u! tag:unity3d.com,2011:
--- !u!74 &7400000
AnimationClip:
  m_ObjectHideFlags: 0
  m_CorrespondingSourceObject: {fileID: 0}
  m_PrefabInstance: {fileID: 0}
  m_PrefabAsset: {fileID: 0}
  m_Name: shine
  serializedVersion: 6
  m_Legacy: 0
  m_Compressed: 0
  m_UseHighQualityCurve: 1
  m_RotationCurves: []
  m_CompressedRotationCurves: []
  m_EulerCurves: []
  m_PositionCurves: []
  m_ScaleCurves: []
  m_FloatCurves:
  - curve:
      serializedVersion: 2
      m_Curve:
      - serializedVersion: 3
        time: 0
        value: 0.93
        inSlope: 0
        outSlope: 0
        tangentMode: 136
        weightedMode: 0
        inWeight: 0.33333334
        outWeight: 0.33333334
      - serializedVersion: 3
        time: 1
        value: 1
        inSlope: 0
        outSlope: 0
        tangentMode: 136
        weightedMode: 0
        inWeight: 0.33333334
        outWeight: 0.33333334
      - serializedVersion: 3
        time: 2.0166667
        value: 0.990566
        inSlope: 0
        outSlope: 0
        tangentMode: 136
        weightedMode: 0
        inWeight: 0.33333334
        outWeight: 0.33333334
      m_PreInfinity: 2
      m_PostInfinity: 2
      m_RotationOrder: 4
    attribute: m_Color.r
    path: 
    classID: 114
    script: {fileID: 11500000, guid: fe87c0e1cc204ed48ad3b37840f39efc, type: 3}
  - curve:
      serializedVersion: 2
      m_Curve:
      - serializedVersion: 3
        time: 0
        value: 0.86
        inSlope: 0
        outSlope: 0
        tangentMode: 136
        weightedMode: 0
        inWeight: 0.33333334
        outWeight: 0.33333334
      - serializedVersion: 3
        time: 1
        value: 1
        inSlope: 0
        outSlope: 0
        tangentMode: 136
        weightedMode: 0
        inWeight: 0.33333334
        outWeight: 0.33333334
      - serializedVersion: 3
        time: 2.0166667
        value: 0.9825906
        inSlope: 0
        outSlope: 0
        tangentMode: 136
        weightedMode: 0
        inWeight: 0.33333334
        outWeight: 0.33333334
      m_PreInfinity: 2
      m_PostInfinity: 2
      m_RotationOrder: 4
    attribute: m_Color.g
    path: 
    classID: 114
    script: {fileID: 11500000, guid: fe87c0e1cc204ed48ad3b37840f39efc, type: 3}
  - curve:
      serializedVersion: 2
      m_Curve:
      - serializedVersion: 3
        time: 0
        value: 0.76
        inSlope: 0
        outSlope: 0
        tangentMode: 136
        weightedMode: 0
        inWeight: 0.33333334
        outWeight: 0.33333334
      - serializedVersion: 3
        time: 1
        value: 1
        inSlope: 0
        outSlope: 0
        tangentMode: 136
        weightedMode: 0
        inWeight: 0.33333334
        outWeight: 0.33333334
      - serializedVersion: 3
        time: 2.0166667
        value: 0.85412955
        inSlope: 0
        outSlope: 0
        tangentMode: 136
        weightedMode: 0
        inWeight: 0.33333334
        outWeight: 0.33333334
      m_PreInfinity: 2
      m_PostInfinity: 2
      m_RotationOrder: 4
    attribute: m_Color.b
    path: 
    classID: 114
    script: {fileID: 11500000, guid: fe87c0e1cc204ed48ad3b37840f39efc, type: 3}
  - curve:
      serializedVersion: 2
      m_Curve:
      - serializedVersion: 3
        time: 0
        value: 0
        inSlope: 0
        outSlope: 0
        tangentMode: 136
        weightedMode: 0
        inWeight: 0.33333334
        outWeight: 0.33333334
      - serializedVersion: 3
        time: 1
        value: 1
        inSlope: 0
        outSlope: 0
        tangentMode: 136
        weightedMode: 0
        inWeight: 0.33333334
        outWeight: 0.33333334
      - serializedVersion: 3
        time: 2.0166667
        value: 0
        inSlope: 0
        outSlope: 0
        tangentMode: 136
        weightedMode: 0
        inWeight: 0.33333334
        outWeight: 0.33333334
      m_PreInfinity: 2
      m_PostInfinity: 2
      m_RotationOrder: 4
    attribute: m_Color.a
    path: 
    classID: 114
    script: {fileID: 11500000, guid: fe87c0e1cc204ed48ad3b37840f39efc, type: 3}
  m_PPtrCurves:
  - curve:
    - time: 0
      value: {fileID: 3054439076135632626, guid: 8aa61989ea60b6448a20bd848900e9bb, type: 3}
    - time: 0.1
      value: {fileID: -3580244729682970059, guid: 8aa61989ea60b6448a20bd848900e9bb, type: 3}
    - time: 0.2
      value: {fileID: 7158364795336672142, guid: 8aa61989ea60b6448a20bd848900e9bb, type: 3}
    - time: 0.28333333
      value: {fileID: -8888014035734707558, guid: 8aa61989ea60b6448a20bd848900e9bb, type: 3}
    - time: 0.38333333
      value: {fileID: 5840598288223990395, guid: 8aa61989ea60b6448a20bd848900e9bb, type: 3}
    - time: 0.48333332
      value: {fileID: -7355460615089035379, guid: 8aa61989ea60b6448a20bd848900e9bb, type: 3}
    - time: 0.5833333
      value: {fileID: 2767646214761213222, guid: 8aa61989ea60b6448a20bd848900e9bb, type: 3}
    - time: 0.6666667
      value: {fileID: 8933768992786879973, guid: 8aa61989ea60b6448a20bd848900e9bb, type: 3}
    - time: 0.76666665
      value: {fileID: -6596578942836412520, guid: 8aa61989ea60b6448a20bd848900e9bb, type: 3}
    - time: 0.8666667
      value: {fileID: 5119705923490282519, guid: 8aa61989ea60b6448a20bd848900e9bb, type: 3}
    - time: 0.96666664
      value: {fileID: -6212798320411776929, guid: 8aa61989ea60b6448a20bd848900e9bb, type: 3}
    - time: 1.05
      value: {fileID: 8774957141590506983, guid: 8aa61989ea60b6448a20bd848900e9bb, type: 3}
    - time: 1.15
      value: {fileID: -5418613701882328366, guid: 8aa61989ea60b6448a20bd848900e9bb, type: 3}
    - time: 1.25
      value: {fileID: -3558640460785518181, guid: 8aa61989ea60b6448a20bd848900e9bb, type: 3}
    - time: 1.35
      value: {fileID: -393313429032031610, guid: 8aa61989ea60b6448a20bd848900e9bb, type: 3}
    - time: 1.4333333
      value: {fileID: 5740352905300812954, guid: 8aa61989ea60b6448a20bd848900e9bb, type: 3}
    - time: 1.5333333
      value: {fileID: 2230438961488882731, guid: 8aa61989ea60b6448a20bd848900e9bb, type: 3}
    - time: 1.6333333
      value: {fileID: 4806556757587706279, guid: 8aa61989ea60b6448a20bd848900e9bb, type: 3}
    - time: 1.7333333
      value: {fileID: 6889952209659190339, guid: 8aa61989ea60b6448a20bd848900e9bb, type: 3}
    - time: 1.8166667
      value: {fileID: -8284555360286226792, guid: 8aa61989ea60b6448a20bd848900e9bb, type: 3}
    - time: 1.9166666
      value: {fileID: -4041717611006376134, guid: 8aa61989ea60b6448a20bd848900e9bb, type: 3}
    - time: 2.0166667
      value: {fileID: 7245656942873624432, guid: 8aa61989ea60b6448a20bd848900e9bb, type: 3}
    attribute: m_Sprite
    path: 
    classID: 114
    script: {fileID: 11500000, guid: fe87c0e1cc204ed48ad3b37840f39efc, type: 3}
  m_SampleRate: 60
  m_WrapMode: 0
  m_Bounds:
    m_Center: {x: 0, y: 0, z: 0}
    m_Extent: {x: 0, y: 0, z: 0}
  m_ClipBindingConstant:
    genericBindings:
    - serializedVersion: 2
      path: 0
      attribute: 2526845255
      script: {fileID: 11500000, guid: fe87c0e1cc204ed48ad3b37840f39efc, type: 3}
      typeID: 114
      customType: 0
      isPPtrCurve: 0
    - serializedVersion: 2
      path: 0
      attribute: 4215373228
      script: {fileID: 11500000, guid: fe87c0e1cc204ed48ad3b37840f39efc, type: 3}
      typeID: 114
      customType: 0
      isPPtrCurve: 0
    - serializedVersion: 2
      path: 0
      attribute: 2334886179
      script: {fileID: 11500000, guid: fe87c0e1cc204ed48ad3b37840f39efc, type: 3}
      typeID: 114
      customType: 0
      isPPtrCurve: 0
    - serializedVersion: 2
      path: 0
      attribute: 304273561
      script: {fileID: 11500000, guid: fe87c0e1cc204ed48ad3b37840f39efc, type: 3}
      typeID: 114
      customType: 0
      isPPtrCurve: 0
    - serializedVersion: 2
      path: 0
      attribute: 2015549526
      script: {fileID: 11500000, guid: fe87c0e1cc204ed48ad3b37840f39efc, type: 3}
      typeID: 114
      customType: 0
      isPPtrCurve: 1
    pptrCurveMapping:
    - {fileID: 3054439076135632626, guid: 8aa61989ea60b6448a20bd848900e9bb, type: 3}
    - {fileID: -3580244729682970059, guid: 8aa61989ea60b6448a20bd848900e9bb, type: 3}
    - {fileID: 7158364795336672142, guid: 8aa61989ea60b6448a20bd848900e9bb, type: 3}
    - {fileID: -8888014035734707558, guid: 8aa61989ea60b6448a20bd848900e9bb, type: 3}
    - {fileID: 5840598288223990395, guid: 8aa61989ea60b6448a20bd848900e9bb, type: 3}
    - {fileID: -7355460615089035379, guid: 8aa61989ea60b6448a20bd848900e9bb, type: 3}
    - {fileID: 2767646214761213222, guid: 8aa61989ea60b6448a20bd848900e9bb, type: 3}
    - {fileID: 8933768992786879973, guid: 8aa61989ea60b6448a20bd848900e9bb, type: 3}
    - {fileID: -6596578942836412520, guid: 8aa61989ea60b6448a20bd848900e9bb, type: 3}
    - {fileID: 5119705923490282519, guid: 8aa61989ea60b6448a20bd848900e9bb, type: 3}
    - {fileID: -6212798320411776929, guid: 8aa61989ea60b6448a20bd848900e9bb, type: 3}
    - {fileID: 8774957141590506983, guid: 8aa61989ea60b6448a20bd848900e9bb, type: 3}
    - {fileID: -5418613701882328366, guid: 8aa61989ea60b6448a20bd848900e9bb, type: 3}
    - {fileID: -3558640460785518181, guid: 8aa61989ea60b6448a20bd848900e9bb, type: 3}
    - {fileID: -393313429032031610, guid: 8aa61989ea60b6448a20bd848900e9bb, type: 3}
    - {fileID: 5740352905300812954, guid: 8aa61989ea60b6448a20bd848900e9bb, type: 3}
    - {fileID: 2230438961488882731, guid: 8aa61989ea60b6448a20bd848900e9bb, type: 3}
    - {fileID: 4806556757587706279, guid: 8aa61989ea60b6448a20bd848900e9bb, type: 3}
    - {fileID: 6889952209659190339, guid: 8aa61989ea60b6448a20bd848900e9bb, type: 3}
    - {fileID: -8284555360286226792, guid: 8aa61989ea60b6448a20bd848900e9bb, type: 3}
    - {fileID: -4041717611006376134, guid: 8aa61989ea60b6448a20bd848900e9bb, type: 3}
    - {fileID: 7245656942873624432, guid: 8aa61989ea60b6448a20bd848900e9bb, type: 3}
  m_AnimationClipSettings:
    serializedVersion: 2
    m_AdditiveReferencePoseClip: {fileID: 0}
    m_AdditiveReferencePoseTime: 0
    m_StartTime: 0
    m_StopTime: 2.0333333
    m_OrientationOffsetY: 0
    m_Level: 0
    m_CycleOffset: 0
    m_HasAdditiveReferencePose: 0
    m_LoopTime: 0
    m_LoopBlend: 0
    m_LoopBlendOrientation: 0
    m_LoopBlendPositionY: 0
    m_LoopBlendPositionXZ: 0
    m_KeepOriginalOrientation: 0
    m_KeepOriginalPositionY: 1
    m_KeepOriginalPositionXZ: 0
    m_HeightFromFeet: 0
    m_Mirror: 0
  m_EditorCurves:
  - curve:
      serializedVersion: 2
      m_Curve:
      - serializedVersion: 3
        time: 0
        value: 0.93
        inSlope: 0
        outSlope: 0
        tangentMode: 136
        weightedMode: 0
        inWeight: 0.33333334
        outWeight: 0.33333334
      - serializedVersion: 3
        time: 1
        value: 1
        inSlope: 0
        outSlope: 0
        tangentMode: 136
        weightedMode: 0
        inWeight: 0.33333334
        outWeight: 0.33333334
      - serializedVersion: 3
        time: 2.0166667
        value: 0.990566
        inSlope: 0
        outSlope: 0
        tangentMode: 136
        weightedMode: 0
        inWeight: 0.33333334
        outWeight: 0.33333334
      m_PreInfinity: 2
      m_PostInfinity: 2
      m_RotationOrder: 4
    attribute: m_Color.r
    path: 
    classID: 114
    script: {fileID: 11500000, guid: fe87c0e1cc204ed48ad3b37840f39efc, type: 3}
  - curve:
      serializedVersion: 2
      m_Curve:
      - serializedVersion: 3
        time: 0
        value: 0.86
        inSlope: 0
        outSlope: 0
        tangentMode: 136
        weightedMode: 0
        inWeight: 0.33333334
        outWeight: 0.33333334
      - serializedVersion: 3
        time: 1
        value: 1
        inSlope: 0
        outSlope: 0
        tangentMode: 136
        weightedMode: 0
        inWeight: 0.33333334
        outWeight: 0.33333334
      - serializedVersion: 3
        time: 2.0166667
        value: 0.9825906
        inSlope: 0
        outSlope: 0
        tangentMode: 136
        weightedMode: 0
        inWeight: 0.33333334
        outWeight: 0.33333334
      m_PreInfinity: 2
      m_PostInfinity: 2
      m_RotationOrder: 4
    attribute: m_Color.g
    path: 
    classID: 114
    script: {fileID: 11500000, guid: fe87c0e1cc204ed48ad3b37840f39efc, type: 3}
  - curve:
      serializedVersion: 2
      m_Curve:
      - serializedVersion: 3
        time: 0
        value: 0.76
        inSlope: 0
        outSlope: 0
        tangentMode: 136
        weightedMode: 0
        inWeight: 0.33333334
        outWeight: 0.33333334
      - serializedVersion: 3
        time: 1
        value: 1
        inSlope: 0
        outSlope: 0
        tangentMode: 136
        weightedMode: 0
        inWeight: 0.33333334
        outWeight: 0.33333334
      - serializedVersion: 3
        time: 2.0166667
        value: 0.85412955
        inSlope: 0
        outSlope: 0
        tangentMode: 136
        weightedMode: 0
        inWeight: 0.33333334
        outWeight: 0.33333334
      m_PreInfinity: 2
      m_PostInfinity: 2
      m_RotationOrder: 4
    attribute: m_Color.b
    path: 
    classID: 114
    script: {fileID: 11500000, guid: fe87c0e1cc204ed48ad3b37840f39efc, type: 3}
  - curve:
      serializedVersion: 2
      m_Curve:
      - serializedVersion: 3
        time: 0
        value: 0
        inSlope: 0
        outSlope: 0
        tangentMode: 136
        weightedMode: 0
        inWeight: 0.33333334
        outWeight: 0.33333334
      - serializedVersion: 3
        time: 1
        value: 1
        inSlope: 0
        outSlope: 0
        tangentMode: 136
        weightedMode: 0
        inWeight: 0.33333334
        outWeight: 0.33333334
      - serializedVersion: 3
        time: 2.0166667
        value: 0
        inSlope: 0
        outSlope: 0
        tangentMode: 136
        weightedMode: 0
        inWeight: 0.33333334
        outWeight: 0.33333334
      m_PreInfinity: 2
      m_PostInfinity: 2
      m_RotationOrder: 4
    attribute: m_Color.a
    path: 
    classID: 114
    script: {fileID: 11500000, guid: fe87c0e1cc204ed48ad3b37840f39efc, type: 3}
  m_EulerEditorCurves: []
  m_HasGenericRootTransform: 0
  m_HasMotionFloatCurves: 0
  m_Events: []
