%YAML 1.1
%TAG !u! tag:unity3d.com,2011:
--- !u!114 &11400000
MonoBehaviour:
  m_ObjectHideFlags: 0
  m_CorrespondingSourceObject: {fileID: 0}
  m_PrefabInstance: {fileID: 0}
  m_PrefabAsset: {fileID: 0}
  m_GameObject: {fileID: 0}
  m_Enabled: 1
  m_EditorHideFlags: 0
  m_Script: {fileID: 11500000, guid: 31b646d441fa2ca45882d5f54d4456ed, type: 3}
  m_Name: CursorSet
  m_EditorClassIdentifier: 
  standard:
    texture: {fileID: 2800000, guid: 352fb697283096e40b6072cb582b7aaa, type: 3}
    hotspot: {x: 0, y: 0}
  interact:
    texture: {fileID: 2800000, guid: 4224c6c3bd8e8874ea0d6fa2ce281f5e, type: 3}
    hotspot: {x: 0, y: 0}
  navigate:
    texture: {fileID: 2800000, guid: 352fb697283096e40b6072cb582b7aaa, type: 3}
    hotspot: {x: 0, y: 0}
  emotion:
    texture: {fileID: 2800000, guid: c517cef438bd1154bb1efd7d779c9633, type: 3}
    hotspot: {x: 0, y: 0}
  angry:
    texture: {fileID: 2800000, guid: 7aa0a1f8fbbfad04ea54001527037c74, type: 3}
    hotspot: {x: 0, y: 0}
  happy:
    texture: {fileID: 2800000, guid: dcbae3aeb22014a44a04aba9a494209b, type: 3}
    hotspot: {x: 0, y: 0}
  sad:
    texture: {fileID: 2800000, guid: 1ead7c93329b88646a87b91311c197f0, type: 3}
    hotspot: {x: 0, y: 0}
  surprised:
    texture: {fileID: 2800000, guid: 17e07e3730390a544b536a7631435979, type: 3}
    hotspot: {x: 0, y: 0}
