%YAML 1.1
%TAG !u! tag:unity3d.com,2011:
--- !u!114 &11400000
MonoBehaviour:
  m_ObjectHideFlags: 0
  m_CorrespondingSourceObject: {fileID: 0}
  m_PrefabInstance: {fileID: 0}
  m_PrefabAsset: {fileID: 0}
  m_GameObject: {fileID: 0}
  m_Enabled: 1
  m_EditorHideFlags: 0
  m_Script: {fileID: 11500000, guid: 5498e014571d85f4bb749b923d66958f, type: 3}
  m_Name: MoveLeft
  m_EditorClassIdentifier: 
  name: Left
  sprite: {fileID: 2800000, guid: 352fb697283096e40b6072cb582b7aaa, type: 3}
  hotspot: {x: 0, y: 0}
