%YAML 1.1
%TAG !u! tag:unity3d.com,2011:
--- !u!74 &7400000
AnimationClip:
  m_ObjectHideFlags: 0
  m_CorrespondingSourceObject: {fileID: 0}
  m_PrefabInstance: {fileID: 0}
  m_PrefabAsset: {fileID: 0}
  m_Name: PlayerLUp
  serializedVersion: 6
  m_Legacy: 0
  m_Compressed: 0
  m_UseHighQualityCurve: 1
  m_RotationCurves: []
  m_CompressedRotationCurves: []
  m_EulerCurves: []
  m_PositionCurves: []
  m_ScaleCurves: []
  m_FloatCurves: []
  m_PPtrCurves:
  - curve:
    - time: 0
      value: {fileID: -7265945092216959789, guid: f950e2ef4a793e240b4de9f18b548994, type: 3}
    - time: 0.033333335
      value: {fileID: -7763760374268818939, guid: f950e2ef4a793e240b4de9f18b548994, type: 3}
    - time: 0.05
      value: {fileID: 6791568382726092186, guid: f950e2ef4a793e240b4de9f18b548994, type: 3}
    - time: 0.083333336
      value: {fileID: 7866934866097205508, guid: f950e2ef4a793e240b4de9f18b548994, type: 3}
    - time: 0.1
      value: {fileID: -6597228747565432080, guid: f950e2ef4a793e240b4de9f18b548994, type: 3}
    - time: 0.13333334
      value: {fileID: -5144868342833129136, guid: f950e2ef4a793e240b4de9f18b548994, type: 3}
    - time: 0.15
      value: {fileID: -8681000781833547719, guid: f950e2ef4a793e240b4de9f18b548994, type: 3}
    - time: 0.18333334
      value: {fileID: 4867368863643098852, guid: f950e2ef4a793e240b4de9f18b548994, type: 3}
    - time: 0.21666667
      value: {fileID: -6330369217984154474, guid: f950e2ef4a793e240b4de9f18b548994, type: 3}
    - time: 0.23333333
      value: {fileID: 813320778048245546, guid: f950e2ef4a793e240b4de9f18b548994, type: 3}
    - time: 0.26666668
      value: {fileID: 8943479472252084172, guid: f950e2ef4a793e240b4de9f18b548994, type: 3}
    - time: 0.28333333
      value: {fileID: -7307492531965124336, guid: f950e2ef4a793e240b4de9f18b548994, type: 3}
    - time: 0.31666666
      value: {fileID: 3333396120183420332, guid: f950e2ef4a793e240b4de9f18b548994, type: 3}
    - time: 0.33333334
      value: {fileID: -7469916437847427933, guid: f950e2ef4a793e240b4de9f18b548994, type: 3}
    - time: 0.36666667
      value: {fileID: 3892850960517134982, guid: f950e2ef4a793e240b4de9f18b548994, type: 3}
    - time: 0.38333333
      value: {fileID: 9113986426174198142, guid: f950e2ef4a793e240b4de9f18b548994, type: 3}
    - time: 0.41666666
      value: {fileID: -8444323737270647597, guid: f950e2ef4a793e240b4de9f18b548994, type: 3}
    - time: 0.45
      value: {fileID: -2509061125868127787, guid: f950e2ef4a793e240b4de9f18b548994, type: 3}
    - time: 0.46666667
      value: {fileID: -3108885574814713480, guid: f950e2ef4a793e240b4de9f18b548994, type: 3}
    - time: 0.5
      value: {fileID: -3823750961335315417, guid: f950e2ef4a793e240b4de9f18b548994, type: 3}
    - time: 0.51666665
      value: {fileID: -6950768162946708831, guid: f950e2ef4a793e240b4de9f18b548994, type: 3}
    - time: 0.55
      value: {fileID: -3322867802293729005, guid: f950e2ef4a793e240b4de9f18b548994, type: 3}
    - time: 0.56666666
      value: {fileID: 3389426040248426690, guid: f950e2ef4a793e240b4de9f18b548994, type: 3}
    - time: 0.6
      value: {fileID: 8638853908689576327, guid: f950e2ef4a793e240b4de9f18b548994, type: 3}
    - time: 0.6333333
      value: {fileID: 8330553210678464278, guid: f950e2ef4a793e240b4de9f18b548994, type: 3}
    - time: 0.65
      value: {fileID: 7872848591614222997, guid: f950e2ef4a793e240b4de9f18b548994, type: 3}
    - time: 0.68333334
      value: {fileID: -3409150928012237342, guid: f950e2ef4a793e240b4de9f18b548994, type: 3}
    - time: 0.7
      value: {fileID: 2597421269797224611, guid: f950e2ef4a793e240b4de9f18b548994, type: 3}
    - time: 0.73333335
      value: {fileID: 7678954836065406481, guid: f950e2ef4a793e240b4de9f18b548994, type: 3}
    - time: 0.75
      value: {fileID: 785921538549002210, guid: f950e2ef4a793e240b4de9f18b548994, type: 3}
    - time: 0.78333336
      value: {fileID: 361282351720539962, guid: f950e2ef4a793e240b4de9f18b548994, type: 3}
    - time: 0.8
      value: {fileID: -3793262768467839915, guid: f950e2ef4a793e240b4de9f18b548994, type: 3}
    - time: 0.8333333
      value: {fileID: -3531370243689997189, guid: f950e2ef4a793e240b4de9f18b548994, type: 3}
    - time: 0.8666667
      value: {fileID: -1057496148817048206, guid: f950e2ef4a793e240b4de9f18b548994, type: 3}
    - time: 0.8833333
      value: {fileID: 2459871645685590670, guid: f950e2ef4a793e240b4de9f18b548994, type: 3}
    - time: 0.9166667
      value: {fileID: 6346845802708724176, guid: f950e2ef4a793e240b4de9f18b548994, type: 3}
    - time: 0.93333334
      value: {fileID: 8110033861219320748, guid: f950e2ef4a793e240b4de9f18b548994, type: 3}
    - time: 0.96666664
      value: {fileID: -3555632915992268760, guid: f950e2ef4a793e240b4de9f18b548994, type: 3}
    - time: 0.98333335
      value: {fileID: 6841587313196792003, guid: f950e2ef4a793e240b4de9f18b548994, type: 3}
    - time: 1.0166667
      value: {fileID: -7190425341374482604, guid: f950e2ef4a793e240b4de9f18b548994, type: 3}
    attribute: m_Sprite
    path: 
    classID: 212
    script: {fileID: 0}
  m_SampleRate: 60
  m_WrapMode: 0
  m_Bounds:
    m_Center: {x: 0, y: 0, z: 0}
    m_Extent: {x: 0, y: 0, z: 0}
  m_ClipBindingConstant:
    genericBindings:
    - serializedVersion: 2
      path: 0
      attribute: 0
      script: {fileID: 0}
      typeID: 212
      customType: 23
      isPPtrCurve: 1
    pptrCurveMapping:
    - {fileID: -7265945092216959789, guid: f950e2ef4a793e240b4de9f18b548994, type: 3}
    - {fileID: -7763760374268818939, guid: f950e2ef4a793e240b4de9f18b548994, type: 3}
    - {fileID: 6791568382726092186, guid: f950e2ef4a793e240b4de9f18b548994, type: 3}
    - {fileID: 7866934866097205508, guid: f950e2ef4a793e240b4de9f18b548994, type: 3}
    - {fileID: -6597228747565432080, guid: f950e2ef4a793e240b4de9f18b548994, type: 3}
    - {fileID: -5144868342833129136, guid: f950e2ef4a793e240b4de9f18b548994, type: 3}
    - {fileID: -8681000781833547719, guid: f950e2ef4a793e240b4de9f18b548994, type: 3}
    - {fileID: 4867368863643098852, guid: f950e2ef4a793e240b4de9f18b548994, type: 3}
    - {fileID: -6330369217984154474, guid: f950e2ef4a793e240b4de9f18b548994, type: 3}
    - {fileID: 813320778048245546, guid: f950e2ef4a793e240b4de9f18b548994, type: 3}
    - {fileID: 8943479472252084172, guid: f950e2ef4a793e240b4de9f18b548994, type: 3}
    - {fileID: -7307492531965124336, guid: f950e2ef4a793e240b4de9f18b548994, type: 3}
    - {fileID: 3333396120183420332, guid: f950e2ef4a793e240b4de9f18b548994, type: 3}
    - {fileID: -7469916437847427933, guid: f950e2ef4a793e240b4de9f18b548994, type: 3}
    - {fileID: 3892850960517134982, guid: f950e2ef4a793e240b4de9f18b548994, type: 3}
    - {fileID: 9113986426174198142, guid: f950e2ef4a793e240b4de9f18b548994, type: 3}
    - {fileID: -8444323737270647597, guid: f950e2ef4a793e240b4de9f18b548994, type: 3}
    - {fileID: -2509061125868127787, guid: f950e2ef4a793e240b4de9f18b548994, type: 3}
    - {fileID: -3108885574814713480, guid: f950e2ef4a793e240b4de9f18b548994, type: 3}
    - {fileID: -3823750961335315417, guid: f950e2ef4a793e240b4de9f18b548994, type: 3}
    - {fileID: -6950768162946708831, guid: f950e2ef4a793e240b4de9f18b548994, type: 3}
    - {fileID: -3322867802293729005, guid: f950e2ef4a793e240b4de9f18b548994, type: 3}
    - {fileID: 3389426040248426690, guid: f950e2ef4a793e240b4de9f18b548994, type: 3}
    - {fileID: 8638853908689576327, guid: f950e2ef4a793e240b4de9f18b548994, type: 3}
    - {fileID: 8330553210678464278, guid: f950e2ef4a793e240b4de9f18b548994, type: 3}
    - {fileID: 7872848591614222997, guid: f950e2ef4a793e240b4de9f18b548994, type: 3}
    - {fileID: -3409150928012237342, guid: f950e2ef4a793e240b4de9f18b548994, type: 3}
    - {fileID: 2597421269797224611, guid: f950e2ef4a793e240b4de9f18b548994, type: 3}
    - {fileID: 7678954836065406481, guid: f950e2ef4a793e240b4de9f18b548994, type: 3}
    - {fileID: 785921538549002210, guid: f950e2ef4a793e240b4de9f18b548994, type: 3}
    - {fileID: 361282351720539962, guid: f950e2ef4a793e240b4de9f18b548994, type: 3}
    - {fileID: -3793262768467839915, guid: f950e2ef4a793e240b4de9f18b548994, type: 3}
    - {fileID: -3531370243689997189, guid: f950e2ef4a793e240b4de9f18b548994, type: 3}
    - {fileID: -1057496148817048206, guid: f950e2ef4a793e240b4de9f18b548994, type: 3}
    - {fileID: 2459871645685590670, guid: f950e2ef4a793e240b4de9f18b548994, type: 3}
    - {fileID: 6346845802708724176, guid: f950e2ef4a793e240b4de9f18b548994, type: 3}
    - {fileID: 8110033861219320748, guid: f950e2ef4a793e240b4de9f18b548994, type: 3}
    - {fileID: -3555632915992268760, guid: f950e2ef4a793e240b4de9f18b548994, type: 3}
    - {fileID: 6841587313196792003, guid: f950e2ef4a793e240b4de9f18b548994, type: 3}
    - {fileID: -7190425341374482604, guid: f950e2ef4a793e240b4de9f18b548994, type: 3}
  m_AnimationClipSettings:
    serializedVersion: 2
    m_AdditiveReferencePoseClip: {fileID: 0}
    m_AdditiveReferencePoseTime: 0
    m_StartTime: 0
    m_StopTime: 1.0333333
    m_OrientationOffsetY: 0
    m_Level: 0
    m_CycleOffset: 0
    m_HasAdditiveReferencePose: 0
    m_LoopTime: 1
    m_LoopBlend: 0
    m_LoopBlendOrientation: 0
    m_LoopBlendPositionY: 0
    m_LoopBlendPositionXZ: 0
    m_KeepOriginalOrientation: 0
    m_KeepOriginalPositionY: 1
    m_KeepOriginalPositionXZ: 0
    m_HeightFromFeet: 0
    m_Mirror: 0
  m_EditorCurves: []
  m_EulerEditorCurves: []
  m_HasGenericRootTransform: 0
  m_HasMotionFloatCurves: 0
  m_Events: []
