%YAML 1.1
%TAG !u! tag:unity3d.com,2011:
--- !u!74 &7400000
AnimationClip:
  m_ObjectHideFlags: 0
  m_CorrespondingSourceObject: {fileID: 0}
  m_PrefabInstance: {fileID: 0}
  m_PrefabAsset: {fileID: 0}
  m_Name: PlayerLDown
  serializedVersion: 6
  m_Legacy: 0
  m_Compressed: 0
  m_UseHighQualityCurve: 1
  m_RotationCurves: []
  m_CompressedRotationCurves: []
  m_EulerCurves: []
  m_PositionCurves: []
  m_ScaleCurves: []
  m_FloatCurves: []
  m_PPtrCurves:
  - curve:
    - time: 0
      value: {fileID: 2466513361741206787, guid: 7b4120778494e6749a0373ce50c745c3, type: 3}
    - time: 0.033333335
      value: {fileID: 4790751736566308556, guid: 7b4120778494e6749a0373ce50c745c3, type: 3}
    - time: 0.05
      value: {fileID: -9156685794921284241, guid: 7b4120778494e6749a0373ce50c745c3, type: 3}
    - time: 0.083333336
      value: {fileID: -4054098294846303067, guid: 7b4120778494e6749a0373ce50c745c3, type: 3}
    - time: 0.1
      value: {fileID: -8059550458020672242, guid: 7b4120778494e6749a0373ce50c745c3, type: 3}
    - time: 0.13333334
      value: {fileID: 1507287525571473867, guid: 7b4120778494e6749a0373ce50c745c3, type: 3}
    - time: 0.15
      value: {fileID: 7968520672435595004, guid: 7b4120778494e6749a0373ce50c745c3, type: 3}
    - time: 0.18333334
      value: {fileID: -3794618055445996406, guid: 7b4120778494e6749a0373ce50c745c3, type: 3}
    - time: 0.21666667
      value: {fileID: -6311070117913136101, guid: 7b4120778494e6749a0373ce50c745c3, type: 3}
    - time: 0.23333333
      value: {fileID: 2722152071156046729, guid: 7b4120778494e6749a0373ce50c745c3, type: 3}
    - time: 0.26666668
      value: {fileID: -5004555051803053735, guid: 7b4120778494e6749a0373ce50c745c3, type: 3}
    - time: 0.28333333
      value: {fileID: 6937748035180980778, guid: 7b4120778494e6749a0373ce50c745c3, type: 3}
    - time: 0.31666666
      value: {fileID: -5323550578001412092, guid: 7b4120778494e6749a0373ce50c745c3, type: 3}
    - time: 0.33333334
      value: {fileID: 6989422584301181937, guid: 7b4120778494e6749a0373ce50c745c3, type: 3}
    - time: 0.36666667
      value: {fileID: 5538633776759418364, guid: 7b4120778494e6749a0373ce50c745c3, type: 3}
    - time: 0.38333333
      value: {fileID: 3129659413765681071, guid: 7b4120778494e6749a0373ce50c745c3, type: 3}
    - time: 0.41666666
      value: {fileID: 2396398476657352459, guid: 7b4120778494e6749a0373ce50c745c3, type: 3}
    - time: 0.45
      value: {fileID: 1136626218198387903, guid: 7b4120778494e6749a0373ce50c745c3, type: 3}
    - time: 0.46666667
      value: {fileID: 1712748686312723437, guid: 7b4120778494e6749a0373ce50c745c3, type: 3}
    - time: 0.5
      value: {fileID: -6329160155713804950, guid: 7b4120778494e6749a0373ce50c745c3, type: 3}
    - time: 0.51666665
      value: {fileID: 4845212737197248998, guid: 7b4120778494e6749a0373ce50c745c3, type: 3}
    - time: 0.55
      value: {fileID: -6444076849769474271, guid: 7b4120778494e6749a0373ce50c745c3, type: 3}
    - time: 0.56666666
      value: {fileID: 2714124745382881233, guid: 7b4120778494e6749a0373ce50c745c3, type: 3}
    - time: 0.6
      value: {fileID: -3882660742334883490, guid: 7b4120778494e6749a0373ce50c745c3, type: 3}
    - time: 0.6333333
      value: {fileID: -1432204864822626452, guid: 7b4120778494e6749a0373ce50c745c3, type: 3}
    - time: 0.65
      value: {fileID: -5888325054083569300, guid: 7b4120778494e6749a0373ce50c745c3, type: 3}
    - time: 0.68333334
      value: {fileID: -7280630065335261661, guid: 7b4120778494e6749a0373ce50c745c3, type: 3}
    - time: 0.7
      value: {fileID: -7070500976762496523, guid: 7b4120778494e6749a0373ce50c745c3, type: 3}
    - time: 0.73333335
      value: {fileID: 7471999950197869535, guid: 7b4120778494e6749a0373ce50c745c3, type: 3}
    - time: 0.75
      value: {fileID: -7382864179395255685, guid: 7b4120778494e6749a0373ce50c745c3, type: 3}
    - time: 0.78333336
      value: {fileID: -7590713708389241901, guid: 7b4120778494e6749a0373ce50c745c3, type: 3}
    - time: 0.8
      value: {fileID: -36832467758196010, guid: 7b4120778494e6749a0373ce50c745c3, type: 3}
    - time: 0.8333333
      value: {fileID: -8043000171193875739, guid: 7b4120778494e6749a0373ce50c745c3, type: 3}
    - time: 0.8666667
      value: {fileID: -2454157191280484230, guid: 7b4120778494e6749a0373ce50c745c3, type: 3}
    - time: 0.8833333
      value: {fileID: 8658469045611344378, guid: 7b4120778494e6749a0373ce50c745c3, type: 3}
    - time: 0.9166667
      value: {fileID: 7644003447544478793, guid: 7b4120778494e6749a0373ce50c745c3, type: 3}
    - time: 0.93333334
      value: {fileID: 5751455354435396595, guid: 7b4120778494e6749a0373ce50c745c3, type: 3}
    - time: 0.96666664
      value: {fileID: -1298291867197366897, guid: 7b4120778494e6749a0373ce50c745c3, type: 3}
    - time: 0.98333335
      value: {fileID: -5523646495886609554, guid: 7b4120778494e6749a0373ce50c745c3, type: 3}
    - time: 1.0166667
      value: {fileID: 6785307503457311633, guid: 7b4120778494e6749a0373ce50c745c3, type: 3}
    attribute: m_Sprite
    path: 
    classID: 212
    script: {fileID: 0}
  m_SampleRate: 60
  m_WrapMode: 0
  m_Bounds:
    m_Center: {x: 0, y: 0, z: 0}
    m_Extent: {x: 0, y: 0, z: 0}
  m_ClipBindingConstant:
    genericBindings:
    - serializedVersion: 2
      path: 0
      attribute: 0
      script: {fileID: 0}
      typeID: 212
      customType: 23
      isPPtrCurve: 1
    pptrCurveMapping:
    - {fileID: 2466513361741206787, guid: 7b4120778494e6749a0373ce50c745c3, type: 3}
    - {fileID: 4790751736566308556, guid: 7b4120778494e6749a0373ce50c745c3, type: 3}
    - {fileID: -9156685794921284241, guid: 7b4120778494e6749a0373ce50c745c3, type: 3}
    - {fileID: -4054098294846303067, guid: 7b4120778494e6749a0373ce50c745c3, type: 3}
    - {fileID: -8059550458020672242, guid: 7b4120778494e6749a0373ce50c745c3, type: 3}
    - {fileID: 1507287525571473867, guid: 7b4120778494e6749a0373ce50c745c3, type: 3}
    - {fileID: 7968520672435595004, guid: 7b4120778494e6749a0373ce50c745c3, type: 3}
    - {fileID: -3794618055445996406, guid: 7b4120778494e6749a0373ce50c745c3, type: 3}
    - {fileID: -6311070117913136101, guid: 7b4120778494e6749a0373ce50c745c3, type: 3}
    - {fileID: 2722152071156046729, guid: 7b4120778494e6749a0373ce50c745c3, type: 3}
    - {fileID: -5004555051803053735, guid: 7b4120778494e6749a0373ce50c745c3, type: 3}
    - {fileID: 6937748035180980778, guid: 7b4120778494e6749a0373ce50c745c3, type: 3}
    - {fileID: -5323550578001412092, guid: 7b4120778494e6749a0373ce50c745c3, type: 3}
    - {fileID: 6989422584301181937, guid: 7b4120778494e6749a0373ce50c745c3, type: 3}
    - {fileID: 5538633776759418364, guid: 7b4120778494e6749a0373ce50c745c3, type: 3}
    - {fileID: 3129659413765681071, guid: 7b4120778494e6749a0373ce50c745c3, type: 3}
    - {fileID: 2396398476657352459, guid: 7b4120778494e6749a0373ce50c745c3, type: 3}
    - {fileID: 1136626218198387903, guid: 7b4120778494e6749a0373ce50c745c3, type: 3}
    - {fileID: 1712748686312723437, guid: 7b4120778494e6749a0373ce50c745c3, type: 3}
    - {fileID: -6329160155713804950, guid: 7b4120778494e6749a0373ce50c745c3, type: 3}
    - {fileID: 4845212737197248998, guid: 7b4120778494e6749a0373ce50c745c3, type: 3}
    - {fileID: -6444076849769474271, guid: 7b4120778494e6749a0373ce50c745c3, type: 3}
    - {fileID: 2714124745382881233, guid: 7b4120778494e6749a0373ce50c745c3, type: 3}
    - {fileID: -3882660742334883490, guid: 7b4120778494e6749a0373ce50c745c3, type: 3}
    - {fileID: -1432204864822626452, guid: 7b4120778494e6749a0373ce50c745c3, type: 3}
    - {fileID: -5888325054083569300, guid: 7b4120778494e6749a0373ce50c745c3, type: 3}
    - {fileID: -7280630065335261661, guid: 7b4120778494e6749a0373ce50c745c3, type: 3}
    - {fileID: -7070500976762496523, guid: 7b4120778494e6749a0373ce50c745c3, type: 3}
    - {fileID: 7471999950197869535, guid: 7b4120778494e6749a0373ce50c745c3, type: 3}
    - {fileID: -7382864179395255685, guid: 7b4120778494e6749a0373ce50c745c3, type: 3}
    - {fileID: -7590713708389241901, guid: 7b4120778494e6749a0373ce50c745c3, type: 3}
    - {fileID: -36832467758196010, guid: 7b4120778494e6749a0373ce50c745c3, type: 3}
    - {fileID: -8043000171193875739, guid: 7b4120778494e6749a0373ce50c745c3, type: 3}
    - {fileID: -2454157191280484230, guid: 7b4120778494e6749a0373ce50c745c3, type: 3}
    - {fileID: 8658469045611344378, guid: 7b4120778494e6749a0373ce50c745c3, type: 3}
    - {fileID: 7644003447544478793, guid: 7b4120778494e6749a0373ce50c745c3, type: 3}
    - {fileID: 5751455354435396595, guid: 7b4120778494e6749a0373ce50c745c3, type: 3}
    - {fileID: -1298291867197366897, guid: 7b4120778494e6749a0373ce50c745c3, type: 3}
    - {fileID: -5523646495886609554, guid: 7b4120778494e6749a0373ce50c745c3, type: 3}
    - {fileID: 6785307503457311633, guid: 7b4120778494e6749a0373ce50c745c3, type: 3}
  m_AnimationClipSettings:
    serializedVersion: 2
    m_AdditiveReferencePoseClip: {fileID: 0}
    m_AdditiveReferencePoseTime: 0
    m_StartTime: 0
    m_StopTime: 1.0333333
    m_OrientationOffsetY: 0
    m_Level: 0
    m_CycleOffset: 0
    m_HasAdditiveReferencePose: 0
    m_LoopTime: 1
    m_LoopBlend: 0
    m_LoopBlendOrientation: 0
    m_LoopBlendPositionY: 0
    m_LoopBlendPositionXZ: 0
    m_KeepOriginalOrientation: 0
    m_KeepOriginalPositionY: 1
    m_KeepOriginalPositionXZ: 0
    m_HeightFromFeet: 0
    m_Mirror: 0
  m_EditorCurves: []
  m_EulerEditorCurves: []
  m_HasGenericRootTransform: 0
  m_HasMotionFloatCurves: 0
  m_Events: []
