%YAML 1.1
%TAG !u! tag:unity3d.com,2011:
--- !u!1001 &3544132428091835457
PrefabInstance:
  m_ObjectHideFlags: 0
  serializedVersion: 2
  m_Modification:
    m_TransformParent: {fileID: 0}
    m_Modifications:
    - target: {fileID: 6010436873741346543, guid: f5f2b391dada7724996ac46864522a70, type: 3}
      propertyPath: m_Sprite
      value: 
      objectReference: {fileID: -6255343197131344984, guid: 48b86136f880c064d9d7d1a5eda79c02, type: 3}
    - target: {fileID: 7411435086595074117, guid: f5f2b391dada7724996ac46864522a70, type: 3}
      propertyPath: m_Name
      value: Table_Fruitbasket_var3
      objectReference: {fileID: 0}
    - target: {fileID: 7411435086595074137, guid: f5f2b391dada7724996ac46864522a70, type: 3}
      propertyPath: m_RootOrder
      value: 0
      objectReference: {fileID: 0}
    - target: {fileID: 7411435086595074137, guid: f5f2b391dada7724996ac46864522a70, type: 3}
      propertyPath: m_LocalPosition.x
      value: 0
      objectReference: {fileID: 0}
    - target: {fileID: 7411435086595074137, guid: f5f2b391dada7724996ac46864522a70, type: 3}
      propertyPath: m_LocalPosition.y
      value: 0
      objectReference: {fileID: 0}
    - target: {fileID: 7411435086595074137, guid: f5f2b391dada7724996ac46864522a70, type: 3}
      propertyPath: m_LocalPosition.z
      value: 0
      objectReference: {fileID: 0}
    - target: {fileID: 7411435086595074137, guid: f5f2b391dada7724996ac46864522a70, type: 3}
      propertyPath: m_LocalRotation.w
      value: 1
      objectReference: {fileID: 0}
    - target: {fileID: 7411435086595074137, guid: f5f2b391dada7724996ac46864522a70, type: 3}
      propertyPath: m_LocalRotation.x
      value: 0
      objectReference: {fileID: 0}
    - target: {fileID: 7411435086595074137, guid: f5f2b391dada7724996ac46864522a70, type: 3}
      propertyPath: m_LocalRotation.y
      value: 0
      objectReference: {fileID: 0}
    - target: {fileID: 7411435086595074137, guid: f5f2b391dada7724996ac46864522a70, type: 3}
      propertyPath: m_LocalRotation.z
      value: 0
      objectReference: {fileID: 0}
    - target: {fileID: 7411435086595074137, guid: f5f2b391dada7724996ac46864522a70, type: 3}
      propertyPath: m_LocalEulerAnglesHint.x
      value: 0
      objectReference: {fileID: 0}
    - target: {fileID: 7411435086595074137, guid: f5f2b391dada7724996ac46864522a70, type: 3}
      propertyPath: m_LocalEulerAnglesHint.y
      value: 0
      objectReference: {fileID: 0}
    - target: {fileID: 7411435086595074137, guid: f5f2b391dada7724996ac46864522a70, type: 3}
      propertyPath: m_LocalEulerAnglesHint.z
      value: 0
      objectReference: {fileID: 0}
    m_RemovedComponents: []
  m_SourcePrefab: {fileID: 100100000, guid: f5f2b391dada7724996ac46864522a70, type: 3}
