%YAML 1.1
%TAG !u! tag:unity3d.com,2011:
--- !u!114 &11400000
MonoBehaviour:
  m_ObjectHideFlags: 0
  m_CorrespondingSourceObject: {fileID: 0}
  m_PrefabInstance: {fileID: 0}
  m_PrefabAsset: {fileID: 0}
  m_GameObject: {fileID: 0}
  m_Enabled: 1
  m_EditorHideFlags: 0
  m_Script: {fileID: 11500000, guid: 06b45cf21eb03b84c937983a3b4b0afe, type: 3}
  m_Name: EmotionBackgroundColorSet
  m_EditorClassIdentifier: 
  neutral: {r: 0.85490197, g: 0.7956732, b: 0.7254902, a: 1}
  angry: {r: 0.8867924, g: 0.7657648, b: 0.75711995, a: 1}
  happy: {r: 0.6462264, g: 1, b: 0.6709905, a: 1}
  sad: {r: 0.6711373, g: 0.7309182, b: 0.78039217, a: 1}
  surprised: {r: 0.9937508, g: 1, b: 0.6367924, a: 1}
