%YAML 1.1
%TAG !u! tag:unity3d.com,2011:
--- !u!114 &11400000
MonoBehaviour:
  m_ObjectHideFlags: 0
  m_CorrespondingSourceObject: {fileID: 0}
  m_PrefabInstance: {fileID: 0}
  m_PrefabAsset: {fileID: 0}
  m_GameObject: {fileID: 0}
  m_Enabled: 1
  m_EditorHideFlags: 0
  m_Script: {fileID: 11500000, guid: 06b45cf21eb03b84c937983a3b4b0afe, type: 3}
  m_Name: EmotionTransparentColor
  m_EditorClassIdentifier: 
  neutral: {r: 0.854902, g: 0.5647059, b: 0.33333334, a: 0.21176471}
  angry: {r: 0.8962264, g: 0.2436416, b: 0.19784617, a: 0.5254902}
  happy: {r: 0.083704144, g: 0.9339623, b: 0.20994596, a: 0.34901962}
  sad: {r: 0.36470592, g: 0.5267192, b: 0.78039217, a: 0.45490196}
  surprised: {r: 0.9622642, g: 0.9160199, b: 0.17611244, a: 0.48235294}
