%YAML 1.1
%TAG !u! tag:unity3d.com,2011:
--- !u!114 &11400000
MonoBehaviour:
  m_ObjectHideFlags: 0
  m_CorrespondingSourceObject: {fileID: 0}
  m_PrefabInstance: {fileID: 0}
  m_PrefabAsset: {fileID: 0}
  m_GameObject: {fileID: 0}
  m_Enabled: 1
  m_EditorHideFlags: 0
  m_Script: {fileID: 11500000, guid: 06b45cf21eb03b84c937983a3b4b0afe, type: 3}
  m_Name: EmotionColorSet
  m_EditorClassIdentifier: 
  neutral: {r: 0.854902, g: 0.5647059, b: 0.33333334, a: 1}
  angry: {r: 0.86274517, g: 0.4156863, b: 0.38431376, a: 1}
  disgusted: {r: 0, g: 0, b: 0, a: 0}
  fearful: {r: 0, g: 0, b: 0, a: 0}
  happy: {r: 0.083704144, g: 0.9339623, b: 0.20994596, a: 1}
  sad: {r: 0.3647059, g: 0.5882353, b: 0.7803922, a: 1}
  surprised: {r: 0.9716981, g: 0.93554974, b: 0.371262, a: 1}
