%YAML 1.1
%TAG !u! tag:unity3d.com,2011:
--- !u!114 &11400000
MonoBehaviour:
  m_ObjectHideFlags: 0
  m_CorrespondingSourceObject: {fileID: 0}
  m_PrefabInstance: {fileID: 0}
  m_PrefabAsset: {fileID: 0}
  m_GameObject: {fileID: 0}
  m_Enabled: 1
  m_EditorHideFlags: 0
  m_Script: {fileID: 11500000, guid: c73133a2a37b5514da0678836116ab2b, type: 3}
  m_Name: Fruitbasket_EmotionBoostDescriptionDE
  m_EditorClassIdentifier: 
  neutral: 
  angry: "Erhalte eine Barrier, die Menti vor Lavasteinen sch\xFCtzt."
  happy: "Vergr\xF6\xDFert den Korb und macht es einfacher Fr\xFCchte einzusammeln."
  sad: "L\xE4sst es f\xFCr kurze Zeit Fr\xFCchte regnen."
  surprised: "Menti wird f\xFCr kurze Zeit schneller."
