%YAML 1.1
%TAG !u! tag:unity3d.com,2011:
--- !u!114 &11400000
MonoBehaviour:
  m_ObjectHideFlags: 0
  m_CorrespondingSourceObject: {fileID: 0}
  m_PrefabInstance: {fileID: 0}
  m_PrefabAsset: {fileID: 0}
  m_GameObject: {fileID: 0}
  m_Enabled: 1
  m_EditorHideFlags: 0
  m_Script: {fileID: 11500000, guid: c73133a2a37b5514da0678836116ab2b, type: 3}
  m_Name: Jump_EmotionBoostDescriptionEN
  m_EditorClassIdentifier: 
  neutral: 
  angry: Create a barrier that keeps Menti save from spikefruits.
  happy: Gain a boost that launches you up in the air.
  sad: Create more leaves to jump on.
  surprised: Lets you jump higher for the duration of the boost.
