%YAML 1.1
%TAG !u! tag:unity3d.com,2011:
--- !u!1001 &5891686111575182624
PrefabInstance:
  m_ObjectHideFlags: 0
  serializedVersion: 2
  m_Modification:
    m_TransformParent: {fileID: 0}
    m_Modifications:
    - target: {fileID: -4949988011762405772, guid: 8597e651e28c23547b698b48026efc11, type: 3}
      propertyPath: line
      value: 
      objectReference: {fileID: 4979948057294521239}
    - target: {fileID: -4949988011762405772, guid: 8597e651e28c23547b698b48026efc11, type: 3}
      propertyPath: xEnd
      value: 0.5
      objectReference: {fileID: 0}
    - target: {fileID: -4949988011762405772, guid: 8597e651e28c23547b698b48026efc11, type: 3}
      propertyPath: yEnd
      value: -0.73
      objectReference: {fileID: 0}
    - target: {fileID: -4949988011762405772, guid: 8597e651e28c23547b698b48026efc11, type: 3}
      propertyPath: xStart
      value: -2.28
      objectReference: {fileID: 0}
    - target: {fileID: -4949988011762405772, guid: 8597e651e28c23547b698b48026efc11, type: 3}
      propertyPath: yStart
      value: 0.05
      objectReference: {fileID: 0}
    - target: {fileID: -4949988011762405772, guid: 8597e651e28c23547b698b48026efc11, type: 3}
      propertyPath: delta.x
      value: 2.78
      objectReference: {fileID: 0}
    - target: {fileID: -4949988011762405772, guid: 8597e651e28c23547b698b48026efc11, type: 3}
      propertyPath: delta.y
      value: -0.78000003
      objectReference: {fileID: 0}
    - target: {fileID: -4949988011762405772, guid: 8597e651e28c23547b698b48026efc11, type: 3}
      propertyPath: useLocalYEnd
      value: 1
      objectReference: {fileID: 0}
    - target: {fileID: -4949988011762405772, guid: 8597e651e28c23547b698b48026efc11, type: 3}
      propertyPath: localEndPoint.x
      value: 0.5
      objectReference: {fileID: 0}
    - target: {fileID: -4949988011762405772, guid: 8597e651e28c23547b698b48026efc11, type: 3}
      propertyPath: localEndPoint.y
      value: -0.73
      objectReference: {fileID: 0}
    - target: {fileID: -4949988011762405772, guid: 8597e651e28c23547b698b48026efc11, type: 3}
      propertyPath: localStartPoint.x
      value: -2.28
      objectReference: {fileID: 0}
    - target: {fileID: -4949988011762405772, guid: 8597e651e28c23547b698b48026efc11, type: 3}
      propertyPath: localStartPoint.y
      value: 0.05
      objectReference: {fileID: 0}
    - target: {fileID: -4949988011762405772, guid: 8597e651e28c23547b698b48026efc11, type: 3}
      propertyPath: points.Array.size
      value: 21
      objectReference: {fileID: 0}
    - target: {fileID: -4949988011762405772, guid: 8597e651e28c23547b698b48026efc11, type: 3}
      propertyPath: points.Array.data[0].x
      value: -2.28
      objectReference: {fileID: 0}
    - target: {fileID: -4949988011762405772, guid: 8597e651e28c23547b698b48026efc11, type: 3}
      propertyPath: points.Array.data[0].y
      value: 0.05
      objectReference: {fileID: 0}
    - target: {fileID: -4949988011762405772, guid: 8597e651e28c23547b698b48026efc11, type: 3}
      propertyPath: points.Array.data[1].x
      value: -2.141
      objectReference: {fileID: 0}
    - target: {fileID: -4949988011762405772, guid: 8597e651e28c23547b698b48026efc11, type: 3}
      propertyPath: points.Array.data[1].y
      value: -0.202367
      objectReference: {fileID: 0}
    - target: {fileID: -4949988011762405772, guid: 8597e651e28c23547b698b48026efc11, type: 3}
      propertyPath: points.Array.data[2].x
      value: -2.0019999
      objectReference: {fileID: 0}
    - target: {fileID: -4949988011762405772, guid: 8597e651e28c23547b698b48026efc11, type: 3}
      propertyPath: points.Array.data[2].y
      value: -0.38518983
      objectReference: {fileID: 0}
    - target: {fileID: -4949988011762405772, guid: 8597e651e28c23547b698b48026efc11, type: 3}
      propertyPath: points.Array.data[3].x
      value: -1.8629999
      objectReference: {fileID: 0}
    - target: {fileID: -4949988011762405772, guid: 8597e651e28c23547b698b48026efc11, type: 3}
      propertyPath: points.Array.data[3].y
      value: -0.5080838
      objectReference: {fileID: 0}
    - target: {fileID: -4949988011762405772, guid: 8597e651e28c23547b698b48026efc11, type: 3}
      propertyPath: points.Array.data[4].x
      value: -1.724
      objectReference: {fileID: 0}
    - target: {fileID: -4949988011762405772, guid: 8597e651e28c23547b698b48026efc11, type: 3}
      propertyPath: points.Array.data[4].y
      value: -0.58066446
      objectReference: {fileID: 0}
    - target: {fileID: -4949988011762405772, guid: 8597e651e28c23547b698b48026efc11, type: 3}
      propertyPath: points.Array.data[5].x
      value: -1.585
      objectReference: {fileID: 0}
    - target: {fileID: -4949988011762405772, guid: 8597e651e28c23547b698b48026efc11, type: 3}
      propertyPath: points.Array.data[5].y
      value: -0.6125473
      objectReference: {fileID: 0}
    - target: {fileID: -4949988011762405772, guid: 8597e651e28c23547b698b48026efc11, type: 3}
      propertyPath: points.Array.data[6].x
      value: -1.4459999
      objectReference: {fileID: 0}
    - target: {fileID: -4949988011762405772, guid: 8597e651e28c23547b698b48026efc11, type: 3}
      propertyPath: points.Array.data[6].y
      value: -0.61334765
      objectReference: {fileID: 0}
    - target: {fileID: -4949988011762405772, guid: 8597e651e28c23547b698b48026efc11, type: 3}
      propertyPath: points.Array.data[7].x
      value: -1.3069999
      objectReference: {fileID: 0}
    - target: {fileID: -4949988011762405772, guid: 8597e651e28c23547b698b48026efc11, type: 3}
      propertyPath: points.Array.data[7].y
      value: -0.592681
      objectReference: {fileID: 0}
    - target: {fileID: -4949988011762405772, guid: 8597e651e28c23547b698b48026efc11, type: 3}
      propertyPath: points.Array.data[8].x
      value: -1.168
      objectReference: {fileID: 0}
    - target: {fileID: -4949988011762405772, guid: 8597e651e28c23547b698b48026efc11, type: 3}
      propertyPath: points.Array.data[8].y
      value: -0.5601625
      objectReference: {fileID: 0}
    - target: {fileID: -4949988011762405772, guid: 8597e651e28c23547b698b48026efc11, type: 3}
      propertyPath: points.Array.data[9].x
      value: -1.029
      objectReference: {fileID: 0}
    - target: {fileID: -4949988011762405772, guid: 8597e651e28c23547b698b48026efc11, type: 3}
      propertyPath: points.Array.data[9].y
      value: -0.52540797
      objectReference: {fileID: 0}
    - target: {fileID: -4949988011762405772, guid: 8597e651e28c23547b698b48026efc11, type: 3}
      propertyPath: points.Array.data[10].x
      value: -0.89
      objectReference: {fileID: 0}
    - target: {fileID: -4949988011762405772, guid: 8597e651e28c23547b698b48026efc11, type: 3}
      propertyPath: points.Array.data[10].y
      value: -0.49803245
      objectReference: {fileID: 0}
    - target: {fileID: -4949988011762405772, guid: 8597e651e28c23547b698b48026efc11, type: 3}
      propertyPath: points.Array.data[11].x
      value: -0.7509999
      objectReference: {fileID: 0}
    - target: {fileID: -4949988011762405772, guid: 8597e651e28c23547b698b48026efc11, type: 3}
      propertyPath: points.Array.data[11].y
      value: -0.48862493
      objectReference: {fileID: 0}
    - target: {fileID: -4949988011762405772, guid: 8597e651e28c23547b698b48026efc11, type: 3}
      propertyPath: points.Array.data[12].x
      value: -0.61199987
      objectReference: {fileID: 0}
    - target: {fileID: -4949988011762405772, guid: 8597e651e28c23547b698b48026efc11, type: 3}
      propertyPath: points.Array.data[12].y
      value: -0.50657237
      objectReference: {fileID: 0}
    - target: {fileID: -4949988011762405772, guid: 8597e651e28c23547b698b48026efc11, type: 3}
      propertyPath: points.Array.data[13].x
      value: -0.47300005
      objectReference: {fileID: 0}
    - target: {fileID: -4949988011762405772, guid: 8597e651e28c23547b698b48026efc11, type: 3}
      propertyPath: points.Array.data[13].y
      value: -0.53389347
      objectReference: {fileID: 0}
    - target: {fileID: -4949988011762405772, guid: 8597e651e28c23547b698b48026efc11, type: 3}
      propertyPath: points.Array.data[14].x
      value: -0.334
      objectReference: {fileID: 0}
    - target: {fileID: -4949988011762405772, guid: 8597e651e28c23547b698b48026efc11, type: 3}
      propertyPath: points.Array.data[14].y
      value: -0.5675215
      objectReference: {fileID: 0}
    - target: {fileID: -4949988011762405772, guid: 8597e651e28c23547b698b48026efc11, type: 3}
      propertyPath: points.Array.data[15].x
      value: -0.19499993
      objectReference: {fileID: 0}
    - target: {fileID: -4949988011762405772, guid: 8597e651e28c23547b698b48026efc11, type: 3}
      propertyPath: points.Array.data[15].y
      value: -0.6043898
      objectReference: {fileID: 0}
    - target: {fileID: -4949988011762405772, guid: 8597e651e28c23547b698b48026efc11, type: 3}
      propertyPath: points.Array.data[16].x
      value: -0.055999994
      objectReference: {fileID: 0}
    - target: {fileID: -4949988011762405772, guid: 8597e651e28c23547b698b48026efc11, type: 3}
      propertyPath: points.Array.data[16].y
      value: -0.6414316
      objectReference: {fileID: 0}
    - target: {fileID: -4949988011762405772, guid: 8597e651e28c23547b698b48026efc11, type: 3}
      propertyPath: points.Array.data[17].x
      value: 0.08300018
      objectReference: {fileID: 0}
    - target: {fileID: -4949988011762405772, guid: 8597e651e28c23547b698b48026efc11, type: 3}
      propertyPath: points.Array.data[17].y
      value: -0.6755802
      objectReference: {fileID: 0}
    - target: {fileID: -4949988011762405772, guid: 8597e651e28c23547b698b48026efc11, type: 3}
      propertyPath: points.Array.data[18].x
      value: 0.22199988
      objectReference: {fileID: 0}
    - target: {fileID: -4949988011762405772, guid: 8597e651e28c23547b698b48026efc11, type: 3}
      propertyPath: points.Array.data[18].y
      value: -0.70376897
      objectReference: {fileID: 0}
    - target: {fileID: -4949988011762405772, guid: 8597e651e28c23547b698b48026efc11, type: 3}
      propertyPath: points.Array.data[19].x
      value: 0.36100006
      objectReference: {fileID: 0}
    - target: {fileID: -4949988011762405772, guid: 8597e651e28c23547b698b48026efc11, type: 3}
      propertyPath: points.Array.data[19].y
      value: -0.72293115
      objectReference: {fileID: 0}
    - target: {fileID: -4949988011762405772, guid: 8597e651e28c23547b698b48026efc11, type: 3}
      propertyPath: points.Array.data[20].x
      value: 0.5
      objectReference: {fileID: 0}
    - target: {fileID: -4949988011762405772, guid: 8597e651e28c23547b698b48026efc11, type: 3}
      propertyPath: points.Array.data[20].y
      value: -0.73
      objectReference: {fileID: 0}
    - target: {fileID: -4949988011762405772, guid: 8597e651e28c23547b698b48026efc11, type: 3}
      propertyPath: curve.m_Curve.Array.size
      value: 3
      objectReference: {fileID: 0}
    - target: {fileID: -4949988011762405772, guid: 8597e651e28c23547b698b48026efc11, type: 3}
      propertyPath: curve.m_Curve.Array.data[1].time
      value: 0.54576933
      objectReference: {fileID: 0}
    - target: {fileID: -4949988011762405772, guid: 8597e651e28c23547b698b48026efc11, type: 3}
      propertyPath: curve.m_Curve.Array.data[2].time
      value: 1
      objectReference: {fileID: 0}
    - target: {fileID: -4949988011762405772, guid: 8597e651e28c23547b698b48026efc11, type: 3}
      propertyPath: curve.m_Curve.Array.data[1].value
      value: 0.68927467
      objectReference: {fileID: 0}
    - target: {fileID: -4949988011762405772, guid: 8597e651e28c23547b698b48026efc11, type: 3}
      propertyPath: curve.m_Curve.Array.data[2].value
      value: 1
      objectReference: {fileID: 0}
    - target: {fileID: -4949988011762405772, guid: 8597e651e28c23547b698b48026efc11, type: 3}
      propertyPath: curve.m_Curve.Array.data[0].inSlope
      value: 7.444723
      objectReference: {fileID: 0}
    - target: {fileID: -4949988011762405772, guid: 8597e651e28c23547b698b48026efc11, type: 3}
      propertyPath: curve.m_Curve.Array.data[1].inSlope
      value: -0.022960478
      objectReference: {fileID: 0}
    - target: {fileID: -4949988011762405772, guid: 8597e651e28c23547b698b48026efc11, type: 3}
      propertyPath: curve.m_Curve.Array.data[0].outSlope
      value: 7.444723
      objectReference: {fileID: 0}
    - target: {fileID: -4949988011762405772, guid: 8597e651e28c23547b698b48026efc11, type: 3}
      propertyPath: curve.m_Curve.Array.data[1].inWeight
      value: 0.14856064
      objectReference: {fileID: 0}
    - target: {fileID: -4949988011762405772, guid: 8597e651e28c23547b698b48026efc11, type: 3}
      propertyPath: curve.m_Curve.Array.data[1].outSlope
      value: 0.28653282
      objectReference: {fileID: 0}
    - target: {fileID: -4949988011762405772, guid: 8597e651e28c23547b698b48026efc11, type: 3}
      propertyPath: curve.m_Curve.Array.data[0].outWeight
      value: 0.020632736
      objectReference: {fileID: 0}
    - target: {fileID: -4949988011762405772, guid: 8597e651e28c23547b698b48026efc11, type: 3}
      propertyPath: curve.m_Curve.Array.data[1].outWeight
      value: 0.23838332
      objectReference: {fileID: 0}
    - target: {fileID: -4949988011762405772, guid: 8597e651e28c23547b698b48026efc11, type: 3}
      propertyPath: curve.m_Curve.Array.data[1].tangentMode
      value: 1
      objectReference: {fileID: 0}
    - target: {fileID: 1283808677826571270, guid: 8597e651e28c23547b698b48026efc11, type: 3}
      propertyPath: m_Name
      value: Right_Platform
      objectReference: {fileID: 0}
    - target: {fileID: 1283808677826571288, guid: 8597e651e28c23547b698b48026efc11, type: 3}
      propertyPath: m_Size.y
      value: 0.38024205
      objectReference: {fileID: 0}
    - target: {fileID: 1283808677826571288, guid: 8597e651e28c23547b698b48026efc11, type: 3}
      propertyPath: m_Offset.x
      value: 0.06
      objectReference: {fileID: 0}
    - target: {fileID: 1283808677826571288, guid: 8597e651e28c23547b698b48026efc11, type: 3}
      propertyPath: m_Offset.y
      value: 0.20399967
      objectReference: {fileID: 0}
    - target: {fileID: 1283808677826571288, guid: 8597e651e28c23547b698b48026efc11, type: 3}
      propertyPath: m_SpriteTilingProperty.oldSize.x
      value: 4.6454544
      objectReference: {fileID: 0}
    - target: {fileID: 1283808677826571289, guid: 8597e651e28c23547b698b48026efc11, type: 3}
      propertyPath: m_RootOrder
      value: 0
      objectReference: {fileID: 0}
    - target: {fileID: 1283808677826571289, guid: 8597e651e28c23547b698b48026efc11, type: 3}
      propertyPath: m_LocalPosition.x
      value: 0
      objectReference: {fileID: 0}
    - target: {fileID: 1283808677826571289, guid: 8597e651e28c23547b698b48026efc11, type: 3}
      propertyPath: m_LocalPosition.y
      value: 0
      objectReference: {fileID: 0}
    - target: {fileID: 1283808677826571289, guid: 8597e651e28c23547b698b48026efc11, type: 3}
      propertyPath: m_LocalPosition.z
      value: 0
      objectReference: {fileID: 0}
    - target: {fileID: 1283808677826571289, guid: 8597e651e28c23547b698b48026efc11, type: 3}
      propertyPath: m_LocalRotation.w
      value: 1
      objectReference: {fileID: 0}
    - target: {fileID: 1283808677826571289, guid: 8597e651e28c23547b698b48026efc11, type: 3}
      propertyPath: m_LocalRotation.x
      value: -0
      objectReference: {fileID: 0}
    - target: {fileID: 1283808677826571289, guid: 8597e651e28c23547b698b48026efc11, type: 3}
      propertyPath: m_LocalRotation.y
      value: -0
      objectReference: {fileID: 0}
    - target: {fileID: 1283808677826571289, guid: 8597e651e28c23547b698b48026efc11, type: 3}
      propertyPath: m_LocalRotation.z
      value: -0
      objectReference: {fileID: 0}
    - target: {fileID: 1283808677826571289, guid: 8597e651e28c23547b698b48026efc11, type: 3}
      propertyPath: m_LocalEulerAnglesHint.x
      value: 0
      objectReference: {fileID: 0}
    - target: {fileID: 1283808677826571289, guid: 8597e651e28c23547b698b48026efc11, type: 3}
      propertyPath: m_LocalEulerAnglesHint.y
      value: 0
      objectReference: {fileID: 0}
    - target: {fileID: 1283808677826571289, guid: 8597e651e28c23547b698b48026efc11, type: 3}
      propertyPath: m_LocalEulerAnglesHint.z
      value: 0
      objectReference: {fileID: 0}
    - target: {fileID: 1283808677826571291, guid: 8597e651e28c23547b698b48026efc11, type: 3}
      propertyPath: m_Sprite
      value: 
      objectReference: {fileID: 5451889931219051667, guid: 1a000197d9ce0a240966880e374bb0f7, type: 3}
    - target: {fileID: 1503970356340543159, guid: 8597e651e28c23547b698b48026efc11, type: 3}
      propertyPath: m_Positions.Array.size
      value: 21
      objectReference: {fileID: 0}
    - target: {fileID: 1503970356340543159, guid: 8597e651e28c23547b698b48026efc11, type: 3}
      propertyPath: m_Positions.Array.data[0].x
      value: -2.28
      objectReference: {fileID: 0}
    - target: {fileID: 1503970356340543159, guid: 8597e651e28c23547b698b48026efc11, type: 3}
      propertyPath: m_Positions.Array.data[0].y
      value: 0.05
      objectReference: {fileID: 0}
    - target: {fileID: 1503970356340543159, guid: 8597e651e28c23547b698b48026efc11, type: 3}
      propertyPath: m_Positions.Array.data[1].x
      value: -2.141
      objectReference: {fileID: 0}
    - target: {fileID: 1503970356340543159, guid: 8597e651e28c23547b698b48026efc11, type: 3}
      propertyPath: m_Positions.Array.data[1].y
      value: -0.202367
      objectReference: {fileID: 0}
    - target: {fileID: 1503970356340543159, guid: 8597e651e28c23547b698b48026efc11, type: 3}
      propertyPath: m_Positions.Array.data[2].x
      value: -2.0019999
      objectReference: {fileID: 0}
    - target: {fileID: 1503970356340543159, guid: 8597e651e28c23547b698b48026efc11, type: 3}
      propertyPath: m_Positions.Array.data[2].y
      value: -0.38518983
      objectReference: {fileID: 0}
    - target: {fileID: 1503970356340543159, guid: 8597e651e28c23547b698b48026efc11, type: 3}
      propertyPath: m_Positions.Array.data[3].x
      value: -1.8629999
      objectReference: {fileID: 0}
    - target: {fileID: 1503970356340543159, guid: 8597e651e28c23547b698b48026efc11, type: 3}
      propertyPath: m_Positions.Array.data[3].y
      value: -0.5080838
      objectReference: {fileID: 0}
    - target: {fileID: 1503970356340543159, guid: 8597e651e28c23547b698b48026efc11, type: 3}
      propertyPath: m_Positions.Array.data[4].x
      value: -1.724
      objectReference: {fileID: 0}
    - target: {fileID: 1503970356340543159, guid: 8597e651e28c23547b698b48026efc11, type: 3}
      propertyPath: m_Positions.Array.data[4].y
      value: -0.58066446
      objectReference: {fileID: 0}
    - target: {fileID: 1503970356340543159, guid: 8597e651e28c23547b698b48026efc11, type: 3}
      propertyPath: m_Positions.Array.data[5].x
      value: -1.585
      objectReference: {fileID: 0}
    - target: {fileID: 1503970356340543159, guid: 8597e651e28c23547b698b48026efc11, type: 3}
      propertyPath: m_Positions.Array.data[5].y
      value: -0.6125473
      objectReference: {fileID: 0}
    - target: {fileID: 1503970356340543159, guid: 8597e651e28c23547b698b48026efc11, type: 3}
      propertyPath: m_Positions.Array.data[6].x
      value: -1.4459999
      objectReference: {fileID: 0}
    - target: {fileID: 1503970356340543159, guid: 8597e651e28c23547b698b48026efc11, type: 3}
      propertyPath: m_Positions.Array.data[6].y
      value: -0.61334765
      objectReference: {fileID: 0}
    - target: {fileID: 1503970356340543159, guid: 8597e651e28c23547b698b48026efc11, type: 3}
      propertyPath: m_Positions.Array.data[7].x
      value: -1.3069999
      objectReference: {fileID: 0}
    - target: {fileID: 1503970356340543159, guid: 8597e651e28c23547b698b48026efc11, type: 3}
      propertyPath: m_Positions.Array.data[7].y
      value: -0.592681
      objectReference: {fileID: 0}
    - target: {fileID: 1503970356340543159, guid: 8597e651e28c23547b698b48026efc11, type: 3}
      propertyPath: m_Positions.Array.data[8].x
      value: -1.168
      objectReference: {fileID: 0}
    - target: {fileID: 1503970356340543159, guid: 8597e651e28c23547b698b48026efc11, type: 3}
      propertyPath: m_Positions.Array.data[8].y
      value: -0.5601625
      objectReference: {fileID: 0}
    - target: {fileID: 1503970356340543159, guid: 8597e651e28c23547b698b48026efc11, type: 3}
      propertyPath: m_Positions.Array.data[9].x
      value: -1.029
      objectReference: {fileID: 0}
    - target: {fileID: 1503970356340543159, guid: 8597e651e28c23547b698b48026efc11, type: 3}
      propertyPath: m_Positions.Array.data[9].y
      value: -0.52540797
      objectReference: {fileID: 0}
    - target: {fileID: 1503970356340543159, guid: 8597e651e28c23547b698b48026efc11, type: 3}
      propertyPath: m_Positions.Array.data[10].x
      value: -0.89
      objectReference: {fileID: 0}
    - target: {fileID: 1503970356340543159, guid: 8597e651e28c23547b698b48026efc11, type: 3}
      propertyPath: m_Positions.Array.data[10].y
      value: -0.49803245
      objectReference: {fileID: 0}
    - target: {fileID: 1503970356340543159, guid: 8597e651e28c23547b698b48026efc11, type: 3}
      propertyPath: m_Positions.Array.data[11].x
      value: -0.7509999
      objectReference: {fileID: 0}
    - target: {fileID: 1503970356340543159, guid: 8597e651e28c23547b698b48026efc11, type: 3}
      propertyPath: m_Positions.Array.data[11].y
      value: -0.48862493
      objectReference: {fileID: 0}
    - target: {fileID: 1503970356340543159, guid: 8597e651e28c23547b698b48026efc11, type: 3}
      propertyPath: m_Positions.Array.data[12].x
      value: -0.61199987
      objectReference: {fileID: 0}
    - target: {fileID: 1503970356340543159, guid: 8597e651e28c23547b698b48026efc11, type: 3}
      propertyPath: m_Positions.Array.data[12].y
      value: -0.50657237
      objectReference: {fileID: 0}
    - target: {fileID: 1503970356340543159, guid: 8597e651e28c23547b698b48026efc11, type: 3}
      propertyPath: m_Positions.Array.data[13].x
      value: -0.47300005
      objectReference: {fileID: 0}
    - target: {fileID: 1503970356340543159, guid: 8597e651e28c23547b698b48026efc11, type: 3}
      propertyPath: m_Positions.Array.data[13].y
      value: -0.53389347
      objectReference: {fileID: 0}
    - target: {fileID: 1503970356340543159, guid: 8597e651e28c23547b698b48026efc11, type: 3}
      propertyPath: m_Positions.Array.data[14].x
      value: -0.334
      objectReference: {fileID: 0}
    - target: {fileID: 1503970356340543159, guid: 8597e651e28c23547b698b48026efc11, type: 3}
      propertyPath: m_Positions.Array.data[14].y
      value: -0.5675215
      objectReference: {fileID: 0}
    - target: {fileID: 1503970356340543159, guid: 8597e651e28c23547b698b48026efc11, type: 3}
      propertyPath: m_Positions.Array.data[15].x
      value: -0.19499993
      objectReference: {fileID: 0}
    - target: {fileID: 1503970356340543159, guid: 8597e651e28c23547b698b48026efc11, type: 3}
      propertyPath: m_Positions.Array.data[15].y
      value: -0.6043898
      objectReference: {fileID: 0}
    - target: {fileID: 1503970356340543159, guid: 8597e651e28c23547b698b48026efc11, type: 3}
      propertyPath: m_Positions.Array.data[16].x
      value: -0.055999994
      objectReference: {fileID: 0}
    - target: {fileID: 1503970356340543159, guid: 8597e651e28c23547b698b48026efc11, type: 3}
      propertyPath: m_Positions.Array.data[16].y
      value: -0.6414316
      objectReference: {fileID: 0}
    - target: {fileID: 1503970356340543159, guid: 8597e651e28c23547b698b48026efc11, type: 3}
      propertyPath: m_Positions.Array.data[17].x
      value: 0.08300018
      objectReference: {fileID: 0}
    - target: {fileID: 1503970356340543159, guid: 8597e651e28c23547b698b48026efc11, type: 3}
      propertyPath: m_Positions.Array.data[17].y
      value: -0.6755802
      objectReference: {fileID: 0}
    - target: {fileID: 1503970356340543159, guid: 8597e651e28c23547b698b48026efc11, type: 3}
      propertyPath: m_Positions.Array.data[18].x
      value: 0.22199988
      objectReference: {fileID: 0}
    - target: {fileID: 1503970356340543159, guid: 8597e651e28c23547b698b48026efc11, type: 3}
      propertyPath: m_Positions.Array.data[18].y
      value: -0.70376897
      objectReference: {fileID: 0}
    - target: {fileID: 1503970356340543159, guid: 8597e651e28c23547b698b48026efc11, type: 3}
      propertyPath: m_Positions.Array.data[19].x
      value: 0.36100006
      objectReference: {fileID: 0}
    - target: {fileID: 1503970356340543159, guid: 8597e651e28c23547b698b48026efc11, type: 3}
      propertyPath: m_Positions.Array.data[19].y
      value: -0.72293115
      objectReference: {fileID: 0}
    - target: {fileID: 1503970356340543159, guid: 8597e651e28c23547b698b48026efc11, type: 3}
      propertyPath: m_Positions.Array.data[20].x
      value: 0.5
      objectReference: {fileID: 0}
    - target: {fileID: 1503970356340543159, guid: 8597e651e28c23547b698b48026efc11, type: 3}
      propertyPath: m_Positions.Array.data[20].y
      value: -0.73
      objectReference: {fileID: 0}
    m_RemovedComponents: []
  m_SourcePrefab: {fileID: 100100000, guid: 8597e651e28c23547b698b48026efc11, type: 3}
--- !u!120 &4979948057294521239 stripped
LineRenderer:
  m_CorrespondingSourceObject: {fileID: 1503970356340543159, guid: 8597e651e28c23547b698b48026efc11, type: 3}
  m_PrefabInstance: {fileID: 5891686111575182624}
  m_PrefabAsset: {fileID: 0}
