%YAML 1.1
%TAG !u! tag:unity3d.com,2011:
--- !u!114 &11400000
MonoBehaviour:
  m_ObjectHideFlags: 0
  m_CorrespondingSourceObject: {fileID: 0}
  m_PrefabInstance: {fileID: 0}
  m_PrefabAsset: {fileID: 0}
  m_GameObject: {fileID: 0}
  m_Enabled: 1
  m_EditorHideFlags: 0
  m_Script: {fileID: 11500000, guid: 96e4d8431ef0b4b4ca92f7efe6e90471, type: 3}
  m_Name: EmotionJump_Emotion_engl
  m_EditorClassIdentifier: 
  image: {fileID: -570053508468838254, guid: cfbadeda04050f641b502c39057e5d00, type: 3}
  heading: Emotion power-ups
  text: Collect the colorfull <h>rainbowcoins</h> to fill the <h>Emotionscale</h>
    on the lower right. If the scale is full </h>right click</h> and make a emotion
    into the camera to get a power-up.
