%YAML 1.1
%TAG !u! tag:unity3d.com,2011:
--- !u!114 &11400000
MonoBehaviour:
  m_ObjectHideFlags: 0
  m_CorrespondingSourceObject: {fileID: 0}
  m_PrefabInstance: {fileID: 0}
  m_PrefabAsset: {fileID: 0}
  m_GameObject: {fileID: 0}
  m_Enabled: 1
  m_EditorHideFlags: 0
  m_Script: {fileID: 11500000, guid: 5a1816e00957cac49b78e24a7895298f, type: 3}
  m_Name: Hubworld
  m_EditorClassIdentifier: 
  displayName: Inseln
  scenes:
  - Hubworld
  loadingScreen: LoadingScreen
  minDuration: 0.5
