%YAML 1.1
%TAG !u! tag:unity3d.com,2011:
--- !u!1001 &5609695992132484114
PrefabInstance:
  m_ObjectHideFlags: 0
  serializedVersion: 2
  m_Modification:
    m_TransformParent: {fileID: 0}
    m_Modifications:
    - target: {fileID: 12792973611693956, guid: c769af8bd7f7d0241b3104367a389cc1, type: 3}
      propertyPath: m_RootOrder
      value: 0
      objectReference: {fileID: 0}
    - target: {fileID: 12792973611693956, guid: c769af8bd7f7d0241b3104367a389cc1, type: 3}
      propertyPath: m_LocalPosition.x
      value: 0
      objectReference: {fileID: 0}
    - target: {fileID: 12792973611693956, guid: c769af8bd7f7d0241b3104367a389cc1, type: 3}
      propertyPath: m_LocalPosition.y
      value: 0
      objectReference: {fileID: 0}
    - target: {fileID: 12792973611693956, guid: c769af8bd7f7d0241b3104367a389cc1, type: 3}
      propertyPath: m_LocalPosition.z
      value: 0
      objectReference: {fileID: 0}
    - target: {fileID: 12792973611693956, guid: c769af8bd7f7d0241b3104367a389cc1, type: 3}
      propertyPath: m_LocalRotation.w
      value: 0.7071068
      objectReference: {fileID: 0}
    - target: {fileID: 12792973611693956, guid: c769af8bd7f7d0241b3104367a389cc1, type: 3}
      propertyPath: m_LocalRotation.x
      value: 0.7071068
      objectReference: {fileID: 0}
    - target: {fileID: 12792973611693956, guid: c769af8bd7f7d0241b3104367a389cc1, type: 3}
      propertyPath: m_LocalRotation.y
      value: 0
      objectReference: {fileID: 0}
    - target: {fileID: 12792973611693956, guid: c769af8bd7f7d0241b3104367a389cc1, type: 3}
      propertyPath: m_LocalRotation.z
      value: 0
      objectReference: {fileID: 0}
    - target: {fileID: 12792973611693956, guid: c769af8bd7f7d0241b3104367a389cc1, type: 3}
      propertyPath: m_LocalEulerAnglesHint.x
      value: 90
      objectReference: {fileID: 0}
    - target: {fileID: 12792973611693956, guid: c769af8bd7f7d0241b3104367a389cc1, type: 3}
      propertyPath: m_LocalEulerAnglesHint.y
      value: 0
      objectReference: {fileID: 0}
    - target: {fileID: 12792973611693956, guid: c769af8bd7f7d0241b3104367a389cc1, type: 3}
      propertyPath: m_LocalEulerAnglesHint.z
      value: 0
      objectReference: {fileID: 0}
    - target: {fileID: 12792973611693957, guid: c769af8bd7f7d0241b3104367a389cc1, type: 3}
      propertyPath: m_Color.b
      value: 0.5330188
      objectReference: {fileID: 0}
    - target: {fileID: 12792973611693957, guid: c769af8bd7f7d0241b3104367a389cc1, type: 3}
      propertyPath: m_Color.g
      value: 0.5330188
      objectReference: {fileID: 0}
    - target: {fileID: 12792973611693959, guid: c769af8bd7f7d0241b3104367a389cc1, type: 3}
      propertyPath: m_Name
      value: Shroom1_Red
      objectReference: {fileID: 0}
    m_RemovedComponents: []
  m_SourcePrefab: {fileID: 100100000, guid: c769af8bd7f7d0241b3104367a389cc1, type: 3}
