%YAML 1.1
%TAG !u! tag:unity3d.com,2011:
--- !u!74 &7400000
AnimationClip:
  m_ObjectHideFlags: 0
  m_CorrespondingSourceObject: {fileID: 0}
  m_PrefabInstance: {fileID: 0}
  m_PrefabAsset: {fileID: 0}
  m_Name: frog_eat
  serializedVersion: 6
  m_Legacy: 0
  m_Compressed: 0
  m_UseHighQualityCurve: 1
  m_RotationCurves: []
  m_CompressedRotationCurves: []
  m_EulerCurves: []
  m_PositionCurves: []
  m_ScaleCurves: []
  m_FloatCurves: []
  m_PPtrCurves:
  - curve:
    - time: 0
      value: {fileID: 417124045420176764, guid: c9fe260d57f279f4b8c6291887c5ca10, type: 3}
    - time: 0.05
      value: {fileID: -4555030294514518905, guid: c9fe260d57f279f4b8c6291887c5ca10, type: 3}
    - time: 0.11666667
      value: {fileID: 1556534546017217948, guid: c9fe260d57f279f4b8c6291887c5ca10, type: 3}
    - time: 0.2
      value: {fileID: 981220606063304632, guid: c9fe260d57f279f4b8c6291887c5ca10, type: 3}
    - time: 0.25
      value: {fileID: 7358999006655405799, guid: c9fe260d57f279f4b8c6291887c5ca10, type: 3}
    - time: 0.31666666
      value: {fileID: -1829526991573102469, guid: c9fe260d57f279f4b8c6291887c5ca10, type: 3}
    - time: 0.36666667
      value: {fileID: 1415898203925244984, guid: c9fe260d57f279f4b8c6291887c5ca10, type: 3}
    - time: 0.45
      value: {fileID: 5515936594948102374, guid: c9fe260d57f279f4b8c6291887c5ca10, type: 3}
    - time: 0.5
      value: {fileID: -4421431795485472021, guid: c9fe260d57f279f4b8c6291887c5ca10, type: 3}
    - time: 0.55
      value: {fileID: -837198687834946245, guid: c9fe260d57f279f4b8c6291887c5ca10, type: 3}
    - time: 0.6166667
      value: {fileID: -6740580957048309130, guid: c9fe260d57f279f4b8c6291887c5ca10, type: 3}
    - time: 0.7
      value: {fileID: 735031400495561704, guid: c9fe260d57f279f4b8c6291887c5ca10, type: 3}
    - time: 0.75
      value: {fileID: 562916956952498129, guid: c9fe260d57f279f4b8c6291887c5ca10, type: 3}
    - time: 0.8
      value: {fileID: -232198371256167495, guid: c9fe260d57f279f4b8c6291887c5ca10, type: 3}
    - time: 0.8666667
      value: {fileID: 4147273028158896288, guid: c9fe260d57f279f4b8c6291887c5ca10, type: 3}
    - time: 0.95
      value: {fileID: 6779770062144847529, guid: c9fe260d57f279f4b8c6291887c5ca10, type: 3}
    - time: 1
      value: {fileID: -4727891624273620206, guid: c9fe260d57f279f4b8c6291887c5ca10, type: 3}
    - time: 1.05
      value: {fileID: -868988811207317320, guid: c9fe260d57f279f4b8c6291887c5ca10, type: 3}
    - time: 1.1166667
      value: {fileID: -84281779059409036, guid: c9fe260d57f279f4b8c6291887c5ca10, type: 3}
    - time: 1.1666666
      value: {fileID: 5046199042813676670, guid: c9fe260d57f279f4b8c6291887c5ca10, type: 3}
    - time: 1.25
      value: {fileID: -5847615724761732564, guid: c9fe260d57f279f4b8c6291887c5ca10, type: 3}
    - time: 1.3
      value: {fileID: -768876110926413978, guid: c9fe260d57f279f4b8c6291887c5ca10, type: 3}
    - time: 1.3666667
      value: {fileID: -6733058643729119294, guid: c9fe260d57f279f4b8c6291887c5ca10, type: 3}
    - time: 1.45
      value: {fileID: 924193570855707492, guid: c9fe260d57f279f4b8c6291887c5ca10, type: 3}
    - time: 1.5166667
      value: {fileID: -50459364312563700, guid: c9fe260d57f279f4b8c6291887c5ca10, type: 3}
    - time: 1.55
      value: {fileID: -1114260007375071463, guid: c9fe260d57f279f4b8c6291887c5ca10, type: 3}
    - time: 1.6333333
      value: {fileID: 1890182551552871432, guid: c9fe260d57f279f4b8c6291887c5ca10, type: 3}
    - time: 1.7
      value: {fileID: 5523453092960787866, guid: c9fe260d57f279f4b8c6291887c5ca10, type: 3}
    - time: 1.75
      value: {fileID: -8871273511249085348, guid: c9fe260d57f279f4b8c6291887c5ca10, type: 3}
    - time: 1.8
      value: {fileID: -8592462903488475234, guid: c9fe260d57f279f4b8c6291887c5ca10, type: 3}
    - time: 1.8833333
      value: {fileID: -550331304696249610, guid: c9fe260d57f279f4b8c6291887c5ca10, type: 3}
    - time: 1.95
      value: {fileID: 4156103479885327650, guid: c9fe260d57f279f4b8c6291887c5ca10, type: 3}
    - time: 2
      value: {fileID: 8086109753504694708, guid: c9fe260d57f279f4b8c6291887c5ca10, type: 3}
    - time: 2.05
      value: {fileID: -1278820626102443530, guid: c9fe260d57f279f4b8c6291887c5ca10, type: 3}
    - time: 2.1333334
      value: {fileID: -3961591797365529813, guid: c9fe260d57f279f4b8c6291887c5ca10, type: 3}
    - time: 2.1833334
      value: {fileID: -9212577466392817041, guid: c9fe260d57f279f4b8c6291887c5ca10, type: 3}
    - time: 2.25
      value: {fileID: 6559848599473647583, guid: c9fe260d57f279f4b8c6291887c5ca10, type: 3}
    - time: 2.3333333
      value: {fileID: 4692394649744108770, guid: c9fe260d57f279f4b8c6291887c5ca10, type: 3}
    - time: 2.3833334
      value: {fileID: 4082619617889788366, guid: c9fe260d57f279f4b8c6291887c5ca10, type: 3}
    - time: 2.45
      value: {fileID: 4037959107947509824, guid: c9fe260d57f279f4b8c6291887c5ca10, type: 3}
    - time: 2.5
      value: {fileID: -1215810196910762152, guid: c9fe260d57f279f4b8c6291887c5ca10, type: 3}
    - time: 2.55
      value: {fileID: -3739633737752946013, guid: c9fe260d57f279f4b8c6291887c5ca10, type: 3}
    - time: 2.6333334
      value: {fileID: 4446344441668052724, guid: c9fe260d57f279f4b8c6291887c5ca10, type: 3}
    - time: 2.7
      value: {fileID: -2042130499782797404, guid: c9fe260d57f279f4b8c6291887c5ca10, type: 3}
    - time: 2.75
      value: {fileID: 8731838555663694626, guid: c9fe260d57f279f4b8c6291887c5ca10, type: 3}
    - time: 2.8
      value: {fileID: 5507489220259529612, guid: c9fe260d57f279f4b8c6291887c5ca10, type: 3}
    - time: 2.8833334
      value: {fileID: 7864264769506454662, guid: c9fe260d57f279f4b8c6291887c5ca10, type: 3}
    - time: 2.95
      value: {fileID: 5202665802586062795, guid: c9fe260d57f279f4b8c6291887c5ca10, type: 3}
    - time: 3
      value: {fileID: -8025220381845666716, guid: c9fe260d57f279f4b8c6291887c5ca10, type: 3}
    attribute: m_Sprite
    path: 
    classID: 212
    script: {fileID: 0}
  m_SampleRate: 60
  m_WrapMode: 0
  m_Bounds:
    m_Center: {x: 0, y: 0, z: 0}
    m_Extent: {x: 0, y: 0, z: 0}
  m_ClipBindingConstant:
    genericBindings:
    - serializedVersion: 2
      path: 0
      attribute: 0
      script: {fileID: 0}
      typeID: 212
      customType: 23
      isPPtrCurve: 1
    pptrCurveMapping:
    - {fileID: 417124045420176764, guid: c9fe260d57f279f4b8c6291887c5ca10, type: 3}
    - {fileID: -4555030294514518905, guid: c9fe260d57f279f4b8c6291887c5ca10, type: 3}
    - {fileID: 1556534546017217948, guid: c9fe260d57f279f4b8c6291887c5ca10, type: 3}
    - {fileID: 981220606063304632, guid: c9fe260d57f279f4b8c6291887c5ca10, type: 3}
    - {fileID: 7358999006655405799, guid: c9fe260d57f279f4b8c6291887c5ca10, type: 3}
    - {fileID: -1829526991573102469, guid: c9fe260d57f279f4b8c6291887c5ca10, type: 3}
    - {fileID: 1415898203925244984, guid: c9fe260d57f279f4b8c6291887c5ca10, type: 3}
    - {fileID: 5515936594948102374, guid: c9fe260d57f279f4b8c6291887c5ca10, type: 3}
    - {fileID: -4421431795485472021, guid: c9fe260d57f279f4b8c6291887c5ca10, type: 3}
    - {fileID: -837198687834946245, guid: c9fe260d57f279f4b8c6291887c5ca10, type: 3}
    - {fileID: -6740580957048309130, guid: c9fe260d57f279f4b8c6291887c5ca10, type: 3}
    - {fileID: 735031400495561704, guid: c9fe260d57f279f4b8c6291887c5ca10, type: 3}
    - {fileID: 562916956952498129, guid: c9fe260d57f279f4b8c6291887c5ca10, type: 3}
    - {fileID: -232198371256167495, guid: c9fe260d57f279f4b8c6291887c5ca10, type: 3}
    - {fileID: 4147273028158896288, guid: c9fe260d57f279f4b8c6291887c5ca10, type: 3}
    - {fileID: 6779770062144847529, guid: c9fe260d57f279f4b8c6291887c5ca10, type: 3}
    - {fileID: -4727891624273620206, guid: c9fe260d57f279f4b8c6291887c5ca10, type: 3}
    - {fileID: -868988811207317320, guid: c9fe260d57f279f4b8c6291887c5ca10, type: 3}
    - {fileID: -84281779059409036, guid: c9fe260d57f279f4b8c6291887c5ca10, type: 3}
    - {fileID: 5046199042813676670, guid: c9fe260d57f279f4b8c6291887c5ca10, type: 3}
    - {fileID: -5847615724761732564, guid: c9fe260d57f279f4b8c6291887c5ca10, type: 3}
    - {fileID: -768876110926413978, guid: c9fe260d57f279f4b8c6291887c5ca10, type: 3}
    - {fileID: -6733058643729119294, guid: c9fe260d57f279f4b8c6291887c5ca10, type: 3}
    - {fileID: 924193570855707492, guid: c9fe260d57f279f4b8c6291887c5ca10, type: 3}
    - {fileID: -50459364312563700, guid: c9fe260d57f279f4b8c6291887c5ca10, type: 3}
    - {fileID: -1114260007375071463, guid: c9fe260d57f279f4b8c6291887c5ca10, type: 3}
    - {fileID: 1890182551552871432, guid: c9fe260d57f279f4b8c6291887c5ca10, type: 3}
    - {fileID: 5523453092960787866, guid: c9fe260d57f279f4b8c6291887c5ca10, type: 3}
    - {fileID: -8871273511249085348, guid: c9fe260d57f279f4b8c6291887c5ca10, type: 3}
    - {fileID: -8592462903488475234, guid: c9fe260d57f279f4b8c6291887c5ca10, type: 3}
    - {fileID: -550331304696249610, guid: c9fe260d57f279f4b8c6291887c5ca10, type: 3}
    - {fileID: 4156103479885327650, guid: c9fe260d57f279f4b8c6291887c5ca10, type: 3}
    - {fileID: 8086109753504694708, guid: c9fe260d57f279f4b8c6291887c5ca10, type: 3}
    - {fileID: -1278820626102443530, guid: c9fe260d57f279f4b8c6291887c5ca10, type: 3}
    - {fileID: -3961591797365529813, guid: c9fe260d57f279f4b8c6291887c5ca10, type: 3}
    - {fileID: -9212577466392817041, guid: c9fe260d57f279f4b8c6291887c5ca10, type: 3}
    - {fileID: 6559848599473647583, guid: c9fe260d57f279f4b8c6291887c5ca10, type: 3}
    - {fileID: 4692394649744108770, guid: c9fe260d57f279f4b8c6291887c5ca10, type: 3}
    - {fileID: 4082619617889788366, guid: c9fe260d57f279f4b8c6291887c5ca10, type: 3}
    - {fileID: 4037959107947509824, guid: c9fe260d57f279f4b8c6291887c5ca10, type: 3}
    - {fileID: -1215810196910762152, guid: c9fe260d57f279f4b8c6291887c5ca10, type: 3}
    - {fileID: -3739633737752946013, guid: c9fe260d57f279f4b8c6291887c5ca10, type: 3}
    - {fileID: 4446344441668052724, guid: c9fe260d57f279f4b8c6291887c5ca10, type: 3}
    - {fileID: -2042130499782797404, guid: c9fe260d57f279f4b8c6291887c5ca10, type: 3}
    - {fileID: 8731838555663694626, guid: c9fe260d57f279f4b8c6291887c5ca10, type: 3}
    - {fileID: 5507489220259529612, guid: c9fe260d57f279f4b8c6291887c5ca10, type: 3}
    - {fileID: 7864264769506454662, guid: c9fe260d57f279f4b8c6291887c5ca10, type: 3}
    - {fileID: 5202665802586062795, guid: c9fe260d57f279f4b8c6291887c5ca10, type: 3}
    - {fileID: -8025220381845666716, guid: c9fe260d57f279f4b8c6291887c5ca10, type: 3}
  m_AnimationClipSettings:
    serializedVersion: 2
    m_AdditiveReferencePoseClip: {fileID: 0}
    m_AdditiveReferencePoseTime: 0
    m_StartTime: 0
    m_StopTime: 3.0166667
    m_OrientationOffsetY: 0
    m_Level: 0
    m_CycleOffset: 0
    m_HasAdditiveReferencePose: 0
    m_LoopTime: 1
    m_LoopBlend: 0
    m_LoopBlendOrientation: 0
    m_LoopBlendPositionY: 0
    m_LoopBlendPositionXZ: 0
    m_KeepOriginalOrientation: 0
    m_KeepOriginalPositionY: 1
    m_KeepOriginalPositionXZ: 0
    m_HeightFromFeet: 0
    m_Mirror: 0
  m_EditorCurves: []
  m_EulerEditorCurves: []
  m_HasGenericRootTransform: 0
  m_HasMotionFloatCurves: 0
  m_Events:
  - time: 0.05
    functionName: SetState
    data: 
    objectReferenceParameter: {fileID: 0}
    floatParameter: 0
    intParameter: 0
    messageOptions: 0
