%YAML 1.1
%TAG !u! tag:unity3d.com,2011:
--- !u!74 &7400000
AnimationClip:
  m_ObjectHideFlags: 0
  m_CorrespondingSourceObject: {fileID: 0}
  m_PrefabInstance: {fileID: 0}
  m_PrefabAsset: {fileID: 0}
  m_Name: frog_quack
  serializedVersion: 6
  m_Legacy: 0
  m_Compressed: 0
  m_UseHighQualityCurve: 1
  m_RotationCurves: []
  m_CompressedRotationCurves: []
  m_EulerCurves: []
  m_PositionCurves: []
  m_ScaleCurves: []
  m_FloatCurves: []
  m_PPtrCurves:
  - curve:
    - time: 0
      value: {fileID: 3421587631113990335, guid: 03832e53b301aa4458dbf40f11a93bfc, type: 3}
    - time: 0.23333333
      value: {fileID: 3421587631113990335, guid: 03832e53b301aa4458dbf40f11a93bfc, type: 3}
    - time: 0.26666668
      value: {fileID: -7010332732424256881, guid: 03832e53b301aa4458dbf40f11a93bfc, type: 3}
    - time: 0.31666666
      value: {fileID: 5311539346997393801, guid: 03832e53b301aa4458dbf40f11a93bfc, type: 3}
    - time: 0.36666667
      value: {fileID: -8352680793925319421, guid: 03832e53b301aa4458dbf40f11a93bfc, type: 3}
    - time: 0.4
      value: {fileID: -6494788882234939155, guid: 03832e53b301aa4458dbf40f11a93bfc, type: 3}
    - time: 0.45
      value: {fileID: -4385506638375447555, guid: 03832e53b301aa4458dbf40f11a93bfc, type: 3}
    - time: 0.48333332
      value: {fileID: -5791550878002649184, guid: 03832e53b301aa4458dbf40f11a93bfc, type: 3}
    - time: 0.53333336
      value: {fileID: -8425956608078374251, guid: 03832e53b301aa4458dbf40f11a93bfc, type: 3}
    - time: 0.56666666
      value: {fileID: -5883232050490134830, guid: 03832e53b301aa4458dbf40f11a93bfc, type: 3}
    - time: 0.6
      value: {fileID: -4010899430119640996, guid: 03832e53b301aa4458dbf40f11a93bfc, type: 3}
    - time: 0.65
      value: {fileID: 7984269532819856178, guid: 03832e53b301aa4458dbf40f11a93bfc, type: 3}
    - time: 0.7
      value: {fileID: -8162645108327010641, guid: 03832e53b301aa4458dbf40f11a93bfc, type: 3}
    - time: 0.73333335
      value: {fileID: -5484375399307251059, guid: 03832e53b301aa4458dbf40f11a93bfc, type: 3}
    - time: 0.76666665
      value: {fileID: 5692088439623225531, guid: 03832e53b301aa4458dbf40f11a93bfc, type: 3}
    - time: 0.81666666
      value: {fileID: 4827059404767965968, guid: 03832e53b301aa4458dbf40f11a93bfc, type: 3}
    - time: 0.8666667
      value: {fileID: 807562829573740972, guid: 03832e53b301aa4458dbf40f11a93bfc, type: 3}
    - time: 0.9
      value: {fileID: -6413275288790469139, guid: 03832e53b301aa4458dbf40f11a93bfc, type: 3}
    - time: 0.93333334
      value: {fileID: -4731757927858044456, guid: 03832e53b301aa4458dbf40f11a93bfc, type: 3}
    - time: 0.98333335
      value: {fileID: 9060016956442825166, guid: 03832e53b301aa4458dbf40f11a93bfc, type: 3}
    - time: 1.0166667
      value: {fileID: -4838841680473452470, guid: 03832e53b301aa4458dbf40f11a93bfc, type: 3}
    - time: 1.0666667
      value: {fileID: -7105423063301483761, guid: 03832e53b301aa4458dbf40f11a93bfc, type: 3}
    - time: 1.1
      value: {fileID: -8975218636503627159, guid: 03832e53b301aa4458dbf40f11a93bfc, type: 3}
    - time: 1.15
      value: {fileID: 228562849521542674, guid: 03832e53b301aa4458dbf40f11a93bfc, type: 3}
    - time: 1.2
      value: {fileID: 1833818958963160200, guid: 03832e53b301aa4458dbf40f11a93bfc, type: 3}
    - time: 1.2333333
      value: {fileID: -8457082553671504546, guid: 03832e53b301aa4458dbf40f11a93bfc, type: 3}
    - time: 1.8
      value: {fileID: 3421587631113990335, guid: 03832e53b301aa4458dbf40f11a93bfc, type: 3}
    attribute: m_Sprite
    path: 
    classID: 212
    script: {fileID: 0}
  m_SampleRate: 60
  m_WrapMode: 0
  m_Bounds:
    m_Center: {x: 0, y: 0, z: 0}
    m_Extent: {x: 0, y: 0, z: 0}
  m_ClipBindingConstant:
    genericBindings:
    - serializedVersion: 2
      path: 0
      attribute: 0
      script: {fileID: 0}
      typeID: 212
      customType: 23
      isPPtrCurve: 1
    pptrCurveMapping:
    - {fileID: 3421587631113990335, guid: 03832e53b301aa4458dbf40f11a93bfc, type: 3}
    - {fileID: 3421587631113990335, guid: 03832e53b301aa4458dbf40f11a93bfc, type: 3}
    - {fileID: -7010332732424256881, guid: 03832e53b301aa4458dbf40f11a93bfc, type: 3}
    - {fileID: 5311539346997393801, guid: 03832e53b301aa4458dbf40f11a93bfc, type: 3}
    - {fileID: -8352680793925319421, guid: 03832e53b301aa4458dbf40f11a93bfc, type: 3}
    - {fileID: -6494788882234939155, guid: 03832e53b301aa4458dbf40f11a93bfc, type: 3}
    - {fileID: -4385506638375447555, guid: 03832e53b301aa4458dbf40f11a93bfc, type: 3}
    - {fileID: -5791550878002649184, guid: 03832e53b301aa4458dbf40f11a93bfc, type: 3}
    - {fileID: -8425956608078374251, guid: 03832e53b301aa4458dbf40f11a93bfc, type: 3}
    - {fileID: -5883232050490134830, guid: 03832e53b301aa4458dbf40f11a93bfc, type: 3}
    - {fileID: -4010899430119640996, guid: 03832e53b301aa4458dbf40f11a93bfc, type: 3}
    - {fileID: 7984269532819856178, guid: 03832e53b301aa4458dbf40f11a93bfc, type: 3}
    - {fileID: -8162645108327010641, guid: 03832e53b301aa4458dbf40f11a93bfc, type: 3}
    - {fileID: -5484375399307251059, guid: 03832e53b301aa4458dbf40f11a93bfc, type: 3}
    - {fileID: 5692088439623225531, guid: 03832e53b301aa4458dbf40f11a93bfc, type: 3}
    - {fileID: 4827059404767965968, guid: 03832e53b301aa4458dbf40f11a93bfc, type: 3}
    - {fileID: 807562829573740972, guid: 03832e53b301aa4458dbf40f11a93bfc, type: 3}
    - {fileID: -6413275288790469139, guid: 03832e53b301aa4458dbf40f11a93bfc, type: 3}
    - {fileID: -4731757927858044456, guid: 03832e53b301aa4458dbf40f11a93bfc, type: 3}
    - {fileID: 9060016956442825166, guid: 03832e53b301aa4458dbf40f11a93bfc, type: 3}
    - {fileID: -4838841680473452470, guid: 03832e53b301aa4458dbf40f11a93bfc, type: 3}
    - {fileID: -7105423063301483761, guid: 03832e53b301aa4458dbf40f11a93bfc, type: 3}
    - {fileID: -8975218636503627159, guid: 03832e53b301aa4458dbf40f11a93bfc, type: 3}
    - {fileID: 228562849521542674, guid: 03832e53b301aa4458dbf40f11a93bfc, type: 3}
    - {fileID: 1833818958963160200, guid: 03832e53b301aa4458dbf40f11a93bfc, type: 3}
    - {fileID: -8457082553671504546, guid: 03832e53b301aa4458dbf40f11a93bfc, type: 3}
    - {fileID: 3421587631113990335, guid: 03832e53b301aa4458dbf40f11a93bfc, type: 3}
  m_AnimationClipSettings:
    serializedVersion: 2
    m_AdditiveReferencePoseClip: {fileID: 0}
    m_AdditiveReferencePoseTime: 0
    m_StartTime: 0
    m_StopTime: 1.8166666
    m_OrientationOffsetY: 0
    m_Level: 0
    m_CycleOffset: 0
    m_HasAdditiveReferencePose: 0
    m_LoopTime: 1
    m_LoopBlend: 0
    m_LoopBlendOrientation: 0
    m_LoopBlendPositionY: 0
    m_LoopBlendPositionXZ: 0
    m_KeepOriginalOrientation: 0
    m_KeepOriginalPositionY: 1
    m_KeepOriginalPositionXZ: 0
    m_HeightFromFeet: 0
    m_Mirror: 0
  m_EditorCurves: []
  m_EulerEditorCurves: []
  m_HasGenericRootTransform: 0
  m_HasMotionFloatCurves: 0
  m_Events:
  - time: 0.06666667
    functionName: SetState
    data: 
    objectReferenceParameter: {fileID: 0}
    floatParameter: 0
    intParameter: 0
    messageOptions: 0
