%YAML 1.1
%TAG !u! tag:unity3d.com,2011:
--- !u!114 &11400000
MonoBehaviour:
  m_ObjectHideFlags: 0
  m_CorrespondingSourceObject: {fileID: 0}
  m_PrefabInstance: {fileID: 0}
  m_PrefabAsset: {fileID: 0}
  m_GameObject: {fileID: 0}
  m_Enabled: 1
  m_EditorHideFlags: 0
  m_Script: {fileID: 11500000, guid: be7c8fd26841d8b4797942fea3889248, type: 3}
  m_Name: FlowerSet
  m_EditorClassIdentifier: 
  neutral: {fileID: 0}
  angry: {fileID: -823485258123542462, guid: 1518633f9e80bb64183e599c53453380, type: 3}
  disgusted: {fileID: 0}
  fearful: {fileID: 0}
  happy: {fileID: 5704772897616931736, guid: 1518633f9e80bb64183e599c53453380, type: 3}
  sad: {fileID: -962023211998931578, guid: 1518633f9e80bb64183e599c53453380, type: 3}
  surprised: {fileID: -5084280438046893175, guid: 1518633f9e80bb64183e599c53453380, type: 3}
