%YAML 1.1
%TAG !u! tag:unity3d.com,2011:
--- !u!114 &11400000
MonoBehaviour:
  m_ObjectHideFlags: 0
  m_CorrespondingSourceObject: {fileID: 0}
  m_PrefabInstance: {fileID: 0}
  m_PrefabAsset: {fileID: 0}
  m_GameObject: {fileID: 0}
  m_Enabled: 1
  m_EditorHideFlags: 0
  m_Script: {fileID: 11500000, guid: ac4ef82f0b21c6f479a81bf4ce6e2c3a, type: 3}
  m_Name: FruitbasketInventoryIconsSet
  m_EditorClassIdentifier: 
  gold: {fileID: -3749692494026361124, guid: 9e27f21dc800d8346a78ce8268c29492, type: 3}
  silver: {fileID: -2504688401848208878, guid: 9e27f21dc800d8346a78ce8268c29492, type: 3}
  bronze: {fileID: -4083195616752176834, guid: 9e27f21dc800d8346a78ce8268c29492, type: 3}
  wood: {fileID: 6648000852544319885, guid: 9e27f21dc800d8346a78ce8268c29492, type: 3}
