%YAML 1.1
%TAG !u! tag:unity3d.com,2011:
--- !u!114 &11400000
MonoBehaviour:
  m_ObjectHideFlags: 0
  m_CorrespondingSourceObject: {fileID: 0}
  m_PrefabInstance: {fileID: 0}
  m_PrefabAsset: {fileID: 0}
  m_GameObject: {fileID: 0}
  m_Enabled: 1
  m_EditorHideFlags: 0
  m_Script: {fileID: 11500000, guid: be7c8fd26841d8b4797942fea3889248, type: 3}
  m_Name: MentiForDialogue
  m_EditorClassIdentifier: 
  neutral: {fileID: -5038507683991597387, guid: 22ef2e9812e6f7746b16631dd85733ca, type: 3}
  angry: {fileID: -5038507683991597387, guid: 22ef2e9812e6f7746b16631dd85733ca, type: 3}
  happy: {fileID: -5038507683991597387, guid: 22ef2e9812e6f7746b16631dd85733ca, type: 3}
  sad: {fileID: -5038507683991597387, guid: 22ef2e9812e6f7746b16631dd85733ca, type: 3}
  surprised: {fileID: -5038507683991597387, guid: 22ef2e9812e6f7746b16631dd85733ca, type: 3}
