%YAML 1.1
%TAG !u! tag:unity3d.com,2011:
--- !u!114 &11400000
MonoBehaviour:
  m_ObjectHideFlags: 0
  m_CorrespondingSourceObject: {fileID: 0}
  m_PrefabInstance: {fileID: 0}
  m_PrefabAsset: {fileID: 0}
  m_GameObject: {fileID: 0}
  m_Enabled: 1
  m_EditorHideFlags: 0
  m_Script: {fileID: 11500000, guid: fe7ee0ff787087541b00368b3c72d584, type: 3}
  m_Name: EmotionInteraction_Interact
  m_EditorClassIdentifier: 
  clips:
  - {fileID: 8300000, guid: a8509fb200233bd4397b9f2b80830d36, type: 3}
