%YAML 1.1
%TAG !u! tag:unity3d.com,2011:
--- !u!114 &11400000
MonoBehaviour:
  m_ObjectHideFlags: 0
  m_CorrespondingSourceObject: {fileID: 0}
  m_PrefabInstance: {fileID: 0}
  m_PrefabAsset: {fileID: 0}
  m_GameObject: {fileID: 0}
  m_Enabled: 1
  m_EditorHideFlags: 0
  m_Script: {fileID: 11500000, guid: 96e4d8431ef0b4b4ca92f7efe6e90471, type: 3}
  m_Name: Fruitbasket_Objective
  m_EditorClassIdentifier: 
  image: {fileID: 5616874376279751606, guid: cfbadeda04050f641b502c39057e5d00, type: 3}
  heading: Aufgabe
  heading_engl: Objective
  text: "<h>Sammle</h> so viele <h>Fr\xFCchte</h> wie m\xF6glich. <h>Weiche</h> den
    <h>Meteoriten</h> aus."
  text_engl: <h>Collect</h> as many <h>fruits</h> as possible and <h>dodge</h> the
    incoming <h>meteorites</h>.
