%YAML 1.1
%TAG !u! tag:unity3d.com,2011:
--- !u!114 &11400000
MonoBehaviour:
  m_ObjectHideFlags: 0
  m_CorrespondingSourceObject: {fileID: 0}
  m_PrefabInstance: {fileID: 0}
  m_PrefabAsset: {fileID: 0}
  m_GameObject: {fileID: 0}
  m_Enabled: 1
  m_EditorHideFlags: 0
  m_Script: {fileID: 11500000, guid: 42b588a1ed2c1494ca2149635620a7d4, type: 3}
  m_Name: HubworldRules
  m_EditorClassIdentifier: 
  rules:
  - {fileID: 11400000, guid: 667fca63f3fa57a42aa99a4b62f8dcf3, type: 2}
